<?xml version="1.0" encoding="UTF-8" standalone="no"?>
<svg
   xmlns:dc="http://purl.org/dc/elements/1.1/"
   xmlns:cc="http://creativecommons.org/ns#"
   xmlns:rdf="http://www.w3.org/1999/02/22-rdf-syntax-ns#"
   xmlns:svg="http://www.w3.org/2000/svg"
   xmlns="http://www.w3.org/2000/svg"
   xmlns:sodipodi="http://sodipodi.sourceforge.net/DTD/sodipodi-0.dtd"
   xmlns:inkscape="http://www.inkscape.org/namespaces/inkscape"
   width="225mm"
   height="225mm"
   version="1.1"
   id="svg3943"
   sodipodi:docname="EdelstahlFrontV2_v2.svg"
   inkscape:version="0.92.3 (2405546, 2018-03-11)">
  <metadata
     id="metadata3947">
    <rdf:RDF>
      <cc:Work
         rdf:about="">
        <dc:format>image/svg+xml</dc:format>
        <dc:type
           rdf:resource="http://purl.org/dc/dcmitype/StillImage" />
        <dc:title></dc:title>
      </cc:Work>
    </rdf:RDF>
  </metadata>
  <sodipodi:namedview
     pagecolor="#ffffff"
     bordercolor="#666666"
     borderopacity="1"
     objecttolerance="10"
     gridtolerance="10"
     guidetolerance="10"
     inkscape:pageopacity="0"
     inkscape:pageshadow="2"
     inkscape:window-width="2493"
     inkscape:window-height="1376"
     id="namedview3945"
     showgrid="false"
     showguides="false"
     units="mm"
     inkscape:measure-start="699.582,718.876"
     inkscape:measure-end="130.629,718.876"
     inkscape:zoom="1.5067882"
     inkscape:cx="423.61611"
     inkscape:cy="436.47763"
     inkscape:window-x="1747"
     inkscape:window-y="27"
     inkscape:window-maximized="1"
     inkscape:current-layer="g3939" />
  <desc
     id="desc834">/home/matthias/Projekte/wordclock/case/EdelstahlFrontV2_v2.dxf - scale = 1.000000, origin = (0.000000, 0.000000), method = manual</desc>
  <defs
     id="defs849">
    <marker
       id="DistanceX"
       orient="auto"
       refX="0"
       refY="0"
       style="overflow:visible">
      <path
         d="M 3,-3 -3,3 M 0,-5 V 5"
         style="stroke:#000000;stroke-width:0.5"
         id="path836"
         inkscape:connector-curvature="0" />
    </marker>
    <pattern
       height="8"
       id="Hatch"
       patternUnits="userSpaceOnUse"
       width="8"
       x="0"
       y="0">
      <path
         d="M8 4 l-4,4"
         linecap="square"
         stroke="#000000"
         stroke-width="0.25"
         id="path839" />
      <path
         d="M6 2 l-4,4"
         linecap="square"
         stroke="#000000"
         stroke-width="0.25"
         id="path841" />
      <path
         d="M4 0 l-4,4"
         linecap="square"
         stroke="#000000"
         stroke-width="0.25"
         id="path843" />
    </pattern>
    <symbol
       id="*Model_Space" />
    <symbol
       id="*Paper_Space" />
    <symbol
       id="*Paper_Space0" />
  </defs>
  <g
     inkscape:groupmode="layer"
     inkscape:label="0"
     id="g3939"
     transform="translate(0,-272.12602)">
    <path
       id="path2371"
       style="fill:#000000;fill-opacity:1;stroke:none;stroke-width:0.30052495;stroke-linecap:round"
       d="M 0,272.12598 V 1122.5197 H 850.3937 V 272.12598 Z"
       inkscape:connector-curvature="0"
       sodipodi:nodetypes="ccccc" />
    <path
       id="path901"
       style="fill:#ffffff;fill-opacity:1;stroke:none;stroke-width:0.32199085;stroke-linecap:round"
       d="m 137.41787,972.44622 c 3.54837,0 5.93858,0.30594 7.17105,0.91195 1.23914,0.60904 1.87268,1.79069 1.85648,3.54027 -0.0401,4.27951 -5.40161,5.33925 -7.90157,5.33925 h -0.29086 l -0.001,2.95714 h 0.3664 c 1.87309,0 4.6638,0.82629 6.20119,1.75788 1.92777,1.1685 2.89964,2.75184 2.89964,4.73974 0,1.71677 -0.59123,2.90186 -1.76599,3.54025 -1.18143,0.64185 -3.33516,0.96115 -6.46461,0.96115 h -9.01639 l -0.0111,3.56497 h 9.31483 c 3.09684,0 5.33946,-0.14779 6.73572,-0.44362 1.39647,-0.29562 2.64512,-0.90344 3.72937,-1.81539 1.68399,-1.37986 2.52992,-3.29385 2.52992,-5.73347 0,-4.26329 -2.85852,-6.99042 -8.5839,-8.15689 2.22621,-0.56672 3.96749,-1.50317 5.20785,-2.82573 1.24036,-1.33066 1.86478,-2.89963 1.86478,-4.73142 0,-4.78063 -3.61437,-7.17105 -10.83481,-7.17105 l -9.96376,0 0.0111,9.3193 2e-5,13.94381 h 4.7455 l -0.005,-19.69814 z"
       inkscape:connector-curvature="0"
       sodipodi:nodetypes="ccccccccccccccccccccccccccc" />
    <path
       id="path953"
       style="fill:#ffffff;fill-opacity:1;stroke:none;stroke-width:0.32199085;stroke-linecap:round"
       d="m 308.10414,658.27674 c 3.54837,10e-6 5.93858,0.30596 7.17105,0.91197 1.23912,0.60904 1.87268,1.79066 1.85637,3.54026 -0.0402,4.27949 -5.40172,5.33924 -7.90167,5.33924 l -0.29086,0 -10e-4,2.95716 h 0.36635 c 1.8731,-10e-6 4.66382,0.8263 6.2012,1.75787 1.92777,1.16849 2.89963,2.75185 2.89963,4.73974 0,1.71678 -0.59124,2.90186 -1.76599,3.54027 -1.18142,0.64184 -3.33517,0.96114 -6.4646,0.96114 l -9.01639,-1e-5 -0.0111,3.56497 h 9.31484 c 3.09686,1e-5 5.33947,-0.1478 6.73575,-0.44361 1.39645,-0.29562 2.64512,-0.90344 3.72937,-1.81539 1.68398,-1.37986 2.52992,-3.29385 2.52992,-5.73347 0,-4.26331 -2.85853,-6.99044 -8.58391,-8.15689 2.22622,-0.56672 3.96749,-1.50317 5.20785,-2.82574 1.24036,-1.33066 1.86479,-2.89963 1.86479,-4.73143 0,-4.78061 -3.61438,-7.17103 -10.83482,-7.17103 l -9.96379,-10e-6 0.0111,9.31931 1.3e-4,13.94381 h 4.7456 l -0.005,-19.69816 z"
       inkscape:connector-curvature="0"
       sodipodi:nodetypes="ccccccccccccccccccccccccccc" />
    <path
       id="path1001"
       style="fill:#ffffff;fill-opacity:1;stroke:none;stroke-width:0.32199085;stroke-linecap:round"
       d="m 719.0253,421.40276 v -3.5652 h -14.7035 v -10.6293 h 17.23366 v -3.56497 H 699.5821 v 30.87759 h 4.7397 v -13.11812 z"
       inkscape:connector-curvature="0"
       sodipodi:nodetypes="ccccccccccc" />
    <path
       id="path1013"
       style="fill:#ffffff;fill-opacity:1;stroke:none;stroke-width:0.32199085;stroke-linecap:round"
       d="m 704.62169,529.59546 h -4.73977 V 560.473 h 21.37365 v -3.56496 h -16.63388 z"
       inkscape:connector-curvature="0"
       sodipodi:nodetypes="ccccccc" />
    <path
       id="path1047"
       style="fill:#ffffff;fill-opacity:1;stroke:none;stroke-width:0.32199085;stroke-linecap:round"
       d="m 704.14042,658.27674 h 4.70772 c 2.82531,10e-6 4.84198,0.40638 6.05396,1.22398 0.21321,0.16246 0.42637,0.32492 0.61456,0.51386 0.18666,0.1874 0.34867,0.40083 0.48793,0.62708 0.14431,0.23442 0.26409,0.48261 0.36139,0.73968 0.12391,0.32759 0.21128,0.66959 0.26355,1.01545 0.0584,0.38679 0.0731,0.77839 0.0877,1.16999 -0.0145,0.40124 -0.029,0.80246 -0.0839,1.19931 -0.0505,0.36662 -0.13524,0.72949 -0.2518,1.08171 -0.11028,0.33348 -0.24916,0.65739 -0.41955,0.96415 -0.16695,0.30062 -0.36417,0.58476 -0.58731,0.84664 -0.22727,0.26674 -0.48137,0.51035 -0.75496,0.72911 -0.28861,0.23073 -0.59896,0.4338 -0.92271,0.61171 -0.32924,0.18093 -0.67233,0.33583 -1.0234,0.46923 -0.38291,0.14548 -0.77531,0.26535 -1.17253,0.36486 -0.43565,0.10914 -0.87721,0.19376 -1.32141,0.26059 -0.4876,0.0734 -0.97847,0.12528 -1.47032,0.15635 -0.5389,0.034 -1.07905,0.0431 -1.61913,0.0521 l -7.6967,0 -1.6e-4,15.2868 h 4.73969 v -11.72185 h 3.46634 c 0.59928,-0.01 1.19857,-0.0195 1.79671,-0.0541 0.56322,-0.0326 1.12537,-0.0874 1.68472,-0.16243 0.52752,-0.0707 1.05253,-0.15958 1.57292,-0.27086 0.49233,-0.10532 0.98046,-0.23066 1.46136,-0.3795 0.47837,-0.14806 0.94943,-0.31935 1.41123,-0.51422 0.44161,-0.18637 0.87474,-0.39431 1.28909,-0.63371 0.40066,-0.2315 0.78378,-0.49245 1.16689,-0.75339 2.50542,-1.84819 3.76219,-4.38642 3.76219,-7.63107 0,-3.84418 -1.55258,-6.4482 -4.66564,-7.79527 -1.52784,-0.64083 -4.07436,-0.96114 -7.65576,-0.96114 l -10.02974,-10e-6 -2.7e-4,11.53376 h 4.74727 z"
       inkscape:connector-curvature="0"
       sodipodi:nodetypes="cccccccccccccccccccccccccccccccccccccc" />
    <path
       id="path1067"
       style="fill:#ffffff;fill-opacity:1;stroke:none;stroke-width:0.32199085;stroke-linecap:round"
       d="m 719.0253,798.00546 v -3.56518 h -14.7035 v -10.6293 h 17.23366 v -3.56497 H 699.5821 v 30.87756 h 4.7397 v -13.11811 z"
       inkscape:connector-curvature="0"
       sodipodi:nodetypes="ccccccccccc" />
    <path
       id="path1091"
       style="fill:#ffffff;fill-opacity:1;stroke:none;stroke-width:0.32199085;stroke-linecap:round"
       d="m 646.8642,403.54471 h -4.47697 v 30.97618 h 3.85252 v -22.63042 h 0.0739 l 14.26838,22.63041 h 4.37811 V 403.5447 h -3.87719 v 22.45789 h -0.0494 z"
       inkscape:connector-curvature="0"
       sodipodi:nodetypes="ccccccccccccc" />
    <path
       id="path1115"
       style="fill:#ffffff;fill-opacity:1;stroke:none;stroke-width:0.32199085;stroke-linecap:round"
       d="m 664.66025,556.90805 h -17.23359 v -10.8265 h 13.66862 v -3.56497 h -13.66862 v -9.35616 h 16.12465 v -3.56496 H 642.6869 V 560.473 h 21.97335 z"
       inkscape:connector-curvature="0"
       sodipodi:nodetypes="ccccccccccccc" />
    <path
       id="path1135"
       style="fill:#ffffff;fill-opacity:1;stroke:none;stroke-width:0.32199085;stroke-linecap:round"
       d="m 642.68691,685.58934 h 4.73976 v -13.11812 h 14.7035 v -3.56519 h -14.7035 v -10.62929 h 17.23359 v -3.56497 h -21.97335 z"
       inkscape:connector-curvature="0"
       sodipodi:nodetypes="ccccccccccc" />
    <path
       id="path1159"
       style="fill:#ffffff;fill-opacity:1;stroke:none;stroke-width:0.32199085;stroke-linecap:round"
       d="m 646.8642,780.14742 h -4.47697 v 30.97616 h 3.85252 V 788.4932 h 0.0739 l 14.26838,22.63038 h 4.37811 v -30.97616 h -3.87719 v 22.45786 h -0.0494 z"
       inkscape:connector-curvature="0"
       sodipodi:nodetypes="ccccccccccccc" />
    <path
       id="path1183"
       style="fill:#ffffff;fill-opacity:1;stroke:none;stroke-width:0.32199085;stroke-linecap:round"
       d="m 660.19596,999.75882 h 4.76418 v -30.87757 h -4.76418 v 13.49616 h -13.06902 v -13.49615 h -4.7397 v 30.87756 h 4.7397 v -13.81645 h 13.06902 z"
       inkscape:connector-curvature="0"
       sodipodi:nodetypes="ccccccccccccc" />
    <path
       id="path1211"
       style="fill:#ffffff;fill-opacity:1;stroke:none;stroke-width:0.32199085;stroke-linecap:round"
       d="m 584.31291,493.72302 v 3.56497 h 24.93047 v -3.56497 h -19.54179 l 19.35267,-23.74761 v -3.56496 h -23.5585 v 3.56496 h 18.19473 z"
       inkscape:connector-curvature="0"
       sodipodi:nodetypes="ccccccccccc" />
    <path
       id="path1223"
       style="fill:#ffffff;fill-opacity:1;stroke:none;stroke-width:0.32199085;stroke-linecap:round"
       d="m 607.46487,682.02437 h -16.63388 v -27.3126 h -4.73977 v 30.87757 h 21.37365 z"
       inkscape:connector-curvature="0"
       sodipodi:nodetypes="ccccccc" />
    <path
       id="path1255"
       style="fill:#ffffff;fill-opacity:1;stroke:none;stroke-width:0.32199085;stroke-linecap:round"
       d="m 607.46487,870.32573 h -8.30473 v -23.74764 h 8.30473 v -3.56496 h -21.37365 v 3.56496 h 8.30474 v 23.74764 h -8.30474 v 3.56498 h 21.37365 z"
       inkscape:connector-curvature="0"
       sodipodi:nodetypes="ccccccccccccc" />
    <path
       id="path1283"
       style="fill:#ffffff;fill-opacity:1;stroke:none;stroke-width:0.32199085;stroke-linecap:round"
       d="m 589.2259,997.40758 c 0.29801,0.25995 0.62076,0.49263 0.95659,0.7032 0.34535,0.21648 0.70447,0.40959 1.07475,0.5786 0.38725,0.17673 0.78669,0.32709 1.19309,0.45397 0.45164,0.14101 0.91198,0.25301 1.37683,0.34192 0.49829,0.0954 1.00167,0.16412 1.50687,0.20517 0.54438,0.0443 1.09074,0.0564 1.63716,0.0684 4.46032,1e-5 7.66386,-1.79068 9.60235,-5.36395 0.91199,-1.68398 1.37201,-4.46032 1.37201,-8.32939 v -17.93177 h -4.14 v 18.63009 c 0,3.35136 -0.53391,5.75819 -1.61011,7.22855 -1.07615,1.47038 -2.834,2.20151 -5.27362,2.20151 -2.30824,0 -3.98389,-0.73113 -5.01898,-2.20151 -1.03483,-1.47036 -1.55237,-3.83609 -1.55237,-7.11353 v -18.7451 h -4.73971 v 18.67929 c 0.01,0.59329 0.0193,1.18658 0.0545,1.77866 0.0328,0.54987 0.0875,1.09868 0.16356,1.64449 0.0707,0.50693 0.15977,1.01124 0.27252,1.51049 0.105,0.46462 0.2305,0.92487 0.38118,1.37662 0.14742,0.44196 0.31899,0.87578 0.51594,1.29871 0.18541,0.39815 0.39336,0.78662 0.63496,1.15213 0.23075,0.3492 0.49232,0.67743 0.75383,1.00566 0.27144,0.2849 0.54288,0.56979 0.83862,0.82781 z"
       inkscape:connector-curvature="0"
       sodipodi:nodetypes="ccccccccccccccccccccccccccc" />
    <path
       id="path1307"
       style="fill:#ffffff;fill-opacity:1;stroke:none;stroke-width:0.32199085;stroke-linecap:round"
       d="m 533.07324,466.3118 h -4.47691 v 30.97618 h 3.85251 v -22.63036 h 0.0739 l 14.26843,22.63036 h 4.37806 V 466.3118 h -3.8772 v 22.45789 h -0.0494 z"
       inkscape:connector-curvature="0"
       sodipodi:nodetypes="ccccccccccccc" />
    <path
       id="path1347"
       style="fill:#ffffff;fill-opacity:1;stroke:none;stroke-width:0.32199085;stroke-linecap:round"
       d="m 533.63576,798.00546 h 14.70348 v -3.56518 h -14.70348 v -10.6293 h 17.23359 v -3.56497 h -21.9733 v 30.87756 h 4.73971 z"
       inkscape:connector-curvature="0"
       sodipodi:nodetypes="ccccccccccc" />
    <path
       id="path1371"
       style="fill:#ffffff;fill-opacity:1;stroke:none;stroke-width:0.32199085;stroke-linecap:round"
       d="m 546.40498,936.65783 h 4.76424 v -30.87758 h -4.76424 v 13.49615 h -13.06889 v -13.49615 h -4.73977 v 30.87758 h 4.73977 v -13.81647 h 13.06889 z"
       inkscape:connector-curvature="0"
       sodipodi:nodetypes="ccccccccccccc" />
    <path
       id="path1383"
       style="fill:#ffffff;fill-opacity:1;stroke:none;stroke-width:0.32199085;stroke-linecap:round"
       d="m 477.04021,403.6433 h -4.73972 v 30.87759 h 21.37366 v -3.56496 h -16.63394 z"
       inkscape:connector-curvature="0"
       sodipodi:nodetypes="ccccccc" />
    <path
       id="path1409"
       style="fill:#ffffff;fill-opacity:1;stroke:none;stroke-width:0.32199085;stroke-linecap:round"
       d="m 188.05413,685.58934 4.37811,-11.28632 5.61036,-14.75292 5.65147,14.75292 -4.31494,1.8e-4 h -2.95431 l -1.35475,3.56478 h 10.04497 l 2.90793,7.72136 h 5.03534 l -12.17358,-30.87757 h -4.73952 l -12.18188,30.87757 z"
       inkscape:connector-curvature="0"
       sodipodi:nodetypes="cccccccccccccc" />
    <path
       id="path1435"
       style="fill:#ffffff;fill-opacity:1;stroke:none;stroke-width:0.32199085;stroke-linecap:round"
       d="m 479.46041,466.41044 -12.18188,30.87754 h 4.09077 l 4.37811,-11.28632 5.61038,-14.75292 5.65147,14.75292 -4.31494,1.8e-4 h -2.95427 l -1.35478,3.56478 h 10.04499 l 2.9079,7.72136 h 5.03535 l -12.17357,-30.87754 z"
       inkscape:connector-curvature="0"
       sodipodi:nodetypes="cccccccccccccc" />
    <path
       id="path1449"
       style="fill:#ffffff;fill-opacity:1;stroke:none;stroke-width:0.32199085;stroke-linecap:round"
       d="m 496.32392,591.94467 h -4.04967 l -10.0707,24.54438 -9.87369,-24.54438 h -5.00256 l 11.98471,30.87755 h 4.76445 z"
       inkscape:connector-curvature="0"
       sodipodi:nodetypes="cccccccc" />
    <path
       id="path1473"
       style="fill:#ffffff;fill-opacity:1;stroke:none;stroke-width:0.32199085;stroke-linecap:round"
       d="m 472.30049,717.47888 v 3.56497 h 8.30469 v 23.74766 h -8.30469 v 3.56496 h 21.37366 v -3.56496 h -8.30473 v -23.74766 h 8.30473 v -3.56497 z"
       inkscape:connector-curvature="0"
       sodipodi:nodetypes="ccccccccccccc" />
    <path
       id="path1497"
       style="fill:#ffffff;fill-opacity:1;stroke:none;stroke-width:0.32199085;stroke-linecap:round"
       d="m 476.17786,842.91453 h -4.4769 v 30.97618 h 3.85252 v -22.63038 h 0.0739 l 14.26837,22.63038 h 4.37811 v -30.97618 h -3.8772 v 22.45787 h -0.0494 z"
       inkscape:connector-curvature="0"
       sodipodi:nodetypes="ccccccccccccc" />
    <path
       id="path1517"
       style="fill:#ffffff;fill-opacity:1;stroke:none;stroke-width:0.32199085;stroke-linecap:round"
       d="m 472.00062,999.75882 h 4.73971 v -13.11811 h 14.70355 v -3.56519 h -14.70355 v -10.62931 h 17.23364 v -3.56496 h -21.97336 z"
       inkscape:connector-curvature="0"
       sodipodi:nodetypes="ccccccccccc" />
    <path
       id="path1549"
       style="fill:#ffffff;fill-opacity:1;stroke:none;stroke-width:0.32199085;stroke-linecap:round"
       d="m 424.84856,479.16732 h 0.0492 l 4.25501,18.12066 h 5.15034 l 5.07646,-30.87754 h -3.60609 l -3.96746,25.36579 h -0.0575 l -4.37811,-18.84373 h -4.56723 l -4.45221,19.13122 h -0.0739 l -3.7539,-25.65328 h -4.04138 l 4.59173,30.87754 h 5.48727 z"
       inkscape:connector-curvature="0"
       sodipodi:nodetypes="ccccccccccccccccc" />
    <path
       id="path1573"
       style="fill:#ffffff;fill-opacity:1;stroke:none;stroke-width:0.32199085;stroke-linecap:round"
       d="m 437.38215,591.94467 h -4.76422 v 13.49611 h -13.06894 v -13.49611 h -4.73974 v 30.87755 h 4.73974 v -13.81647 h 13.06894 v 13.81647 h 4.76422 z"
       inkscape:connector-curvature="0"
       sodipodi:nodetypes="ccccccccccccc" />
    <path
       id="path1619"
       style="fill:#ffffff;fill-opacity:1;stroke:none;stroke-width:0.32199085;stroke-linecap:round"
       d="m 423.82807,733.26684 3.17075,1.14986 c 2.58761,0.95285 4.28805,1.76618 5.11755,2.45622 0.82977,0.69004 1.24036,1.63459 1.24036,2.81743 0,1.56068 -0.69812,2.79294 -2.0946,3.72108 -1.39648,0.92005 -3.26108,1.38008 -5.61037,1.38008 -2.76823,0 -6.25929,-0.94475 -10.4651,-2.84214 l 0,4.69842 c 4.22221,1.14196 7.66409,1.70869 10.3254,1.70869 3.8361,0 6.89184,-0.85425 9.18368,-2.56293 2.2835,-1.70848 3.42522,-3.99218 3.42522,-6.85072 0,-3.75388 -2.2424,-6.41541 -6.71908,-7.98419 l -2.88327,-0.99394 -3.03107,-1.05976 c -2.16869,-0.74753 -3.65544,-1.48677 -4.4522,-2.2013 -0.80504,-0.71473 -1.20755,-1.65118 -1.20755,-2.82573 0,-2.88324 2.144,-4.32891 6.4318,-4.32891 2.7107,0 5.80757,0.67343 9.29032,2.0207 l 7e-5,-4.1155 c -3.46641,-0.97734 -6.58794,-1.47037 -9.36429,-1.47037 -3.41715,0 -6.07038,0.76394 -7.95967,2.28372 -1.88099,1.52786 -2.82574,3.67997 -2.82574,6.4563 0,2.0537 0.61613,3.69658 1.84008,4.92864 1.23206,1.24036 3.42526,2.43961 6.58771,3.61435 z"
       inkscape:connector-curvature="0"
       sodipodi:nodetypes="cccccccccccccccccccccccc" />
    <path
       id="path1639"
       style="fill:#ffffff;fill-opacity:1;stroke:none;stroke-width:0.32199085;stroke-linecap:round"
       d="m 438.55592,936.65783 v -3.56498 h -19.54186 l 19.35274,-23.74764 v -3.56496 h -23.55856 v 3.56496 h 18.19478 l -19.37764,23.74764 v 3.56498 z"
       inkscape:connector-curvature="0"
       sodipodi:nodetypes="ccccccccccc" />
    <path
       id="path1685"
       style="fill:#ffffff;fill-opacity:1;stroke:none;stroke-width:0.32199085;stroke-linecap:round"
       d="m 360.76899,404.43193 c -1.88098,1.52788 -2.82573,3.67998 -2.82573,6.4563 0.0115,0.36992 0.023,0.73981 0.0644,1.1071 0.0388,0.34423 0.10382,0.68618 0.19284,1.02128 0.0847,0.31885 0.19125,0.63153 0.321,0.93536 0.14836,0.34739 0.32711,0.68322 0.54243,0.99207 0.21541,0.30897 0.46744,0.59091 0.71945,0.87287 0.25819,0.23671 0.51639,0.47341 0.79047,0.69036 0.31441,0.24887 0.64972,0.4717 0.99177,0.68245 0.38955,0.24003 0.78784,0.46441 1.19329,0.67521 0.35502,0.18457 0.71552,0.35874 1.07924,0.52578 0.3976,0.18259 0.79904,0.35669 1.204,0.52202 0.44021,0.17973 0.88458,0.34913 1.32894,0.51853 l 3.17076,1.14983 c 2.58763,0.95285 4.28801,1.7662 5.11755,2.45623 0.82974,0.69003 1.24035,1.63457 1.24036,2.81741 -0.0131,0.28145 -0.0262,0.56291 -0.073,0.8398 -0.0445,0.26361 -0.11948,0.52309 -0.21894,0.7721 -0.0985,0.24641 -0.22085,0.48255 -0.36492,0.70537 -0.1758,0.27186 -0.38385,0.52388 -0.61748,0.74683 -0.25337,0.2418 -0.53682,0.4494 -0.82027,0.65701 -1.39647,0.92004 -3.26106,1.38006 -5.61038,1.38006 -2.76822,0 -6.25929,-0.94474 -10.46509,-2.84213 l 10e-6,4.69843 c 4.22218,1.14194 7.66405,1.70867 10.32538,1.70867 3.83608,0 6.89182,-0.85424 9.18364,-2.56292 2.2835,-1.70849 3.42526,-3.99219 3.42526,-6.85073 -0.0153,-0.40812 -0.0305,-0.81626 -0.0844,-1.22018 -0.0513,-0.385 -0.13768,-0.76619 -0.25307,-1.13799 -0.11252,-0.3626 -0.25267,-0.71628 -0.42171,-1.05579 -0.16928,-0.33998 -0.36754,-0.66573 -0.59028,-0.9735 -0.22899,-0.31646 -0.48386,-0.61394 -0.75879,-0.8913 -0.28371,-0.28625 -0.58879,-0.55109 -0.90916,-0.79537 -0.34182,-0.26063 -0.70107,-0.49788 -1.07159,-0.716 -0.39918,-0.23501 -0.81144,-0.44784 -1.23392,-0.63671 -0.45742,-0.20449 -0.92682,-0.3809 -1.39622,-0.55732 l -2.88324,-0.99395 -3.03102,-1.05977 c -2.16873,-0.74753 -3.65549,-1.48676 -4.45223,-2.2013 -0.20641,-0.20806 -0.41282,-0.41611 -0.58156,-0.65292 -0.16492,-0.23146 -0.29385,-0.49039 -0.39222,-0.75928 -0.08,-0.21875 -0.1398,-0.44407 -0.17532,-0.67272 -0.038,-0.24443 -0.0482,-0.49264 -0.0585,-0.74084 0.0138,-0.30667 0.0276,-0.61336 0.0807,-0.91464 0.0487,-0.27624 0.13025,-0.54794 0.24203,-0.80636 0.10704,-0.24748 0.24179,-0.48278 0.4034,-0.69805 0.16366,-0.21802 0.35489,-0.4155 0.5648,-0.58967 0.22392,-0.18583 0.46912,-0.34514 0.72612,-0.48123 0.27862,-0.14754 0.57113,-0.26777 0.87021,-0.36691 0.33532,-0.11115 0.67892,-0.19577 1.02588,-0.26217 0.39058,-0.0747 0.78543,-0.12639 1.18152,-0.1574 0.44467,-0.0348 0.89092,-0.0436 1.33716,-0.0525 0.5201,0.0143 1.04021,0.0287 1.55837,0.0704 0.54895,0.0441 1.09572,0.11879 1.63907,0.21121 0.57717,0.0981 1.15048,0.21635 1.71979,0.35204 0.71746,0.171 1.42857,0.36979 2.13052,0.59572 0.75458,0.24286 1.49858,0.51708 2.24258,0.79132 v -4.11547 c -0.63361,-0.17123 -1.26722,-0.34247 -1.90511,-0.49663 -0.60753,-0.14683 -1.21895,-0.27819 -1.83302,-0.39503 -0.58459,-0.11123 -1.17157,-0.20932 -1.76089,-0.29311 -0.65835,-0.0936 -1.31961,-0.16935 -1.98272,-0.2141 -0.62641,-0.0423 -1.25446,-0.0569 -1.88252,-0.0716 -3.41715,-2e-5 -6.07038,0.76392 -7.95967,2.2837 z"
       inkscape:connector-curvature="0"
       sodipodi:nodetypes="cccccccccsccccccccccccccccccccccccccccccccccccccccccccscccccsccc" />
    <path
       id="path1699"
       style="fill:#ffffff;fill-opacity:1;stroke:none;stroke-width:0.32199085;stroke-linecap:round"
       d="M 371.44751,560.47301 383.695,529.59546 h -4.04969 l -10.07068,24.54438 -9.87368,-24.54438 h -5.00254 l 11.98467,30.87755 z"
       inkscape:connector-curvature="0"
       sodipodi:nodetypes="cccccccc" />
    <path
       id="path1723"
       style="fill:#ffffff;fill-opacity:1;stroke:none;stroke-width:0.32199085;stroke-linecap:round"
       d="m 362.38718,717.38031 h -4.47693 v 30.97616 h 3.85248 v -22.63036 h 0.0739 l 14.26837,22.63036 h 4.37811 v -30.97616 h -3.87722 v 22.45786 h -0.0492 z"
       inkscape:connector-curvature="0"
       sodipodi:nodetypes="ccccccccccccc" />
    <path
       id="path1747"
       style="fill:#ffffff;fill-opacity:1;stroke:none;stroke-width:0.32199085;stroke-linecap:round"
       d="m 380.18346,870.32573 h -17.2336 v -10.82651 h 13.66865 v -3.56497 h -13.66865 v -9.35616 h 16.12466 v -3.56496 h -20.86441 v 30.87757 h 21.97335 z"
       inkscape:connector-curvature="0"
       sodipodi:nodetypes="ccccccccccccc" />
    <path
       id="path1771"
       style="fill:#ffffff;fill-opacity:1;stroke:none;stroke-width:0.32199085;stroke-linecap:round"
       d="m 380.48315,968.88125 h -4.76425 v 13.49616 h -13.06892 v -13.49615 h -4.73973 v 30.87756 h 4.73973 v -13.81645 h 13.06892 v 13.81645 h 4.76425 z"
       inkscape:connector-curvature="0"
       sodipodi:nodetypes="ccccccccccccc" />
    <path
       id="path1795"
       style="fill:#ffffff;fill-opacity:1;stroke:none;stroke-width:0.32199085;stroke-linecap:round"
       d="m 305.492,466.3118 h -4.4769 v 30.97618 h 3.85249 v -22.63036 h 0.0739 l 14.26838,22.63036 h 4.37811 V 466.3118 h -3.87719 v 22.45789 h -0.0492 z"
       inkscape:connector-curvature="0"
       sodipodi:nodetypes="ccccccccccccc" />
    <path
       id="path1819"
       style="fill:#ffffff;fill-opacity:1;stroke:none;stroke-width:0.32199085;stroke-linecap:round"
       d="m 322.98845,748.35646 v -3.56496 h -8.30471 v -23.74765 h 8.30471 v -3.56497 h -21.37363 v 3.56497 h 8.30471 v 23.74765 h -8.30471 v 3.56496 z"
       inkscape:connector-curvature="0"
       sodipodi:nodetypes="ccccccccccccc" />
    <path
       id="path1843"
       style="fill:#ffffff;fill-opacity:1;stroke:none;stroke-width:0.32199085;stroke-linecap:round"
       d="m 305.492,842.91453 h -4.4769 v 30.97618 h 3.85249 v -22.63038 h 0.0739 l 14.26838,22.63038 h 4.37811 v -30.97618 h -3.87719 v 22.45787 h -0.0492 z"
       inkscape:connector-curvature="0"
       sodipodi:nodetypes="ccccccccccccc" />
    <path
       id="path1871"
       style="fill:#ffffff;fill-opacity:1;stroke:none;stroke-width:0.32199085;stroke-linecap:round"
       d="m 324.97208,994.14846 c -2.99825,1.15815 -5.61037,1.73317 -7.82,1.73317 -3.66356,0 -6.6535,-1.16645 -8.97811,-3.49106 -2.32482,-2.32461 -3.49107,-5.31455 -3.49107,-8.97812 0,-3.62268 1.02675,-6.60432 3.08855,-8.94553 2.0618,-2.34101 4.69033,-3.51556 7.88558,-3.51556 2.76013,0 5.72537,0.73092 8.90443,2.1932 v -4.3619 c -3.11325,-0.92816 -6.02929,-1.39648 -8.75642,-1.39648 -4.81365,0 -8.71553,1.51148 -11.69717,4.52612 -2.98183,3.01464 -4.47691,6.95763 -4.4769,11.82047 2e-5,4.79702 1.50319,8.66611 4.50143,11.60665 2.99825,2.94903 6.95764,4.4194 11.86158,4.4194 2.80912,0 5.79927,-0.56672 8.97811,-1.70867 z"
       inkscape:connector-curvature="0"
       sodipodi:nodetypes="ccccccccccccccc" />
    <path
       id="path1895"
       style="fill:#ffffff;fill-opacity:1;stroke:none;stroke-width:0.32199085;stroke-linecap:round"
       d="m 266.39296,560.47301 v -3.56496 h -17.23362 v -10.8265 h 13.66865 v -3.56497 h -13.66865 v -9.35616 h 16.12467 v -3.56496 h -20.8644 V 560.473 Z"
       inkscape:connector-curvature="0"
       sodipodi:nodetypes="ccccccccccccc" />
    <path
       id="path1907"
       style="fill:#ffffff;fill-opacity:1;stroke:none;stroke-width:0.32199085;stroke-linecap:round"
       d="m 244.71948,654.71177 v 30.87757 h 21.37363 v -3.56497 h -16.63392 v -27.3126 z"
       inkscape:connector-curvature="0"
       sodipodi:nodetypes="ccccccc" />
    <path
       id="path1927"
       style="fill:#ffffff;fill-opacity:1;stroke:none;stroke-width:0.32199085;stroke-linecap:round"
       d="m 266.39296,843.01314 h -21.97335 v 30.87757 h 4.73973 v -13.11814 h 14.70351 v -3.56517 h -14.70351 v -10.62931 h 17.23362 z"
       inkscape:connector-curvature="0"
       sodipodi:nodetypes="ccccccccccc" />
    <path
       id="path1951"
       style="fill:#ffffff;fill-opacity:1;stroke:none;stroke-width:0.32199085;stroke-linecap:round"
       d="m 244.41961,968.88125 v 30.87757 h 21.97335 v -3.56497 h -17.23362 v -10.82651 h 13.66865 v -3.56498 h -13.66865 v -9.35614 h 16.12467 v -3.56497 z"
       inkscape:connector-curvature="0"
       sodipodi:nodetypes="ccccccccccccc" />
    <path
       id="path1975"
       style="fill:#ffffff;fill-opacity:1;stroke:none;stroke-width:0.32199085;stroke-linecap:round"
       d="m 209.49759,497.28798 v -3.56497 h -17.23361 v -10.82649 h 13.66865 v -3.56496 h -13.66865 v -9.35615 h 16.12466 v -3.56496 h -20.8644 v 30.87754 z"
       inkscape:connector-curvature="0"
       sodipodi:nodetypes="ccccccccccccc" />
    <path
       id="path2017"
       style="fill:#ffffff;fill-opacity:1;stroke:none;stroke-width:0.32199085;stroke-linecap:round"
       d="m 598.38408,596.49549 c 0.19814,0.13327 0.39622,0.26653 0.57093,0.42701 0.17363,0.15948 0.32415,0.34582 0.45283,0.54494 0.13476,0.20857 0.24557,0.43116 0.33504,0.66225 0.11592,0.2994 0.19593,0.61306 0.24397,0.93011 0.0546,0.36072 0.0679,0.72584 0.0812,1.09096 -0.0139,0.34466 -0.028,0.68932 -0.0782,1.02972 -0.0473,0.32132 -0.12724,0.63884 -0.23467,0.94607 -0.10447,0.29871 -0.23505,0.58767 -0.39101,0.86326 -0.18536,0.32758 -0.40667,0.63624 -0.661,0.91215 -0.26799,0.29078 -0.57271,0.54519 -0.87747,0.79961 -1.48819,1.12333 -3.50767,1.69593 -6.06228,1.68378 l -7.24496,-0.0353 v 16.47212 h 4.73977 v -12.84719 h 4.27946 l 9.75037,12.8472 h 5.75011 L 598.38413,608.7676 c 0.43131,-0.22784 0.86261,-0.45569 1.2841,-0.70106 0.38848,-0.22617 0.76859,-0.46723 1.13839,-0.72277 0.3403,-0.23514 0.67184,-0.48253 0.99313,-0.74381 0.34583,-0.28125 0.67973,-0.57858 0.98433,-0.90279 0.27729,-0.29516 0.53032,-0.61261 0.7834,-0.93006 0.18311,-0.2763 0.36621,-0.5526 0.52544,-0.84258 0.16163,-0.29435 0.2987,-0.60279 0.4173,-0.91759 0.12219,-0.32447 0.22481,-0.65572 0.30905,-0.99189 0.10404,-0.41529 0.18011,-0.83812 0.2254,-1.26348 0.0483,-0.453 0.0617,-0.9089 0.0752,-1.36478 -0.0155,-0.42114 -0.0311,-0.84227 -0.0879,-1.25888 -0.0532,-0.38881 -0.14216,-0.77369 -0.26355,-1.14784 -0.11608,-0.35768 -0.26162,-0.70555 -0.43909,-1.03668 -0.17516,-0.32678 -0.38146,-0.63725 -0.61447,-0.92565 -0.24954,-0.30881 -0.52978,-0.59231 -0.83175,-0.85055 -0.31904,-0.2728 -0.66234,-0.51743 -1.02399,-0.72858 -0.39106,-0.22833 -0.80352,-0.41751 -1.21605,-0.60671 -0.29693,-0.1073 -0.59386,-0.21457 -0.89696,-0.3003 -0.36911,-0.10437 -0.74744,-0.17685 -1.12686,-0.23853 -0.45057,-0.0733 -0.9027,-0.13129 -1.35627,-0.17663 -0.40797,-0.0408 -0.81701,-0.0712 -1.22641,-0.0955 -0.45563,-0.0269 -0.91162,-0.046 -1.36777,-0.0573 -0.50284,-0.0125 -1.0059,-0.0158 -1.50895,-0.0191 h -8.64154 l 0.0134,10.34907 h 4.73638 v -6.7841 l 2.90618,-10e-6 c 3.01437,0 5.08488,0.32881 6.21002,0.98586 z"
       inkscape:connector-curvature="0"
       sodipodi:nodetypes="ccccccccccccccccccccccccccccccccccccccccccccccccc" />
    <path
       id="path2059"
       style="fill:#ffffff;fill-opacity:1;stroke:none;stroke-width:0.32199085;stroke-linecap:round"
       d="m 243.14644,794.65148 v 16.47209 h 4.73974 v -12.84719 h 4.27949 l 9.75037,12.84719 h 5.75009 L 257.0121,797.06903 c 2.42323,-1.23226 4.14831,-2.57124 5.18336,-4.0005 1.03485,-1.43737 1.55238,-3.23636 1.55238,-5.38036 0,-3.12964 -1.49487,-5.31456 -4.47672,-6.55491 -1.39647,-0.59143 -3.89359,-0.88724 -7.48326,-0.88724 h -8.64141 l 0.0132,10.34907 h 4.73649 v -6.7841 l 2.90611,1e-5 c 3.01425,10e-6 5.08475,0.32883 6.2099,0.98585 1.12515,0.65683 1.68399,1.881 1.68399,3.65527 0,1.914 -0.74916,3.42385 -2.24242,4.55083 -1.48818,1.12333 -3.50766,1.69593 -6.06229,1.68377 z"
       inkscape:connector-curvature="0"
       sodipodi:nodetypes="cccccccccccccccccccccc" />
    <path
       id="path2101"
       style="fill:#ffffff;fill-opacity:1;stroke:none;stroke-width:0.32199085;stroke-linecap:round"
       d="m 655.27965,910.33109 c 0.19813,0.13328 0.3962,0.26654 0.57094,0.42701 0.17361,0.15949 0.32414,0.34584 0.45282,0.54495 0.13476,0.20857 0.24553,0.43116 0.33497,0.66223 0.11592,0.2994 0.196,0.61305 0.24402,0.93011 0.0546,0.36072 0.0679,0.72584 0.0812,1.09097 -0.0139,0.34466 -0.0279,0.68931 -0.0783,1.02973 -0.0472,0.32131 -0.12724,0.63884 -0.23463,0.94607 -0.10446,0.29869 -0.23505,0.58765 -0.39099,0.86322 -0.18543,0.32759 -0.40669,0.63624 -0.661,0.91217 -0.26801,0.29078 -0.57271,0.5452 -0.87748,0.79964 -1.48819,1.12331 -3.50766,1.69592 -6.06228,1.68376 l -7.24496,-0.0353 v 16.47211 h 4.73976 v -12.84723 h 4.27949 l 9.75036,12.84723 h 5.7501 l -10.65403,-14.05458 c 2.4232,-1.23226 4.14831,-2.57122 5.18335,-4.00049 0.18312,-0.27632 0.36622,-0.55265 0.52544,-0.84263 0.16165,-0.29434 0.29871,-0.60276 0.4173,-0.91756 0.1222,-0.32446 0.2248,-0.65571 0.30906,-0.99188 0.10403,-0.41531 0.18009,-0.83815 0.22539,-1.26352 0.0483,-0.453 0.0617,-0.90889 0.0751,-1.36477 -0.0155,-0.42114 -0.0311,-0.84227 -0.0878,-1.2589 -0.0531,-0.3888 -0.14217,-0.77365 -0.26355,-1.14781 -0.11608,-0.35768 -0.26162,-0.70558 -0.43909,-1.0367 -0.17521,-0.32678 -0.38151,-0.63722 -0.61452,-0.92561 -0.24955,-0.30879 -0.52972,-0.59229 -0.83171,-0.85055 -0.31904,-0.27283 -0.66233,-0.51747 -1.02398,-0.72864 -0.39105,-0.22834 -0.80353,-0.41752 -1.21605,-0.60671 -1.39641,-0.59142 -3.89357,-0.88723 -7.48323,-0.88723 h -8.64154 l 0.0134,10.34908 h 4.73637 v -6.78412 l 2.90619,10e-6 c 3.01436,10e-6 5.08486,0.32883 6.21001,0.98587 z"
       inkscape:connector-curvature="0"
       sodipodi:nodetypes="cccccccccccccccccccccccccccccccccccccccc" />
    <path
       id="path2143"
       style="fill:#ffffff;fill-opacity:1;stroke:none;stroke-width:0.32199085;stroke-linecap:round"
       d="m 200.11672,534.14626 c 1.12516,0.65683 1.68399,1.88099 1.68399,3.65527 0,1.914 -0.74916,3.42385 -2.2424,4.55082 -1.4882,1.12333 -3.50768,1.69593 -6.0623,1.6838 l -7.24495,-0.0353 v 16.47212 h 4.73975 v -12.84722 h 4.2795 l 9.75036,12.84721 h 5.75008 l -10.65403,-14.05459 c 0.43131,-0.22786 0.86261,-0.4557 1.28408,-0.70107 0.38849,-0.22617 0.76861,-0.46722 1.13844,-0.72277 0.34029,-0.23512 0.67184,-0.48253 0.99311,-0.74381 0.34582,-0.28125 0.67971,-0.57859 0.98432,-0.90279 0.27732,-0.29517 0.53037,-0.61261 0.78342,-0.93005 1.03484,-1.43736 1.55236,-3.23634 1.55236,-5.38033 -0.0155,-0.42112 -0.0311,-0.84226 -0.0879,-1.25887 -0.053,-0.38882 -0.14217,-0.77369 -0.26355,-1.14785 -0.11603,-0.35767 -0.26158,-0.70555 -0.43907,-1.03668 -0.17517,-0.32677 -0.38145,-0.63724 -0.61448,-0.92564 -0.24953,-0.3088 -0.52976,-0.5923 -0.83174,-0.85056 -0.31902,-0.2728 -0.66233,-0.51742 -1.02396,-0.72857 -0.39106,-0.22834 -0.80355,-0.41752 -1.21603,-0.60672 -0.29694,-0.10727 -0.59388,-0.21456 -0.89703,-0.3003 -0.36909,-0.10435 -0.74738,-0.17685 -1.12682,-0.23852 -0.45056,-0.0733 -0.90271,-0.13129 -1.35629,-0.17664 -0.40794,-0.0408 -0.81704,-0.0714 -1.22644,-0.0955 -0.4556,-0.0269 -0.91159,-0.0459 -1.36775,-0.0572 -0.50284,-0.0125 -1.00588,-0.0159 -1.50893,-0.0191 h -8.64139 l 0.0132,10.34907 h 4.7365 v -6.78411 l 2.90612,-2e-5 c 3.01421,0 5.08474,0.32882 6.20988,0.98585 z"
       inkscape:connector-curvature="0"
       sodipodi:nodetypes="ccccccccccccccccccccccccccccccccccccc" />
    <path
       id="path2175"
       style="fill:#ffffff;fill-opacity:1;stroke:none;stroke-width:0.32199085;stroke-linecap:round"
       d="m 198.47792,730.23581 4.25499,18.12066 h 5.15035 l 5.07645,-30.87758 h -3.60608 l -3.96748,25.36583 h -0.0575 l -4.37811,-18.84369 h -4.56721 l -4.45222,19.13121 h -0.0739 l -3.75388,-25.65336 h -4.04138 l 4.59171,30.87758 h 5.48728 l 4.28781,-18.12066 z"
       inkscape:connector-curvature="0"
       sodipodi:nodetypes="ccccccccccccccccc" />
    <path
       id="path2221"
       style="fill:#ffffff;fill-opacity:1;stroke:none;stroke-width:0.32199085;stroke-linecap:round"
       d="m 198.85593,985.81907 c 2.58763,0.95284 4.28802,1.76617 5.11755,2.45621 0.82974,0.69004 1.24036,1.63458 1.24036,2.81743 0,1.56068 -0.69813,2.79294 -2.0946,3.72109 -1.39646,0.92003 -3.26105,1.38005 -5.61036,1.38005 -2.76824,0 -6.25931,-0.94474 -10.46511,-2.84213 l 1e-5,4.69843 c 4.22219,1.14196 7.66406,1.70867 10.32538,1.70867 3.83609,0 6.89184,-0.85424 9.18364,-2.56291 2.28352,-1.70848 3.42527,-3.9922 3.42527,-6.85073 0,-3.75388 -2.24241,-6.41541 -6.71912,-7.98417 l -2.88323,-0.99396 -3.03105,-1.05976 c -2.16871,-0.74752 -3.65549,-1.48676 -4.45221,-2.2013 -0.80505,-0.71473 -1.20756,-1.65118 -1.20756,-2.82573 0,-2.88324 2.144,-4.3289 6.4318,-4.3289 2.71073,0 5.80758,0.67342 9.29034,2.02069 l 2e-5,-4.11549 c -3.46638,-0.97735 -6.58792,-1.47038 -9.36425,-1.47038 -3.41717,0 -6.0704,0.76394 -7.95968,2.28372 -1.881,1.52786 -2.82574,3.67997 -2.82574,6.45631 0,2.0537 0.61614,3.69657 1.84009,4.92863 1.23206,1.24036 3.42526,2.43961 6.58771,3.61436 z"
       inkscape:connector-curvature="0"
       sodipodi:nodetypes="cccccccccccccccccccccccc" />
    <path
       id="path2241"
       style="fill:#ffffff;fill-opacity:1;stroke:none;stroke-width:0.32199085;stroke-linecap:round"
       d="m 153.8916,469.97541 v -3.56496 h -23.55853 v 3.56496 h 18.19476 l -19.37761,23.74761 v 3.56497 h 24.9305 v -3.56497 h -19.54185 z"
       inkscape:connector-curvature="0"
       sodipodi:nodetypes="ccccccccccc" />
    <path
       id="path2273"
       style="fill:#ffffff;fill-opacity:1;stroke:none;stroke-width:0.32199085;stroke-linecap:round"
       d="m 129.2652,560.47299 h 8.04189 c 0.61122,-0.007 1.22244,-0.014 1.83312,-0.0395 0.56457,-0.0236 1.12867,-0.063 1.69095,-0.11883 0.51804,-0.0515 1.03453,-0.11703 1.54907,-0.1985 0.55288,-0.0875 1.10352,-0.19357 1.64399,-0.33665 0.48814,-0.12922 0.968,-0.28871 1.44785,-0.44821 2.0452,-0.76391 3.77028,-2.03708 5.16675,-3.81966 2.226,-2.81744 3.34326,-6.52211 3.34326,-11.08933 0,-9.88177 -5.13395,-14.82681 -15.40184,-14.82681 l -9.31503,0 -0.0164,23.26126 h 4.75612 l -1e-5,-19.69619 3.65529,9e-5 c 0.54455,0.01 1.08909,0.0191 1.63231,0.0545 0.50035,0.0326 0.99959,0.0872 1.49543,0.16363 0.45678,0.0704 0.91069,0.15925 1.3588,0.2725 0.41403,0.10469 0.82312,0.23011 1.22241,0.38125 0.38867,0.14712 0.76805,0.31854 1.13467,0.51586 0.34484,0.18561 0.67839,0.39409 0.98561,0.63495 0.29515,0.23137 0.56601,0.4926 0.83687,0.75383 0.23491,0.27712 0.46982,0.55425 0.67719,0.85123 0.21906,0.31373 0.40739,0.64965 0.57563,0.9945 0.1805,0.36995 0.33789,0.75018 0.47395,1.13797 0.14729,0.41986 0.26956,0.84861 0.37208,1.28174 0.11701,0.49437 0.20829,0.99446 0.28044,1.49729 0.0789,0.54936 0.13486,1.102 0.16839,1.65572 0.0365,0.60396 0.0464,1.20917 0.0561,1.8144 0,4.23028 -0.95932,7.24735 -2.87494,9.0439 -0.28728,0.24405 -0.57458,0.48812 -0.88286,0.70305 -0.32657,0.22769 -0.6767,0.42267 -1.03609,0.59661 -0.38669,0.18718 -0.78408,0.35 -1.1893,0.49049 -0.43988,0.1525 -0.88898,0.27869 -1.34256,0.38439 -0.5188,0.12089 -1.04344,0.21497 -1.57088,0.28924 -0.57712,0.0812 -1.15759,0.13879 -1.73911,0.17318 -0.63494,0.0375 -1.27116,0.0475 -1.90736,0.0572 l -7.12184,-10e-4 z"
       inkscape:connector-curvature="0"
       sodipodi:nodetypes="ccccccccccccccccccccccccccccccccccccccc" />
    <path
       id="path2297"
       style="fill:#ffffff;fill-opacity:1;stroke:none;stroke-width:0.32199085;stroke-linecap:round"
       d="m 135.06874,654.71177 h -4.73972 v 30.87757 h 4.73972 V 671.7729 h 13.06894 v 13.81644 h 4.76423 v -30.87757 h -4.76423 v 13.49617 h -13.06894 z"
       inkscape:connector-curvature="0"
       sodipodi:nodetypes="ccccccccccccc" />
    <path
       id="path2321"
       style="fill:#ffffff;fill-opacity:1;stroke:none;stroke-width:0.32199085;stroke-linecap:round"
       d="m 152.60223,870.32573 h -17.23362 v -10.82651 h 13.66866 v -3.56497 h -13.66866 v -9.35616 h 16.12466 v -3.56496 h -20.86438 v 30.87757 h 21.97334 z"
       inkscape:connector-curvature="0"
       sodipodi:nodetypes="ccccccccccccc" />
    <path
       id="path2363"
       style="fill:#ffffff;fill-opacity:1;stroke:none;stroke-width:0.32199085;stroke-linecap:round"
       d="m 252.97881,418.20731 12.46108,-14.56402 h -4.78891 l -11.86238,13.89856 h -1.05874 v -13.89856 h -4.73953 v 30.87759 h 4.73953 V 419.7286 h 0.86679 l 13.5494,14.79228 h 5.67597 z"
       inkscape:connector-curvature="0"
       sodipodi:nodetypes="cccccccccccccc" />
    <path
       id="path2397"
       style="fill:#ffffff;fill-opacity:1;stroke:none;stroke-width:0.32199085;stroke-linecap:round"
       d="m 148.35533,811.12357 h 5.67596 l -14.84321,-16.31356 12.46111,-14.564 h -4.78892 l -11.685,13.69073 h -1.23612 v -13.69073 h -4.73953 v 30.87756 h 4.73953 v -14.33502 h 1.2856 z"
       inkscape:connector-curvature="0"
       sodipodi:nodetypes="cccccccccccccc" />
    <path
       id="path2445"
       style="fill:#ffffff;fill-opacity:1;stroke:none;stroke-width:0.32199085;stroke-linecap:round"
       d="m 141.53337,918.53718 h 0.0492 l 4.255,18.12066 h 5.15034 l 5.07644,-30.87758 h -3.60606 l -3.96749,25.3658 h -0.0575 l -4.37811,-18.8437 h -4.56721 l -4.45222,19.13123 h -0.0739 l -3.75389,-25.65333 h -4.0414 l 4.59173,30.87758 h 5.48727 z"
       inkscape:connector-curvature="0"
       sodipodi:nodetypes="ccccccccccccccccc" />
    <path
       id="path2465"
       style="fill:#ffffff;fill-opacity:1;stroke:none;stroke-width:0.32199085;stroke-linecap:round"
       d="m 154.08072,744.79151 h -19.54185 l 19.35273,-23.74766 v -3.56497 h -23.55853 v 3.56497 h 18.19476 l -19.37761,23.74766 v 3.56496 h 24.9305 z"
       inkscape:connector-curvature="0"
       sodipodi:nodetypes="ccccccccccc" />
    <path
       id="path2481"
       style="fill:#ffffff;fill-opacity:1;stroke:none;stroke-width:0.32199085;stroke-linecap:round"
       d="m 143.99343,595.50965 h 11.86967 v -3.56498 h -28.49527 v 3.56498 h 11.86136 v 27.31257 h 4.76424 z"
       inkscape:connector-curvature="0"
       sodipodi:nodetypes="ccccccccc" />
    <path
       id="path2513"
       style="fill:#ffffff;fill-opacity:1;stroke:none;stroke-width:0.32199085;stroke-linecap:round"
       d="m 194.5556,783.81119 c 4.0497,0 6.93294,0.92836 8.66612,2.77653 1.73319,1.8565 2.60383,4.92863 2.60383,9.23285 0,4.23031 -0.95933,7.24737 -2.87494,9.04392 -1.91967,1.80061 -5.14204,2.69534 -9.66816,2.69423 l -7.12185,-0.002 v 3.56668 h 8.04188 c 3.40058,1e-5 6.1196,-0.37781 8.165,-1.14174 2.0452,-0.76394 3.77027,-2.0371 5.16675,-3.81969 2.226,-2.81744 3.34325,-6.52211 3.34325,-11.08933 0,-9.88177 -5.13394,-14.82681 -15.40183,-14.82681 h -9.31506 l -0.0164,23.2613 h 4.75611 l 2e-5,-19.69623 z"
       inkscape:connector-curvature="0"
       sodipodi:nodetypes="ccccccccccccccccc" />
    <path
       id="path2537"
       style="fill:#ffffff;fill-opacity:1;stroke:none;stroke-width:0.32199085;stroke-linecap:round"
       d="m 152.60223,434.52089 v -3.56496 h -17.23362 v -10.82654 h 13.66866 v -3.56498 h -13.66866 v -9.35614 h 16.12466 v -3.56497 h -20.86438 v 30.87759 z"
       inkscape:connector-curvature="0"
       sodipodi:nodetypes="ccccccccccccc" />
    <path
       id="path2549"
       style="fill:#ffffff;fill-opacity:1;stroke:none;stroke-width:0.32199085;stroke-linecap:round"
       d="m 187.82411,873.89071 h 21.37362 v -3.56498 h -16.63388 v -27.31259 h -4.73974 z"
       inkscape:connector-curvature="0"
       sodipodi:nodetypes="ccccccc" />
    <path
       id="path2585"
       style="fill:#ffffff;fill-opacity:1;stroke:none;stroke-width:0.32199085;stroke-linecap:round"
       d="m 185.94051,608.7381 c 0.0534,0.61631 0.14299,1.23006 0.26371,1.83741 0.11626,0.58493 0.26133,1.16394 0.43952,1.73285 0.17349,0.55392 0.37839,1.0983 0.61533,1.62817 0.24474,0.54729 0.52366,1.0791 0.83321,1.59309 0.3098,0.51441 0.65027,1.01097 1.02619,1.47795 0.38199,0.47451 0.80057,0.91846 1.21917,1.36243 2.99824,2.96547 6.88353,4.45223 11.66415,4.45223 2.88324,0 5.93898,-0.51752 9.16725,-1.54427 v -14.3423 h -10.53901 v 3.56519 h 5.79927 v 8.1567 c -1.26486,0.18889 -2.3082,0.2875 -3.12964,0.2875 -3.60608,0 -6.57962,-1.16646 -8.90422,-3.49937 -0.31121,-0.33239 -0.62241,-0.66477 -0.90821,-1.01837 -0.28075,-0.34735 -0.53697,-0.71517 -0.77189,-1.09575 -0.23383,-0.37879 -0.44654,-0.77021 -0.6354,-1.17298 -0.19056,-0.40642 -0.35686,-0.82438 -0.4988,-1.25025 -0.15212,-0.45639 -0.27629,-0.92185 -0.37588,-1.39271 -0.10318,-0.48785 -0.17998,-0.98148 -0.22565,-1.47746 -0.0478,-0.51907 -0.0615,-1.0407 -0.0752,-1.56234 10e-6,-3.62266 1.02676,-6.60429 3.08855,-8.9455 0.2925,-0.31245 0.585,-0.62493 0.89929,-0.9146 0.30379,-0.27999 0.62793,-0.53868 0.96592,-0.77729 0.33116,-0.2338 0.6756,-0.44834 1.03258,-0.6399 0.35515,-0.1906 0.72271,-0.35844 1.09925,-0.50226 0.39889,-0.15237 0.80787,-0.27775 1.22308,-0.37852 0.42678,-0.10361 0.86015,-0.18114 1.29626,-0.22723 0.45448,-0.048 0.91195,-0.0619 1.36941,-0.0757 0.52314,0.0153 1.04629,0.0305 1.56709,0.0764 0.53994,0.0476 1.07735,0.12804 1.61037,0.22922 0.55625,0.10565 1.10772,0.23374 1.65394,0.3821 0.6781,0.18416 1.34815,0.39949 2.00567,0.64654 0.69846,0.26243 1.38281,0.56067 2.06715,0.85891 v -4.36191 c -0.85305,-0.23748 -1.70609,-0.47497 -2.56893,-0.67128 -0.8184,-0.1862 -1.64562,-0.33537 -2.47725,-0.45389 -0.62534,-0.0892 -1.25317,-0.16095 -1.88282,-0.20335 -0.60801,-0.0409 -1.21772,-0.0544 -1.82743,-0.0679 -4.81365,0 -8.71533,1.51149 -11.69716,4.52612 -2.98184,3.01463 -4.47672,6.95763 -4.47672,11.82043 0.0161,0.64827 0.032,1.29652 0.088,1.94196 z"
       inkscape:connector-curvature="0"
       sodipodi:nodetypes="cccccsccccccccccccccccccscccsccccsccccsccccc" />
    <path
       id="path2627"
       style="fill:#ffffff;fill-opacity:1;stroke:none;stroke-width:0.32199085;stroke-linecap:round"
       d="m 712.17478,973.43209 c 0.19814,0.13327 0.39622,0.26653 0.57094,0.42701 0.17362,0.15949 0.32414,0.34583 0.45282,0.54496 0.13476,0.20857 0.24557,0.43115 0.33505,0.66221 0.11591,0.2994 0.19592,0.61305 0.24396,0.93012 0.0546,0.36072 0.068,0.72585 0.0812,1.09097 -0.0139,0.34467 -0.0279,0.68933 -0.0783,1.02973 -0.0472,0.32131 -0.12724,0.63883 -0.23467,0.94607 -0.10446,0.29868 -0.235,0.58766 -0.39095,0.86322 -0.18535,0.3276 -0.40667,0.63624 -0.66105,0.91217 -0.268,0.29077 -0.57271,0.5452 -0.87743,0.79962 -1.48818,1.12334 -3.50771,1.69594 -6.06233,1.68378 l -7.24495,-0.0353 v 16.47209 h 4.73976 v -12.8472 h 4.27953 l 9.75036,12.8472 h 5.75005 l -10.65403,-14.05455 c 0.43131,-0.22786 0.86262,-0.45574 1.2841,-0.70112 0.38848,-0.22618 0.76859,-0.46725 1.1384,-0.72279 0.34029,-0.23514 0.67189,-0.48253 0.99318,-0.74381 0.34582,-0.28124 0.67967,-0.57857 0.98429,-0.90276 0.27728,-0.29517 0.53035,-0.6126 0.78339,-0.93003 0.18311,-0.27632 0.36622,-0.55263 0.52544,-0.84261 0.16164,-0.29435 0.2987,-0.60278 0.4173,-0.91758 0.1222,-0.32446 0.22481,-0.6557 0.30904,-0.99187 0.10405,-0.41531 0.18017,-0.83815 0.22545,-1.26353 0.0483,-0.453 0.0617,-0.90888 0.0752,-1.36476 -0.0155,-0.42113 -0.0312,-0.84228 -0.0879,-1.25891 -0.0531,-0.3888 -0.14216,-0.77365 -0.26356,-1.1478 -0.11608,-0.35768 -0.26161,-0.70556 -0.43907,-1.03671 -0.17517,-0.32676 -0.38146,-0.63722 -0.61447,-0.92562 -0.24955,-0.3088 -0.52978,-0.59229 -0.83176,-0.85054 -0.31904,-0.27282 -0.66234,-0.51746 -1.02399,-0.72862 -0.39106,-0.22835 -0.80353,-0.41753 -1.21605,-0.60672 -1.39648,-0.59143 -3.89357,-0.88724 -7.48323,-0.88724 l -8.64154,10e-6 0.0134,10.34907 h 4.73637 v -6.78411 l 2.90624,10e-6 c 3.01437,10e-6 5.08483,0.32884 6.20997,0.98587 z"
       inkscape:connector-curvature="0"
       sodipodi:nodetypes="cccccccccccccccccccccccccccccccccccccccccccc" />
    <path
       id="path2669"
       style="fill:#ffffff;fill-opacity:1;stroke:none;stroke-width:0.32199085;stroke-linecap:round"
       d="m 712.17478,847.56394 c 0.19814,0.13327 0.39622,0.26653 0.57094,0.42702 0.17362,0.15948 0.32414,0.34584 0.45282,0.54496 0.13476,0.20856 0.24557,0.43113 0.33505,0.66221 0.11591,0.29939 0.19592,0.61305 0.24396,0.9301 0.0546,0.36072 0.068,0.72584 0.0812,1.09096 -0.0139,0.34467 -0.0279,0.68934 -0.0783,1.02976 -0.0472,0.3213 -0.12729,0.63881 -0.23467,0.94603 -0.10446,0.29871 -0.235,0.58769 -0.39095,0.86326 -0.18535,0.32759 -0.40667,0.63624 -0.66105,0.91215 -0.268,0.29079 -0.57271,0.54521 -0.87743,0.79964 -1.48818,1.12333 -3.50771,1.69592 -6.06233,1.68378 l -7.24495,-0.0352 v 16.47214 h 4.73976 v -12.8472 h 4.27953 l 9.75036,12.8472 h 5.75005 L 712.17473,859.8362 c 0.43131,-0.22788 0.86262,-0.45574 1.2841,-0.70114 0.38848,-0.22618 0.76859,-0.46723 1.1384,-0.72277 0.34029,-0.23513 0.67189,-0.48252 0.99318,-0.74381 0.34582,-0.28124 0.67967,-0.57856 0.98429,-0.90275 0.27728,-0.29518 0.53035,-0.61261 0.78339,-0.93006 0.18311,-0.27631 0.36622,-0.55263 0.52544,-0.8426 0.16164,-0.29434 0.2987,-0.60276 0.4173,-0.91757 0.1222,-0.32446 0.22481,-0.6557 0.30904,-0.99189 0.10405,-0.4153 0.18017,-0.83813 0.22545,-1.26351 0.0483,-0.453 0.0617,-0.90887 0.0752,-1.36475 -0.0155,-0.42115 -0.0312,-0.84228 -0.0879,-1.25892 -0.0531,-0.3888 -0.14216,-0.77367 -0.26356,-1.14781 -0.11608,-0.35769 -0.26161,-0.70557 -0.43907,-1.03671 -0.17517,-0.32676 -0.38146,-0.63721 -0.61447,-0.9256 -0.24955,-0.30881 -0.52978,-0.59232 -0.83176,-0.85056 -0.31904,-0.27282 -0.66234,-0.51745 -1.02399,-0.72861 -0.39106,-0.22834 -0.80353,-0.41752 -1.21605,-0.60671 -1.39642,-0.59144 -3.89357,-0.88725 -7.48323,-0.88725 h -8.64154 l 0.0134,10.34907 h 4.73637 v -6.78411 h 2.90624 c 3.01437,0 5.08483,0.32882 6.20997,0.98584 z"
       inkscape:connector-curvature="0"
       sodipodi:nodetypes="cccccccccccccccccccccccccccccccccccccccccccc" />
    <path
       id="path2711"
       style="fill:#ffffff;fill-opacity:1;stroke:none;stroke-width:0.32199085;stroke-linecap:round"
       d="m 415.67121,794.65148 v 16.47209 h 4.7397 v -12.84719 h 4.27952 l 9.75039,12.84719 h 5.75007 l -10.65404,-14.05454 c 2.42325,-1.23226 4.14832,-2.57124 5.18336,-4.0005 1.03482,-1.43737 1.55237,-3.23636 1.55237,-5.38036 0,-3.12964 -1.49485,-5.31456 -4.4767,-6.55491 -1.39648,-0.59143 -3.89362,-0.88724 -7.48328,-0.88724 h -8.64139 l 0.0132,10.34907 h 4.73649 v -6.7841 l 2.90612,1e-5 c 3.01423,10e-6 5.08474,0.32883 6.20988,0.98585 1.12513,0.65683 1.68401,1.881 1.68401,3.65527 0,1.914 -0.74917,3.42385 -2.24244,4.55083 -1.4882,1.12333 -3.50765,1.69593 -6.06228,1.68377 z"
       inkscape:connector-curvature="0"
       sodipodi:nodetypes="cccccccccccccccccccccc" />
    <path
       id="path2753"
       style="fill:#ffffff;fill-opacity:1;stroke:none;stroke-width:0.32199085;stroke-linecap:round"
       d="m 541.4883,534.14625 c 0.19807,0.13328 0.3962,0.26652 0.57094,0.42701 0.17366,0.15948 0.32419,0.34582 0.45283,0.54494 0.13475,0.20857 0.24557,0.43119 0.33502,0.66227 0.11587,0.2994 0.19588,0.61305 0.24397,0.93011 0.0546,0.36072 0.0679,0.72583 0.0812,1.09096 0,1.91399 -0.74911,3.42384 -2.24239,4.55081 -0.29092,0.19971 -0.58178,0.39944 -0.88896,0.57128 -0.31936,0.17867 -0.65627,0.32721 -1.00016,0.45482 -0.36354,0.13487 -0.73489,0.24636 -1.11156,0.33699 -0.47789,0.11496 -0.96437,0.19635 -1.45326,0.24414 -0.53418,0.0522 -1.07126,0.0644 -1.60835,0.0765 l -7.2449,-0.0353 v 16.47214 h 4.73971 v -12.84721 h 4.27948 l 9.75035,12.84721 h 5.75007 l -10.65401,-14.05453 c 0.43129,-0.22786 0.8626,-0.45571 1.28409,-0.70109 0.38852,-0.22616 0.76864,-0.46721 1.13851,-0.72276 0.34023,-0.23513 0.67183,-0.48253 0.99307,-0.74382 0.34582,-0.28125 0.67971,-0.57858 0.98433,-0.90278 0.27733,-0.29517 0.53038,-0.61261 0.7834,-0.93006 1.03483,-1.43735 1.55237,-3.23633 1.55237,-5.38032 0,-3.12964 -1.4949,-5.31455 -4.47669,-6.5549 -0.29698,-0.10727 -0.59391,-0.21456 -0.89706,-0.30029 -0.36911,-0.10436 -0.7474,-0.17686 -1.12681,-0.23853 -0.45057,-0.0733 -0.90276,-0.13129 -1.35633,-0.17663 -0.40792,-0.0408 -0.817,-0.0714 -1.22641,-0.0955 -0.45562,-0.0269 -0.91162,-0.0459 -1.36777,-0.0572 -0.50279,-0.0125 -1.00584,-0.0159 -1.5089,-0.0191 h -8.64127 l 0.0129,10.34907 h 4.7366 v -6.78411 l 2.90601,-2e-5 c 3.01416,-10e-6 5.08466,0.32881 6.20981,0.98585 z"
       inkscape:connector-curvature="0"
       sodipodi:nodetypes="ccccccccscccccccccccccccccccccccccccccc" />
    <path
       style="fill:#ffffff;fill-opacity:1;stroke:none;stroke-width:0.32199085;stroke-linecap:round"
       d="m 199.67508,405.78381 c 0.54895,0.0442 1.09572,0.11879 1.63908,0.2112 0.57717,0.0982 1.15048,0.21637 1.71978,0.35205 0.71745,0.171 1.42857,0.36978 2.13052,0.59572 0.75458,0.24287 1.49859,0.51709 2.24259,0.79132 v -4.11546 c -0.63361,-0.17124 -1.26723,-0.34247 -1.90513,-0.49664 -0.60753,-0.14684 -1.21895,-0.27819 -1.83301,-0.39502 -0.58459,-0.11125 -1.17158,-0.20933 -1.7609,-0.29312 -0.65834,-0.0936 -1.3196,-0.16936 -1.98271,-0.21411 -0.6264,-0.0423 -1.25446,-0.0569 -1.8825,-0.0716 -3.41717,-10e-6 -6.07039,0.76393 -7.95968,2.2837 -1.881,1.52787 -2.82574,3.67997 -2.82574,6.4563 0.0115,0.36991 0.0229,0.73981 0.0644,1.10711 0.0388,0.34422 0.10383,0.68616 0.19284,1.02126 0.0848,0.31886 0.19126,0.63153 0.32101,0.93537 0.14836,0.34739 0.32711,0.68323 0.54243,0.99207 0.21541,0.30896 0.46743,0.59091 0.71946,0.87287 0.2582,0.23671 0.51639,0.47342 0.79047,0.69036 0.3144,0.24886 0.64971,0.4717 0.99174,0.68246 0.38956,0.24004 0.78785,0.4644 1.19332,0.6752 0.355,0.18457 0.7155,0.35874 1.07921,0.52577 0.39761,0.18261 0.79905,0.35669 1.20402,0.52203 0.44021,0.17974 0.88458,0.34913 1.32895,0.51852 l 3.17075,1.14984 c 2.58763,0.95285 4.28802,1.76619 5.11755,2.45622 0.82974,0.69004 1.24036,1.63457 1.24036,2.81742 -0.0131,0.28145 -0.0263,0.56291 -0.073,0.8398 -0.0445,0.26361 -0.11948,0.52309 -0.21894,0.7721 -0.0985,0.24641 -0.22084,0.48255 -0.36493,0.70536 -0.1758,0.27187 -0.38386,0.52389 -0.61748,0.74683 -0.25337,0.2418 -0.53683,0.4494 -0.82028,0.65701 -1.39646,0.92005 -3.26105,1.38007 -5.61036,1.38007 -2.76824,0 -6.2593,-0.94475 -10.46511,-2.84214 l 1e-5,4.69844 c 4.22219,1.14194 7.66407,1.70867 10.32539,1.70867 3.83608,0 6.89183,-0.85424 9.18364,-2.56292 2.28351,-1.70849 3.42527,-3.9922 3.42527,-6.85073 0,-3.75388 -2.24242,-6.41541 -6.71912,-7.98419 l -2.88324,-0.99392 -3.03105,-1.05977 c -2.1687,-0.74754 -3.65548,-1.48677 -4.45221,-2.2013 -0.20642,-0.20806 -0.41284,-0.41611 -0.58157,-0.65291 -0.16492,-0.23147 -0.29386,-0.49039 -0.39222,-0.7593 -0.08,-0.21874 -0.1398,-0.44407 -0.17532,-0.67272 -0.038,-0.24442 -0.0482,-0.49264 -0.0585,-0.74083 0.0138,-0.30668 0.0276,-0.61336 0.0807,-0.91464 0.0487,-0.27625 0.13025,-0.54795 0.24205,-0.80637 0.10704,-0.24748 0.2418,-0.48277 0.40341,-0.69804 0.16367,-0.21803 0.35488,-0.4155 0.56478,-0.58967 0.22393,-0.18583 0.46913,-0.34514 0.72614,-0.48124 0.27862,-0.14753 0.57113,-0.26777 0.87021,-0.36691 0.33532,-0.11115 0.67892,-0.19577 1.02587,-0.26216 0.39058,-0.0747 0.78543,-0.12639 1.18153,-0.15741 0.44467,-0.0348 0.89091,-0.0436 1.33716,-0.0525 0.5201,0.0144 1.0402,0.0288 1.55837,0.0704 z"
       id="path4134"
       inkscape:connector-curvature="0"
       sodipodi:nodetypes="ccccccccccccccccccsccccccccccscccccccccccccccccsccccccccc" />
    <path
       id="path2827"
       style="fill:#ffffff;fill-opacity:1;stroke:none;stroke-width:0.32199085;stroke-linecap:round"
       d="m 247.23704,932.23841 c 2.99824,2.94906 6.95764,4.41941 11.86158,4.41941 2.80912,0 5.79926,-0.56672 8.97814,-1.70867 v -3.90169 c -2.99826,1.15815 -5.61039,1.73317 -7.81999,1.73317 -3.66359,0 -6.65353,-1.16645 -8.97814,-3.49105 -2.32481,-2.32462 -3.49106,-5.31456 -3.49106,-8.97813 0,-3.62268 1.02675,-6.60432 3.08854,-8.94552 2.06178,-2.34102 4.6903,-3.51557 7.88557,-3.51557 2.76013,0 5.72537,0.73092 8.90442,2.1932 l 1e-5,-4.3619 c -3.11327,-0.92815 -6.0293,-1.39648 -8.75644,-1.39648 -4.81363,0 -8.71552,1.51147 -11.69716,4.52612 -2.98184,3.01464 -4.47691,6.95764 -4.4769,11.82046 1e-5,4.79703 1.50318,8.66612 4.50143,11.60665 z"
       inkscape:connector-curvature="0"
       sodipodi:nodetypes="ccccccccccccccc" />
    <path
       id="path2851"
       style="fill:#ffffff;fill-opacity:1;stroke:none;stroke-width:0.32199085;stroke-linecap:round"
       d="m 249.15933,744.79151 v -10.82654 h 13.66865 V 730.4 h -13.66865 v -9.35615 H 265.284 v -3.56497 h -20.8644 v 30.87758 h 21.97335 v -3.56496 z"
       inkscape:connector-curvature="0"
       sodipodi:nodetypes="ccccccccccccc" />
    <path
       id="path2875"
       style="fill:#ffffff;fill-opacity:1;stroke:none;stroke-width:0.32199085;stroke-linecap:round"
       d="m 248.59665,591.84604 h -4.4769 v 30.97618 h 3.85248 v -22.63036 h 0.0739 l 14.26838,22.63036 h 4.37811 v -30.97618 h -3.87717 v 22.45789 h -0.0492 z"
       inkscape:connector-curvature="0"
       sodipodi:nodetypes="ccccccccccccc" />
    <path
       id="path2899"
       style="fill:#ffffff;fill-opacity:1;stroke:none;stroke-width:0.32199085;stroke-linecap:round"
       d="m 248.85948,483.47158 h 13.06892 v 13.81641 h 4.76422 v -30.87754 h -4.76422 v 13.49609 h -13.06892 v -13.49609 h -4.73973 v 30.87754 h 4.73973 z"
       inkscape:connector-curvature="0"
       sodipodi:nodetypes="ccccccccccccc" />
    <path
       id="path2923"
       style="fill:#ffffff;fill-opacity:1;stroke:none;stroke-width:0.32199085;stroke-linecap:round"
       d="m 318.82375,922.84136 v 13.81647 h 4.76423 v -30.87758 h -4.76423 v 13.49615 h -13.06891 v -13.49615 h -4.73974 v 30.87758 h 4.73974 v -13.81647 z"
       inkscape:connector-curvature="0"
       sodipodi:nodetypes="ccccccccccccc" />
    <path
       id="path2947"
       style="fill:#ffffff;fill-opacity:1;stroke:none;stroke-width:0.32199085;stroke-linecap:round"
       d="m 306.05468,796.73211 h 13.66866 v -3.56498 h -13.66866 v -9.35614 h 16.12467 v -3.56497 h -20.86441 v 30.87756 h 21.97338 v -3.56496 h -17.23364 z"
       inkscape:connector-curvature="0"
       sodipodi:nodetypes="ccccccccccccc" />
    <path
       id="path2971"
       style="fill:#ffffff;fill-opacity:1;stroke:none;stroke-width:0.32199085;stroke-linecap:round"
       d="m 322.98845,556.90805 h -8.30471 v -23.74762 h 8.30471 v -3.56497 h -21.37363 v 3.56497 h 8.30471 v 23.74762 h -8.30471 v 3.56496 h 21.37363 z"
       inkscape:connector-curvature="0"
       sodipodi:nodetypes="ccccccccccccc" />
    <path
       id="path2995"
       style="fill:#ffffff;fill-opacity:1;stroke:none;stroke-width:0.32199085;stroke-linecap:round"
       d="m 322.98845,430.95593 h -8.30471 v -23.74766 h 8.30471 v -3.56497 h -21.37363 v 3.56497 h 8.30471 v 23.74766 h -8.30471 v 3.56496 h 21.37363 z"
       inkscape:connector-curvature="0"
       sodipodi:nodetypes="ccccccccccccc" />
    <path
       id="path3011"
       style="fill:#ffffff;fill-opacity:1;stroke:none;stroke-width:0.32199085;stroke-linecap:round"
       d="m 366.81044,909.34522 v 27.31262 h 4.76423 v -27.31262 h 11.86966 v -3.56497 h -28.49527 v 3.56497 z"
       inkscape:connector-curvature="0"
       sodipodi:nodetypes="ccccccccc" />
    <path
       id="path3035"
       style="fill:#ffffff;fill-opacity:1;stroke:none;stroke-width:0.32199085;stroke-linecap:round"
       d="m 358.50997,807.55862 v 3.56496 h 21.37365 v -3.56496 h -8.30471 v -23.74763 h 8.30471 v -3.56497 h -21.37365 v 3.56497 h 8.30471 v 23.74763 z"
       inkscape:connector-curvature="0"
       sodipodi:nodetypes="ccccccccccccc" />
    <path
       id="path3063"
       style="fill:#ffffff;fill-opacity:1;stroke:none;stroke-width:0.32199085;stroke-linecap:round"
       d="m 381.86723,617.21189 c -2.99825,1.15814 -5.61037,1.73317 -7.81996,1.73317 -3.66357,0 -6.65351,-1.16647 -8.97812,-3.49106 -0.31126,-0.33138 -0.62251,-0.66277 -0.90829,-1.01551 -0.28082,-0.34662 -0.53706,-0.71383 -0.77189,-1.09386 -0.23393,-0.37853 -0.44665,-0.76976 -0.63542,-1.17238 -0.19066,-0.40663 -0.3569,-0.82488 -0.49876,-1.25103 -0.1522,-0.45717 -0.27635,-0.92343 -0.37586,-1.39507 -0.10329,-0.48927 -0.17998,-0.98435 -0.22562,-1.48176 -0.0478,-0.52114 -0.0615,-1.04485 -0.0752,-1.56856 0.011,-0.49517 0.0221,-0.99036 0.0604,-1.48381 0.0366,-0.47185 0.0983,-0.94211 0.18129,-1.40842 0.0799,-0.44889 0.17959,-0.89412 0.3023,-1.33312 0.11913,-0.4262 0.25996,-0.84653 0.42344,-1.25774 0.16795,-0.42245 0.35981,-0.83528 0.57371,-1.23682 0.21233,-0.3986 0.44636,-0.7861 0.70699,-1.15412 0.26221,-0.37029 0.55132,-0.72086 0.84044,-1.07144 0.2925,-0.31248 0.58499,-0.62496 0.89928,-0.91463 0.30379,-0.28 0.62793,-0.53869 0.96592,-0.7773 0.33116,-0.2338 0.67559,-0.44833 1.03257,-0.6399 0.35514,-0.19059 0.72268,-0.35844 1.09921,-0.50226 0.39889,-0.15237 0.80787,-0.27775 1.22307,-0.37852 0.42676,-0.10361 0.8601,-0.18114 1.29618,-0.22723 0.45446,-0.048 0.91188,-0.0619 1.36933,-0.0757 2.76014,-10e-6 5.72537,0.73092 8.90441,2.19318 l 10e-6,-4.36192 c -3.11324,-0.92813 -6.02928,-1.39645 -8.7564,-1.39645 -4.81364,0 -8.71552,1.51148 -11.69717,4.52612 -2.98183,3.01464 -4.47691,6.95762 -4.4769,11.82043 0.0161,0.65435 0.0322,1.30869 0.0884,1.9602 0.0536,0.6209 0.14358,1.23923 0.26499,1.8511 0.11668,0.58798 0.26235,1.17001 0.44152,1.74185 0.17406,0.55557 0.37974,1.10153 0.61787,1.63276 0.24545,0.54761 0.52537,1.07956 0.83632,1.5934 0.31062,0.5133 0.6522,1.00852 1.0296,1.4736 0.38298,0.47195 0.80287,0.91286 1.22274,1.35379 2.99824,2.94903 6.95763,4.4194 11.86156,4.4194 2.80914,0 5.79928,-0.56673 8.97811,-1.70869 z"
       inkscape:connector-curvature="0"
       sodipodi:nodetypes="cccccscccccccccccccccsccccccccccccccccc" />
    <path
       id="path3083"
       style="fill:#ffffff;fill-opacity:1;stroke:none;stroke-width:0.32199085;stroke-linecap:round"
       d="m 356.73146,497.28798 h 24.93048 v -3.56497 H 362.1201 l 19.35272,-23.74761 v -3.56496 h -23.55854 v 3.56496 h 18.1948 l -19.37763,23.74761 z"
       inkscape:connector-curvature="0"
       sodipodi:nodetypes="ccccccccccc" />
    <path
       id="path3129"
       style="fill:#ffffff;fill-opacity:1;stroke:none;stroke-width:0.32199085;stroke-linecap:round"
       d="m 426.99801,985.81907 c 2.58763,0.95284 4.28799,1.76617 5.11755,2.45621 0.82977,0.69004 1.24037,1.63458 1.24037,2.81743 0,1.56068 -0.69815,2.79294 -2.09461,3.72109 -1.39648,0.92003 -3.26108,1.38005 -5.61036,1.38005 -2.76824,0 -6.25931,-0.94474 -10.4651,-2.84213 l 1e-5,4.69843 c 4.22219,1.14196 7.66405,1.70867 10.32537,1.70867 3.83611,0 6.89186,-0.85424 9.18363,-2.56291 2.2835,-1.70848 3.42528,-3.9922 3.42528,-6.85073 0,-3.75388 -2.2424,-6.41541 -6.71914,-7.98417 l -2.88322,-0.99396 -3.03103,-1.05976 c -2.16872,-0.74752 -3.65549,-1.48676 -4.45222,-2.2013 -0.80504,-0.71473 -1.20757,-1.65118 -1.20757,-2.82573 0,-2.88324 2.14401,-4.3289 6.43183,-4.3289 2.71069,0 5.80756,0.67342 9.29032,2.02069 v -4.11549 c -3.46634,-0.97735 -6.58788,-1.47038 -9.36424,-1.47038 -3.41716,0 -6.07038,0.76394 -7.95967,2.28372 -1.88099,1.52786 -2.82574,3.67997 -2.82574,6.45631 0,2.0537 0.61613,3.69657 1.84008,4.92863 1.23206,1.24036 3.42527,2.43961 6.58772,3.61436 z"
       inkscape:connector-curvature="0"
       sodipodi:nodetypes="cccccccccccccccccccccccc" />
    <path
       id="path3157"
       style="fill:#ffffff;fill-opacity:1;stroke:none;stroke-width:0.32199085;stroke-linecap:round"
       d="m 417.69999,870.71166 c 1.85629,2.11931 4.71503,3.17906 8.58391,3.17906 4.4603,0 7.66385,-1.79069 9.60234,-5.36397 0.91198,-1.68397 1.372,-4.46031 1.372,-8.32939 v -17.93175 h -4.14 v 18.63008 c 0,3.35136 -0.53397,5.75818 -1.61011,7.22855 -1.07614,1.47036 -2.834,2.2015 -5.27363,2.2015 -2.30821,0 -3.98389,-0.73114 -5.01895,-2.2015 -1.03484,-1.47037 -1.55237,-3.83609 -1.55237,-7.11354 l -1e-5,-18.74509 h -4.73969 l -3e-5,18.67928 c 0,4.39472 0.92815,7.64747 2.77654,9.76677 z"
       inkscape:connector-curvature="0"
       sodipodi:nodetypes="ccccccccccccccc" />
    <path
       id="path3177"
       style="fill:#ffffff;fill-opacity:1;stroke:none;stroke-width:0.32199085;stroke-linecap:round"
       d="m 413.62619,682.02437 v 3.56497 h 24.93047 v -3.56497 h -19.5418 l 19.35268,-23.74763 v -3.56497 h -23.55849 v 3.56497 h 18.19477 z"
       inkscape:connector-curvature="0"
       sodipodi:nodetypes="ccccccccccc" />
    <path
       id="path3201"
       style="fill:#ffffff;fill-opacity:1;stroke:none;stroke-width:0.32199085;stroke-linecap:round"
       d="m 436.78282,533.16043 v -3.56497 h -21.37363 v 3.56497 h 8.30471 v 23.74762 h -8.30471 v 3.56496 h 21.37363 v -3.56496 h -8.30473 v -23.74762 z"
       inkscape:connector-curvature="0"
       sodipodi:nodetypes="ccccccccccccc" />
    <path
       id="path3217"
       style="fill:#ffffff;fill-opacity:1;stroke:none;stroke-width:0.32199085;stroke-linecap:round"
       d="m 411.84462,407.20826 h 11.86136 v 27.31262 h 4.76422 v -27.31262 h 11.86971 v -3.56497 h -28.49528 z"
       inkscape:connector-curvature="0"
       sodipodi:nodetypes="ccccccccc" />
    <path
       id="path3241"
       style="fill:#ffffff;fill-opacity:1;stroke:none;stroke-width:0.32199085;stroke-linecap:round"
       d="m 493.97397,933.09285 h -17.23365 v -10.82651 h 13.66867 v -3.56497 h -13.66867 v -9.35616 h 16.12471 v -3.56496 h -20.86442 v 30.87758 h 21.97336 z"
       inkscape:connector-curvature="0"
       sodipodi:nodetypes="ccccccccccccc" />
    <path
       id="path3265"
       style="fill:#ffffff;fill-opacity:1;stroke:none;stroke-width:0.32199085;stroke-linecap:round"
       d="m 489.50963,780.24602 v 13.49616 h -13.06892 v -13.49616 h -4.73975 v 30.87756 h 4.73975 v -13.81644 h 13.06892 v 13.81644 h 4.76423 v -30.87756 z"
       inkscape:connector-curvature="0"
       sodipodi:nodetypes="ccccccccccccc" />
    <path
       id="path3297"
       style="fill:#ffffff;fill-opacity:1;stroke:none;stroke-width:0.32199085;stroke-linecap:round"
       d="m 481.79252,667.46869 4.255,18.12066 h 5.1503 l 5.07652,-30.87757 h -3.60609 l -3.96752,25.36583 h -0.0574 l -4.37811,-18.84371 h -4.56723 l -4.45222,19.13123 h -0.0739 l -3.75388,-25.65336 h -4.0414 l 4.59174,30.87757 h 5.48732 l 4.28774,-18.12066 z"
       inkscape:connector-curvature="0"
       sodipodi:nodetypes="ccccccccccccccccc" />
    <path
       id="path3321"
       style="fill:#ffffff;fill-opacity:1;stroke:none;stroke-width:0.32199085;stroke-linecap:round"
       d="m 493.97397,556.90805 h -17.23365 v -10.8265 h 13.66867 v -3.56497 h -13.66867 v -9.35616 h 16.12471 v -3.56496 H 472.00061 V 560.473 h 21.97336 z"
       inkscape:connector-curvature="0"
       sodipodi:nodetypes="ccccccccccccc" />
    <path
       id="path3347"
       style="fill:#ffffff;fill-opacity:1;stroke:none;stroke-width:0.32199085;stroke-linecap:round"
       d="m 314.67544,591.94467 h -4.73952 l -12.18188,30.87755 h 4.0908 l 4.37811,-11.2863 5.61036,-14.75293 5.65147,14.75293 -4.31494,1.8e-4 h -2.95429 l -1.35476,3.56478 h 10.04496 l 2.90796,7.72135 h 5.03533 z"
       inkscape:connector-curvature="0"
       sodipodi:nodetypes="cccccccccccccc" />
    <path
       id="path3373"
       style="fill:#ffffff;fill-opacity:1;stroke:none;stroke-width:0.32199085;stroke-linecap:round"
       d="m 195.07007,928.93646 h 10.04497 l 2.90793,7.72137 h 5.03534 l -12.17358,-30.87758 h -4.73952 l -12.18188,30.87758 h 4.0908 l 4.37811,-11.28635 5.61036,-14.75291 5.65147,14.75291 -4.31494,2e-4 h -2.95431 z"
       inkscape:connector-curvature="0"
       sodipodi:nodetypes="cccccccccccccc" />
    <path
       id="path3405"
       style="fill:#ffffff;fill-opacity:1;stroke:none;stroke-width:0.32199085;stroke-linecap:round"
       d="m 537.58276,993.23671 h 3.99221 l 6.95741,-19.97716 h 0.0494 v 26.49927 h 3.87704 v -30.87757 h -5.94711 l -6.66994,19.01621 h -0.0494 l -6.78494,-19.01621 h -5.70063 v 30.87757 h 3.29386 v -25.94064 h 0.0494 z"
       inkscape:connector-curvature="0"
       sodipodi:nodetypes="ccccccccccccccccc" />
    <path
       id="path3419"
       style="fill:#ffffff;fill-opacity:1;stroke:none;stroke-width:0.32199085;stroke-linecap:round"
       d="m 530.38702,843.01314 h -5.00256 l 11.98471,30.87757 h 4.7644 l 12.24751,-30.87757 h -4.04969 l -10.07068,24.54436 z"
       inkscape:connector-curvature="0"
       sodipodi:nodetypes="cccccccc" />
    <path
       id="path3443"
       style="fill:#ffffff;fill-opacity:1;stroke:none;stroke-width:0.32199085;stroke-linecap:round"
       d="m 550.86935,744.79151 h -17.23359 v -10.82654 h 13.66867 V 730.4 h -13.66867 v -9.35615 h 16.12464 v -3.56497 h -20.86436 v 30.87758 h 21.9733 z"
       inkscape:connector-curvature="0"
       sodipodi:nodetypes="ccccccccccccc" />
    <path
       id="path3463"
       style="fill:#ffffff;fill-opacity:1;stroke:none;stroke-width:0.32199085;stroke-linecap:round"
       d="m 531.93028,611.08019 c -0.0989,-0.53746 -0.1676,-1.08073 -0.22083,-1.62514 -0.0446,-0.45705 -0.0785,-0.91493 -0.0986,-1.37337 -0.0214,-0.48557 -0.0273,-0.97179 -0.0327,-1.45799 0.0129,-0.72019 0.0257,-1.44038 0.0747,-2.15859 0.0446,-0.65843 0.11952,-1.31521 0.22448,-1.96733 0.0962,-0.5976 0.21772,-1.19128 0.37453,-1.77546 0.11421,-0.42557 0.24718,-0.84608 0.39975,-1.25992 0.1434,-0.38907 0.30418,-0.77223 0.49275,-1.14077 0.17866,-0.3492 0.38227,-0.68526 0.58587,-1.02133 0.20548,-0.29177 0.41097,-0.58354 0.63995,-0.85642 0.21805,-0.2598 0.45739,-0.50248 0.7123,-0.72713 0.24703,-0.21767 0.50869,-0.41841 0.78442,-0.59794 0.273,-0.17773 0.55974,-0.33466 0.8565,-0.4689 0.31501,-0.14247 0.64136,-0.25938 0.9744,-0.35295 0.34528,-0.097 0.69781,-0.16892 1.05323,-0.21169 0.37511,-0.0451 0.75346,-0.0579 1.1318,-0.0705 2.41165,-10e-6 4.25624,0.819 5.66966,2.6196 l 2.69651,-3.21084 c -0.42571,-0.35303 -0.85145,-0.70607 -1.30727,-1.01685 -0.4487,-0.30593 -0.92653,-0.57093 -1.41977,-0.8013 -0.4978,-0.23246 -1.01126,-0.42968 -1.53616,-0.589 -0.42407,-0.12871 -0.85554,-0.2327 -1.29103,-0.3159 -0.45223,-0.0864 -0.90876,-0.15039 -1.36711,-0.18841 -0.48036,-0.0399 -0.96266,-0.0512 -1.44494,-0.0625 -4.07441,2e-5 -7.31906,1.4623 -9.734,4.39473 -0.32506,0.42181 -0.6501,0.84362 -0.94332,1.28718 -0.29714,0.44955 -0.5615,0.92146 -0.80127,1.40499 -0.246,0.49607 -0.46609,1.00437 -0.65935,1.5228 -0.20032,0.53744 -0.37177,1.08576 -0.51721,1.64067 -0.15945,0.60834 -0.28748,1.22459 -0.38968,1.84522 -0.1077,0.65435 -0.18669,1.31355 -0.2337,1.97459 -0.0499,0.69994 -0.0639,1.40194 -0.0779,2.10394 0.0145,0.72071 0.0295,1.44141 0.0817,2.15986 0.0494,0.67742 0.13224,1.35284 0.24514,2.02319 0.10693,0.63485 0.2409,1.26517 0.40867,1.88632 0.12627,0.46766 0.27171,0.93013 0.4357,1.38625 0.15891,0.44197 0.3352,0.878 0.53665,1.30175 0.19659,0.41355 0.4171,0.81542 0.6377,1.21729 l 3.38617,-4.03102 c -0.11801,-0.49405 -0.23591,-0.98809 -0.32772,-1.48713 z m 16.23938,-2.8133 c -0.0257,0.51269 -0.0685,1.02469 -0.12751,1.53476 -0.0553,0.47755 -0.12487,0.95341 -0.21256,1.4261 -0.0821,0.44263 -0.18006,0.8825 -0.29747,1.31703 -0.11522,0.42653 -0.24917,0.84791 -0.40287,1.26258 -0.14446,0.38967 -0.30638,0.7734 -0.49613,1.14234 -0.17984,0.34945 -0.38462,0.68561 -0.58952,1.02179 -0.20655,0.29179 -0.41311,0.58357 -0.643,0.85649 -0.21885,0.25978 -0.4589,0.50247 -0.71445,0.72713 -0.24756,0.21763 -0.50971,0.41839 -0.78587,0.59794 -0.27333,0.1777 -0.56032,0.33469 -0.85741,0.46897 -0.31518,0.14247 -0.64162,0.25941 -0.97489,0.35301 -0.34533,0.097 -0.6979,0.1689 -1.05338,0.21169 -0.37513,0.0451 -0.75346,0.0578 -1.13175,0.0705 -2.40361,1e-5 -4.25258,-0.84228 -5.65866,-2.63034 l -2.75641,3.1821 c 2.23655,2.00996 5.0412,3.01322 8.41523,3.01322 4.0742,0 7.31885,-1.46226 9.73394,-4.3947 0.32511,-0.42196 0.65021,-0.8439 0.94328,-1.28765 0.29725,-0.45 0.56165,-0.9224 0.80132,-1.40643 0.246,-0.49687 0.46603,-1.006 0.65923,-1.52522 0.20039,-0.53856 0.37194,-1.08798 0.51733,-1.64399 0.15949,-0.60988 0.28748,-1.22767 0.38966,-1.84983 0.1077,-0.65621 0.1867,-1.31727 0.23371,-1.98015 0.0499,-0.70216 0.064,-1.40638 0.0779,-2.11059 -0.0139,-0.72307 -0.0285,-1.44614 -0.0797,-2.16705 -0.0483,-0.67624 -0.12961,-1.35055 -0.24139,-2.01981 -0.10564,-0.63208 -0.23849,-1.25966 -0.40592,-1.87787 -0.12606,-0.46551 -0.2717,-0.92571 -0.43635,-1.37934 -0.16003,-0.44088 -0.33798,-0.87555 -0.54137,-1.29764 -0.19964,-0.41423 -0.42369,-0.81633 -0.6478,-1.21844 l -3.36094,4.03634 c 0.11887,0.49271 0.23774,0.98541 0.33042,1.48321 0.0997,0.53566 0.16916,1.07721 0.22292,1.61992 0.0451,0.45537 0.0794,0.91157 0.0996,1.36837 0.0214,0.48366 0.0273,0.96798 0.0333,1.45231 -0.008,0.548 -0.015,1.09601 -0.0424,1.64322 z"
       inkscape:connector-curvature="0"
       sodipodi:nodetypes="cccccccccccccccccccccccccccccccccccccccccccccccccccccccccccccccccccccccccccccc" />
    <path
       id="path3483"
       style="fill:#ffffff;fill-opacity:1;stroke:none;stroke-width:0.32199085;stroke-linecap:round"
       d="m 533.63576,421.40276 h 14.70348 v -3.5652 h -14.70348 v -10.6293 h 17.23359 v -3.56497 h -21.9733 v 30.87759 h 4.73971 z"
       inkscape:connector-curvature="0"
       sodipodi:nodetypes="ccccccccccc" />
    <path
       id="path3507"
       style="fill:#ffffff;fill-opacity:1;stroke:none;stroke-width:0.32199085;stroke-linecap:round"
       d="m 589.96864,905.68165 h -4.47696 v 30.97618 h 3.85257 v -22.63037 h 0.0738 l 14.26838,22.63037 h 4.37811 v -30.97618 h -3.87721 v 22.45786 h -0.0494 z"
       inkscape:connector-curvature="0"
       sodipodi:nodetypes="ccccccccccccc" />
    <path
       id="path3543"
       style="fill:#ffffff;fill-opacity:1;stroke:none;stroke-width:0.32199085;stroke-linecap:round"
       d="m 605.7523,771.48959 h -4.16468 v 4.16469 h 4.16468 z m -16.5264,37.28274 c 0.29801,0.25996 0.62076,0.49265 0.95659,0.70321 0.34535,0.21649 0.70447,0.40959 1.07475,0.5786 0.38725,0.17674 0.78669,0.32709 1.19309,0.45396 0.45164,0.141 0.91198,0.25301 1.37683,0.34193 0.49829,0.0954 1.00167,0.16412 1.50687,0.20518 0.54438,0.0443 1.09074,0.0564 1.63716,0.0684 4.46032,10e-6 7.66386,-1.79068 9.60235,-5.36394 0.91199,-1.68399 1.37201,-4.46031 1.37201,-8.3294 v -17.9318 h -4.14 v 18.63008 c 0,3.35137 -0.53391,5.75819 -1.61011,7.22856 -1.07615,1.47037 -2.834,2.20151 -5.27362,2.20151 -2.30824,0 -3.98389,-0.73114 -5.01898,-2.20151 -1.03483,-1.47037 -1.55237,-3.83609 -1.55237,-7.11354 v -18.7451 h -4.73971 v 18.67927 c 0.01,0.59331 0.0193,1.1866 0.0545,1.77868 0.0328,0.54986 0.0875,1.09868 0.16356,1.64448 0.0707,0.50694 0.15977,1.01126 0.27252,1.5105 0.105,0.46464 0.2305,0.92486 0.38118,1.37661 0.14747,0.44196 0.31899,0.87579 0.51594,1.29873 0.18541,0.39814 0.39336,0.78662 0.63496,1.15213 0.23075,0.3492 0.49232,0.67744 0.75383,1.00567 0.27144,0.28489 0.54288,0.56978 0.83862,0.82779 z m 4.66486,-33.11805 v -4.16469 h -4.16468 v 4.16469 z"
       inkscape:connector-curvature="0"
       sodipodi:nodetypes="ccccccccccccccccccccccccccccccccccccc" />
    <path
       id="path3559"
       style="fill:#ffffff;fill-opacity:1;stroke:none;stroke-width:0.32199085;stroke-linecap:round"
       d="m 599.15611,533.16043 h 11.86964 v -3.56497 h -28.49527 v 3.56497 h 11.8614 v 27.31258 h 4.76423 z"
       inkscape:connector-curvature="0"
       sodipodi:nodetypes="ccccccccc" />
    <path
       id="path3595"
       style="fill:#ffffff;fill-opacity:1;stroke:none;stroke-width:0.32199085;stroke-linecap:round"
       d="m 601.58762,399.05156 h 4.16468 v -4.16466 h -4.16468 z m -12.36172,33.1181 c 0.29801,0.25995 0.62076,0.49262 0.95659,0.70317 0.34535,0.2165 0.70447,0.40961 1.07475,0.57862 0.38725,0.17674 0.78669,0.32709 1.19309,0.45396 0.45164,0.14099 0.91198,0.25298 1.37683,0.34188 0.49829,0.0954 1.00167,0.16409 1.50687,0.20516 0.54438,0.0443 1.09074,0.0564 1.63716,0.0685 4.46032,-1e-5 7.66386,-1.79069 9.60235,-5.36397 0.91199,-1.68397 1.37201,-4.4603 1.37201,-8.32938 v -17.93175 h -4.14 v 18.63005 c 0,3.35138 -0.53391,5.75819 -1.61011,7.22856 -1.07615,1.47037 -2.834,2.20151 -5.27362,2.20151 -2.30824,0 -3.98389,-0.73114 -5.01898,-2.20151 -1.03483,-1.47037 -1.55237,-3.83608 -1.55237,-7.11354 v -18.74507 h -4.73971 v 18.67923 c 0.01,0.5933 0.0193,1.18659 0.0545,1.77866 0.0328,0.54987 0.0875,1.09869 0.16356,1.64448 0.0707,0.50694 0.15977,1.01128 0.27252,1.51054 0.105,0.46461 0.2305,0.92483 0.38118,1.37657 0.14747,0.44196 0.31899,0.87579 0.51594,1.29872 0.18541,0.39815 0.39336,0.78663 0.63496,1.15214 0.23075,0.3492 0.49232,0.67743 0.75383,1.00566 0.27144,0.2849 0.54282,0.56981 0.83862,0.82784 z m 0.50018,-37.28275 v 4.16466 h 4.16468 v -4.16466 z"
       inkscape:connector-curvature="0"
       sodipodi:nodetypes="ccccccccccccccccccccccccccccccccccccc" />
    <path
       id="path3619"
       style="fill:#ffffff;fill-opacity:1;stroke:none;stroke-width:0.32199085;stroke-linecap:round"
       d="m 664.66025,870.32573 h -17.23359 v -10.82651 h 13.66862 v -3.56497 h -13.66862 v -9.35616 h 16.12465 v -3.56496 H 642.6869 v 30.87757 h 21.97335 z"
       inkscape:connector-curvature="0"
       sodipodi:nodetypes="ccccccccccccc" />
    <path
       id="path3643"
       style="fill:#ffffff;fill-opacity:1;stroke:none;stroke-width:0.32199085;stroke-linecap:round"
       d="m 664.66025,744.79151 h -17.23358 v -10.82654 h 13.66862 V 730.4 h -13.66862 v -9.35615 h 16.12465 v -3.56497 h -20.86441 v 30.87758 h 21.97334 z"
       inkscape:connector-curvature="0"
       sodipodi:nodetypes="ccccccccccccc" />
    <path
       id="path3671"
       style="fill:#ffffff;fill-opacity:1;stroke:none;stroke-width:0.32199085;stroke-linecap:round"
       d="m 653.37158,622.76232 c 0.43237,-0.0362 0.86304,-0.0968 1.28935,-0.17965 0.404,-0.0785 0.80408,-0.17701 1.19691,-0.29946 0.37618,-0.11725 0.74579,-0.25648 1.10459,-0.41926 0.3647,-0.16547 0.71825,-0.35529 1.05828,-0.56773 0.33555,-0.20969 0.65804,-0.44144 0.95722,-0.69914 0.30111,-0.25936 0.57871,-0.54498 0.85637,-0.83061 0.27616,-0.33091 0.55232,-0.66183 0.79704,-1.01535 0.24123,-0.34843 0.45182,-0.71884 0.63861,-1.10044 0.14737,-0.30099 0.27998,-0.60894 0.39075,-0.92431 0.11265,-0.32048 0.20275,-0.64863 0.29291,-0.97677 0.0666,-0.31223 0.1332,-0.62445 0.18723,-0.93888 0.063,-0.36643 0.109,-0.73586 0.14813,-1.10584 0.0451,-0.4237 0.0807,-0.84812 0.10925,-1.27308 0.0387,-0.57116 0.0641,-1.14329 0.0794,-1.71557 0.0177,-0.64944 0.022,-1.29909 0.0264,-1.94876 V 591.19713 H 647.0777 v 3.56496 h 10.6866 v 16.5272 c 0,2.97354 -0.4517,5.04365 -1.35537,6.2101 -0.91172,1.17455 -2.49709,1.75788 -4.75585,1.75788 -0.25561,-0.009 -0.51122,-0.0165 -0.76575,-0.0378 -0.28866,-0.0241 -0.57604,-0.065 -0.86192,-0.11334 -0.32108,-0.0542 -0.64038,-0.11779 -0.95803,-0.1889 -0.42046,-0.0942 -0.83809,-0.20153 -1.25249,-0.31971 -0.46474,-0.13253 -0.9254,-0.27862 -1.38612,-0.42471 l -1.58538,-0.52565 v 4.01693 c 0.5248,0.13441 1.04965,0.26882 1.57718,0.39201 0.48636,0.11356 0.97504,0.21758 1.46559,0.3113 0.44966,0.0859 0.90087,0.16319 1.35386,0.23061 0.48224,0.0718 0.96651,0.13241 1.4524,0.16817 0.43157,0.0317 0.86443,0.0439 1.29736,0.056 0.46124,-0.0107 0.9225,-0.0214 1.38193,-0.0599 z"
       inkscape:connector-curvature="0"
       sodipodi:nodetypes="ccccccccccccccccccccccccccccccccsccc" />
    <path
       id="path3695"
       style="fill:#ffffff;fill-opacity:1;stroke:none;stroke-width:0.32199085;stroke-linecap:round"
       d="m 664.36043,493.72302 h -8.30473 v -23.74761 h 8.30473 v -3.56496 h -21.37364 v 3.56496 h 8.30474 v 23.74761 h -8.30474 v 3.56497 h 21.37364 z"
       inkscape:connector-curvature="0"
       sodipodi:nodetypes="ccccccccccccc" />
    <path
       id="path3741"
       style="fill:#ffffff;fill-opacity:1;stroke:none;stroke-width:0.32199085;stroke-linecap:round"
       d="m 702.14097,906.56888 c -0.33069,0.29549 -0.66143,0.59097 -0.95541,0.92089 -0.28738,0.32243 -0.53966,0.67774 -0.75942,1.05136 -0.2218,0.37711 -0.41043,0.77285 -0.56294,1.18188 -0.12402,0.33262 -0.22421,0.67403 -0.30428,1.02016 -0.084,0.36277 -0.14586,0.73073 -0.18273,1.10073 -0.0392,0.39224 -0.0499,0.78677 -0.061,1.1813 0,2.05371 0.61613,3.69658 1.84006,4.92864 1.2321,1.24036 3.42529,2.43962 6.58772,3.61437 l 3.17075,1.14986 c 0.45331,0.17012 0.90657,0.34024 1.35645,0.5191 0.39341,0.15642 0.78421,0.31954 1.17161,0.49058 0.33256,0.14683 0.6626,0.29949 0.98734,0.46268 0.21825,0.10969 0.43409,0.22413 0.64697,0.34437 0.182,0.10276 0.36177,0.2098 0.53392,0.32786 0.14399,0.0988 0.28265,0.20518 0.42128,0.31163 0.21263,0.20264 0.42524,0.40527 0.59864,0.63912 0.16968,0.22888 0.30187,0.48764 0.40248,0.75673 0.0821,0.21948 0.14324,0.44586 0.17957,0.67568 0.0387,0.24599 0.0494,0.49594 0.0597,0.7459 -0.0129,0.28146 -0.0263,0.56291 -0.073,0.83981 -0.0446,0.26361 -0.11945,0.52309 -0.21895,0.77209 -0.0985,0.2464 -0.22083,0.48252 -0.36493,0.70532 -0.1758,0.27188 -0.38386,0.52391 -0.61746,0.74686 -0.25336,0.2418 -0.53682,0.44939 -0.82027,0.65699 -1.39648,0.92005 -3.26102,1.38007 -5.61032,1.38007 -0.40227,-0.0116 -0.8045,-0.023 -1.20516,-0.0556 -0.43206,-0.035 -0.86229,-0.0944 -1.29001,-0.16681 -0.46125,-0.0781 -0.9196,-0.17122 -1.37479,-0.27815 -0.49012,-0.11517 -0.97659,-0.24629 -1.45931,-0.38967 -0.54438,-0.16168 -1.08398,-0.33895 -1.61946,-0.52794 -0.57577,-0.2032 -1.14677,-0.41998 -1.71202,-0.6506 -0.60588,-0.24719 -1.20515,-0.51029 -1.80438,-0.7734 v 4.69843 c 4.22215,1.14196 7.66403,1.70868 10.32533,1.70868 0.68992,-0.0158 1.37978,-0.0315 2.06679,-0.0892 0.63862,-0.0537 1.27472,-0.1437 1.90422,-0.26789 0.5888,-0.11617 1.17178,-0.26226 1.74239,-0.44651 0.4261,-0.13759 0.84528,-0.29646 1.25587,-0.47613 0.39642,-0.17349 0.78486,-0.36633 1.15664,-0.5864 0.36316,-0.21493 0.71042,-0.45582 1.05776,-0.6967 0.30417,-0.24287 0.60829,-0.48573 0.89196,-0.75137 0.27133,-0.25413 0.52393,-0.52912 0.75764,-0.81902 0.22701,-0.28165 0.4362,-0.57738 0.62338,-0.88667 0.18525,-0.30599 0.34888,-0.62525 0.48916,-0.95429 0.14833,-0.34788 0.27047,-0.70671 0.36846,-1.07226 0.10093,-0.37642 0.17619,-0.75998 0.221,-1.14644 0.0467,-0.40477 0.0602,-0.81273 0.0737,-1.22067 -0.0155,-0.40813 -0.0305,-0.81626 -0.0844,-1.2202 -0.0515,-0.38498 -0.13765,-0.76616 -0.25303,-1.13797 -0.11253,-0.36259 -0.2527,-0.71626 -0.42175,-1.05577 -0.16926,-0.33997 -0.3675,-0.66573 -0.59026,-0.97353 -0.22899,-0.31645 -0.48385,-0.61391 -0.75878,-0.89129 -0.28372,-0.28624 -0.58876,-0.55106 -0.90914,-0.79534 -0.34185,-0.26063 -0.70108,-0.49789 -1.07164,-0.71602 -0.39916,-0.23501 -0.81141,-0.44782 -1.23392,-0.63669 -0.45738,-0.20451 -0.9268,-0.38094 -1.3962,-0.55737 l -2.88321,-0.99395 -3.03107,-1.05976 c -2.16871,-0.74752 -3.65546,-1.48676 -4.45221,-2.20129 -0.80504,-0.71474 -1.20753,-1.65118 -1.20753,-2.82574 0,-2.88324 2.14397,-4.3289 6.43177,-4.3289 2.71073,0 5.80759,0.67342 9.29035,2.0207 v -4.11551 c -0.63362,-0.17122 -1.26726,-0.34245 -1.90512,-0.49662 -0.60754,-0.14683 -1.21894,-0.2782 -1.83299,-0.39504 -0.58457,-0.11125 -1.17156,-0.20931 -1.76091,-0.2931 -0.65831,-0.0936 -1.31963,-0.16935 -1.98271,-0.2141 -0.62643,-0.0423 -1.25447,-0.0569 -1.88252,-0.0715 -3.41713,10e-6 -6.07038,0.76394 -7.95966,2.28371 z"
       inkscape:connector-curvature="0"
       sodipodi:nodetypes="cccccccccccccccccccccccccccccccccccccscccccccccccccccccccccccccccccccc" />
    <path
       id="path3765"
       style="fill:#ffffff;fill-opacity:1;stroke:none;stroke-width:0.32199085;stroke-linecap:round"
       d="m 703.75934,717.38031 h -4.4769 v 30.97616 h 3.85251 v -22.63036 h 0.0738 l 14.26838,22.63036 h 4.37811 v -30.97616 h -3.87721 v 22.45786 h -0.0494 z"
       inkscape:connector-curvature="0"
       sodipodi:nodetypes="ccccccccccccc" />
    <path
       id="path3797"
       style="fill:#ffffff;fill-opacity:1;stroke:none;stroke-width:0.32199085;stroke-linecap:round"
       d="m 708.26887,616.30016 h 3.99214 l 6.95748,-19.97718 h 0.0494 v 26.49924 h 3.87699 v -30.87755 h -5.94707 l -6.66993,19.01619 h -0.0494 l -6.78494,-19.01619 h -5.70069 v 30.87755 h 3.29386 v -25.9406 h 0.0494 z"
       inkscape:connector-curvature="0"
       sodipodi:nodetypes="ccccccccccccccccc" />
    <path
       id="path3833"
       style="fill:#ffffff;fill-opacity:1;stroke:none;stroke-width:0.32199085;stroke-linecap:round"
       d="m 712.11666,465.00418 c -0.62413,0.0539 -1.24567,0.14444 -1.86072,0.26646 -0.59177,0.11741 -1.17757,0.26393 -1.75315,0.44398 -0.55984,0.17514 -1.11005,0.38199 -1.64558,0.62129 -0.5526,0.2469 -1.08951,0.52835 -1.60834,0.84089 -0.51868,0.31242 -1.01932,0.65589 -1.48991,1.03528 -0.47773,0.38513 -0.92454,0.80726 -1.37136,1.2294 -0.39954,0.43097 -0.79908,0.86194 -1.1649,1.32072 -0.36122,0.45303 -0.68961,0.93317 -0.98997,1.42971 -0.30068,0.49714 -0.5733,1.01069 -0.81473,1.5387 -0.24509,0.5359 -0.45809,1.08668 -0.63959,1.64738 -0.19556,0.6042 -0.35456,1.21992 -0.48186,1.84231 -0.13256,0.64799 -0.23081,1.30322 -0.28926,1.96135 -0.0614,0.69131 -0.0789,1.38581 -0.0965,2.0803 -9e-5,4.74782 1.49481,8.60857 4.48492,11.5738 0.42803,0.39722 0.85607,0.79445 1.31146,1.15855 0.4488,0.35882 0.92422,0.6855 1.41585,0.98451 0.49126,0.29877 0.99871,0.56993 1.52049,0.8103 0.5286,0.24348 1.07195,0.45537 1.62526,0.63603 0.59515,0.19435 1.20171,0.35256 1.81511,0.4793 0.63759,0.13174 1.2825,0.22945 1.93028,0.2876 0.67978,0.0611 1.36272,0.0784 2.04572,0.0959 2.88327,2e-5 5.93901,-0.51751 9.16724,-1.54426 v -14.3423 h -10.53899 v 3.5652 h 5.79921 v 8.1567 c -1.26482,0.18889 -2.30818,0.2875 -3.12958,0.2875 -0.49324,-0.0125 -0.98641,-0.0251 -1.47735,-0.0686 -0.47064,-0.0417 -0.93913,-0.11175 -1.40264,-0.20577 -0.44837,-0.091 -0.89198,-0.20425 -1.32774,-0.34298 -0.42624,-0.13568 -0.845,-0.29566 -1.25253,-0.48007 -0.42304,-0.19141 -0.83397,-0.40913 -1.23124,-0.65011 -0.39938,-0.24227 -0.78496,-0.50808 -1.14811,-0.80068 -0.37039,-0.29848 -0.71756,-0.62485 -1.06466,-0.95121 -2.32456,-2.33272 -3.49103,-5.32284 -3.49103,-8.96979 0.0112,-0.4952 0.022,-0.9904 0.0603,-1.48387 0.0365,-0.47186 0.0984,-0.94212 0.18129,-1.40843 0.0799,-0.44889 0.17961,-0.89412 0.30229,-1.33312 0.11914,-0.4262 0.25996,-0.84652 0.42346,-1.25774 0.16792,-0.42245 0.35978,-0.83527 0.57368,-1.23681 0.21235,-0.39861 0.44638,-0.7861 0.70699,-1.15413 0.26221,-0.37028 0.5513,-0.72086 0.84045,-1.07144 0.29247,-0.31248 0.58494,-0.62496 0.89927,-0.91462 0.3038,-0.28 0.62793,-0.53869 0.96592,-0.7773 0.33117,-0.2338 0.67559,-0.44834 1.03256,-0.6399 0.35516,-0.19059 0.72271,-0.35845 1.09928,-0.50227 0.39891,-0.15237 0.80787,-0.27776 1.22308,-0.37852 0.4268,-0.10361 0.86014,-0.18113 1.29624,-0.22722 0.45447,-0.048 0.91197,-0.0619 1.36947,-0.0757 0.52313,0.0152 1.04625,0.0305 1.56702,0.0764 0.53993,0.0476 1.07739,0.12804 1.61039,0.22922 0.55629,0.10554 1.10775,0.23374 1.65395,0.38209 0.67813,0.18416 1.34818,0.39949 2.00568,0.64655 0.69846,0.26244 1.3828,0.5607 2.06713,0.85896 v -4.36196 c -0.85306,-0.2375 -1.70606,-0.47497 -2.5689,-0.67128 -0.81844,-0.18621 -1.64563,-0.33536 -2.47727,-0.4539 -0.62536,-0.0892 -1.25319,-0.16095 -1.88284,-0.20335 -0.60798,-0.0409 -1.21767,-0.0544 -1.82725,-0.0679 -0.65692,0.0162 -1.31389,0.0324 -1.96802,0.0888 z"
       inkscape:connector-curvature="0"
       sodipodi:nodetypes="csccccccccccccccccccscccccccccccccccccccccccccccccccccscccsccc" />
    <path
       id="path3861"
       style="fill:#ffffff;fill-opacity:1;stroke:none;stroke-width:0.32199085;stroke-linecap:round"
       d="m 531.86528,651.12617 h 4.16475 v -4.16471 h -4.16475 z m 16.30422,20.95848 c -0.0257,0.5127 -0.0685,1.02472 -0.12751,1.53481 -0.0553,0.47752 -0.12488,0.95336 -0.21256,1.42602 -0.0821,0.44265 -0.18006,0.88251 -0.29747,1.31705 -0.11523,0.42652 -0.24918,0.84793 -0.40287,1.26258 -0.14446,0.38967 -0.30638,0.7734 -0.49614,1.14234 -0.17983,0.34944 -0.38461,0.68562 -0.58951,1.02181 -0.20655,0.29177 -0.41311,0.58354 -0.643,0.85645 -0.21885,0.25978 -0.4589,0.50247 -0.71445,0.72716 -0.24756,0.21765 -0.50971,0.41841 -0.78588,0.59797 -0.27332,0.1777 -0.56031,0.33465 -0.85741,0.46893 -0.31517,0.14246 -0.64166,0.25941 -0.97488,0.35301 -0.34533,0.097 -0.69791,0.16894 -1.05338,0.21172 -0.37513,0.0451 -0.75346,0.0579 -1.13175,0.0705 -2.40361,10e-6 -4.25258,-0.8423 -5.65873,-2.63035 l -2.75634,3.18209 c 0.42734,0.3541 0.85461,0.70821 1.31184,1.02039 0.4523,0.3088 0.93377,0.57656 1.43066,0.81002 0.5022,0.23596 1.02013,0.43688 1.54958,0.59983 0.42724,0.13147 0.86197,0.23821 1.3009,0.32394 0.45449,0.0887 0.91349,0.15495 1.37442,0.1943 0.48121,0.0411 0.96452,0.0529 1.44783,0.0647 4.0742,10e-6 7.31885,-1.46226 9.73394,-4.39471 0.32511,-0.42195 0.65021,-0.84389 0.94328,-1.28763 0.29724,-0.44998 0.56165,-0.92238 0.80132,-1.40641 0.24605,-0.49687 0.46603,-1.00599 0.65923,-1.52521 0.20038,-0.53859 0.37194,-1.08803 0.51733,-1.64406 0.15944,-0.60985 0.28748,-1.22763 0.38966,-1.84976 0.1077,-0.65621 0.1867,-1.31728 0.23371,-1.98017 0.0499,-0.70217 0.064,-1.4064 0.0779,-2.11063 -0.0139,-0.72307 -0.0284,-1.44614 -0.0797,-2.16702 -0.0483,-0.67624 -0.12961,-1.35055 -0.24139,-2.0198 -0.10564,-0.63209 -0.23849,-1.25967 -0.40592,-1.87787 -0.12607,-0.46553 -0.2717,-0.92574 -0.43635,-1.37939 -0.16003,-0.44086 -0.33798,-0.87553 -0.54137,-1.2976 -0.19964,-0.41423 -0.42369,-0.81634 -0.6478,-1.21844 l -3.36089,4.03633 c 0.11882,0.49271 0.23769,0.98543 0.33037,1.48321 0.0997,0.53566 0.16914,1.07718 0.22292,1.61991 0.0451,0.45537 0.0794,0.91158 0.0996,1.36838 0.0214,0.48365 0.0273,0.96798 0.0332,1.45229 -0.008,0.54801 -0.015,1.09602 -0.0424,1.64324 z m -16.23907,2.81331 c -0.0989,-0.53746 -0.1676,-1.0807 -0.22083,-1.62511 -0.0446,-0.45706 -0.0785,-0.91492 -0.0986,-1.37338 -0.0214,-0.48558 -0.0274,-0.97181 -0.0328,-1.45805 0.0129,-0.72018 0.0257,-1.44037 0.0747,-2.15858 0.0446,-0.65843 0.11951,-1.3152 0.22448,-1.96731 0.0962,-0.59758 0.21771,-1.19126 0.37454,-1.77544 0.11419,-0.42556 0.24716,-0.84608 0.39975,-1.25994 0.1434,-0.38906 0.30417,-0.77223 0.49276,-1.14076 0.17864,-0.34919 0.38225,-0.68525 0.58585,-1.0213 1.43758,-2.19321 3.49108,-3.28557 6.1526,-3.28557 2.41166,0 4.25624,0.81902 5.66967,2.61962 l 2.69662,-3.21084 c -0.42572,-0.35302 -0.85145,-0.70606 -1.30728,-1.01685 -0.44869,-0.30593 -0.92653,-0.57093 -1.41977,-0.80129 -0.4978,-0.23248 -1.01126,-0.42968 -1.53616,-0.58901 -0.42406,-0.12872 -0.85554,-0.23271 -1.29102,-0.31593 -0.45224,-0.0864 -0.90877,-0.15039 -1.36712,-0.18841 -0.48036,-0.0399 -0.96264,-0.0511 -1.44494,-0.0625 -4.07441,-2e-5 -7.31906,1.46225 -9.734,4.3947 -0.32505,0.4218 -0.6501,0.84358 -0.94332,1.28713 -0.29714,0.44956 -0.5615,0.92146 -0.80127,1.405 -0.246,0.49608 -0.46608,1.00439 -0.65934,1.52283 -0.20032,0.53745 -0.37178,1.08578 -0.51722,1.6407 -0.15938,0.60833 -0.28748,1.22458 -0.38967,1.84519 -0.1077,0.65434 -0.18669,1.31354 -0.23371,1.97459 -0.0499,0.69993 -0.064,1.40192 -0.0779,2.10391 0.0145,0.72072 0.0295,1.44144 0.0818,2.15989 0.0494,0.67741 0.13223,1.35281 0.24514,2.02316 0.10693,0.63487 0.2409,1.2652 0.40867,1.88639 0.12627,0.46764 0.2717,0.93009 0.4357,1.38621 0.1589,0.44197 0.33519,0.87799 0.53665,1.30174 0.19658,0.41357 0.41709,0.81544 0.63765,1.21733 l 3.38616,-4.03108 c -0.11795,-0.49404 -0.23585,-0.98807 -0.32767,-1.4871 z m 11.79656,-27.9365 v 4.16471 h 4.16469 v -4.16471 z"
       inkscape:connector-curvature="0"
       sodipodi:nodetypes="ccccccccccccccccccccccccccccccccccccccccccccccccccccccccccccccccccccccccccccccccccccccc" />
    <path
       id="path3885"
       style="fill:#ffffff;fill-opacity:1;stroke:none;stroke-width:0.32199085;stroke-linecap:round"
       d="m 368.97912,673.02156 9.11784,12.56778 h 5.63509 l -11.86969,-16.34636 11.24523,-14.53121 h -4.62453 l -8.855,11.45906 -8.32108,-11.45906 h -5.61039 l 11.03183,15.20462 -12.06688,15.67295 h 4.61642 z"
       inkscape:connector-curvature="0"
       sodipodi:nodetypes="ccccccccccccc" />
    <path
       id="path3937"
       style="fill:#ffffff;fill-opacity:1;stroke:none;stroke-width:0.32199085;stroke-linecap:round"
       d="m 593.41474,733.79245 0.36558,10e-6 c 0.27867,0.0107 0.55736,0.0206 0.83465,0.0466 0.30401,0.0285 0.60636,0.076 0.90689,0.13189 0.31656,0.0589 0.6311,0.12735 0.94333,0.20534 0.31726,0.0793 0.63216,0.16837 0.94395,0.26692 0.32017,0.10114 0.63711,0.21227 0.95073,0.33271 0.29517,0.11333 0.58737,0.23494 0.87114,0.37359 0.2547,0.12446 0.50258,0.26264 0.75052,0.40085 1.9277,1.16848 2.89958,2.75183 2.89958,4.73971 0,1.71678 -0.59122,2.90187 -1.76595,3.54028 -0.25163,0.11625 -0.50322,0.23251 -0.76328,0.32574 -0.31351,0.11242 -0.63931,0.19136 -0.96667,0.25841 -0.38796,0.0795 -0.77814,0.14224 -1.17022,0.19126 -0.35291,0.0441 -0.70742,0.0771 -1.0623,0.10318 -0.39563,0.0292 -0.79179,0.0496 -1.18815,0.0619 -0.43785,0.0136 -0.87592,0.017 -1.31404,0.0206 h -9.01628 l -0.0113,3.56497 9.31487,10e-6 c 0.5484,-0.003 1.09675,-0.005 1.64505,-0.0154 0.48905,-0.01 0.97799,-0.0243 1.46667,-0.0464 0.42996,-0.0194 0.85971,-0.0439 1.28877,-0.0773 0.29633,-0.023 0.59235,-0.0503 0.88789,-0.0824 0.26022,-0.0283 0.52,-0.0603 0.77841,-0.10157 0.22373,-0.0357 0.44633,-0.0781 0.66899,-0.12059 1.39642,-0.29563 2.64509,-0.90345 3.72934,-1.81539 1.68401,-1.37986 2.52995,-3.29386 2.52995,-5.73348 -0.0134,-0.38568 -0.0268,-0.77138 -0.0747,-1.15357 -0.0457,-0.36245 -0.12161,-0.72175 -0.22416,-1.07313 -0.0992,-0.33994 -0.22308,-0.67246 -0.37362,-0.99264 -0.14923,-0.31739 -0.32467,-0.62266 -0.52317,-0.91195 -0.20195,-0.29424 -0.42772,-0.57194 -0.67281,-0.83122 -0.25511,-0.2699 -0.53107,-0.51982 -0.82232,-0.75031 -0.36604,-0.28967 -0.75613,-0.54861 -1.1613,-0.78029 -0.44119,-0.25225 -0.90013,-0.4722 -1.36927,-0.66759 -0.51491,-0.21443 -1.04213,-0.39927 -1.57727,-0.55467 -0.58865,-0.17092 -1.18703,-0.30622 -1.78533,-0.44153 0.40098,-0.11139 0.80191,-0.22276 1.19593,-0.35613 0.37151,-0.12577 0.73687,-0.27106 1.09385,-0.43403 0.33846,-0.15455 0.66947,-0.32499 0.99125,-0.51263 0.36143,-0.21073 0.71127,-0.44315 1.03568,-0.70594 0.31286,-0.2535 0.60202,-0.53525 0.89117,-0.81698 1.24036,-1.33068 1.86481,-2.89965 1.86481,-4.73144 0,-4.78062 -3.61441,-7.17104 -10.83484,-7.17104 l -9.96384,-10e-6 0.0113,9.31932 v 13.94379 l 4.74636,-2e-5 -0.005,-19.69816 h 2.2059 c 3.5484,10e-6 5.93858,0.30594 7.17095,0.91194 0.21746,0.12347 0.43501,0.24694 0.63025,0.4009 0.18895,0.14901 0.35698,0.3266 0.50198,0.52041 0.14844,0.19835 0.27278,0.41369 0.37196,0.63978 0.083,0.18924 0.14838,0.38598 0.19984,0.58628 0.0556,0.21672 0.095,0.43758 0.11769,0.65975 0.0246,0.24334 0.0301,0.48825 0.0349,0.73316 -0.0403,4.2795 -5.40173,5.33925 -7.90166,5.33925 l -0.29167,0 z"
       inkscape:connector-curvature="0"
       sodipodi:nodetypes="ccccccccccccccscccccccccccccccccccccscccccccccccccccccccccccc" />
  </g>
  <g
     inkscape:groupmode="layer"
     inkscape:label="FORMAT"
     id="g3941"
     transform="translate(0,-272.12602)" />
</svg>
