EESchema Schematic File Version 4
LIBS:wordclock-pcb-cache
EELAYER 30 0
EELAYER END
$Descr A4 11693 8268
encoding utf-8
Sheet 2 2
Title ""
Date ""
Rev ""
Comp ""
Comment1 ""
Comment2 ""
Comment3 ""
Comment4 ""
$EndDescr
$Comp
L LED:WS2812B D?
U 1 1 5D25DCDA
P 1500 1000
AR Path="/5D25DCDA" Ref="D?"  Part="1" 
AR Path="/5D21925A/5D25DCDA" Ref="D1"  Part="1" 
F 0 "D1" H 1841 1046 50  0000 L CNN
F 1 "WS2812B" H 1841 955 50  0000 L CNN
F 2 "LED_SMD:LED_WS2812B_PLCC4_5.0x5.0mm_P3.2mm" H 1550 700 50  0001 L TNN
F 3 "https://cdn-shop.adafruit.com/datasheets/WS2812B.pdf" H 1600 625 50  0001 L TNN
	1    1500 1000
	1    0    0    -1  
$EndComp
$Comp
L LED:WS2812B D?
U 1 1 5D25DCE1
P 2200 1000
AR Path="/5D25DCE1" Ref="D?"  Part="1" 
AR Path="/5D21925A/5D25DCE1" Ref="D2"  Part="1" 
F 0 "D2" H 2541 1046 50  0000 L CNN
F 1 "WS2812B" H 2541 955 50  0000 L CNN
F 2 "LED_SMD:LED_WS2812B_PLCC4_5.0x5.0mm_P3.2mm" H 2250 700 50  0001 L TNN
F 3 "https://cdn-shop.adafruit.com/datasheets/WS2812B.pdf" H 2300 625 50  0001 L TNN
	1    2200 1000
	1    0    0    -1  
$EndComp
$Comp
L LED:WS2812B D?
U 1 1 5D25DCE8
P 2900 1000
AR Path="/5D25DCE8" Ref="D?"  Part="1" 
AR Path="/5D21925A/5D25DCE8" Ref="D3"  Part="1" 
F 0 "D3" H 3241 1046 50  0000 L CNN
F 1 "WS2812B" H 3241 955 50  0000 L CNN
F 2 "LED_SMD:LED_WS2812B_PLCC4_5.0x5.0mm_P3.2mm" H 2950 700 50  0001 L TNN
F 3 "https://cdn-shop.adafruit.com/datasheets/WS2812B.pdf" H 3000 625 50  0001 L TNN
	1    2900 1000
	1    0    0    -1  
$EndComp
$Comp
L LED:WS2812B D?
U 1 1 5D25DCEF
P 3600 1000
AR Path="/5D25DCEF" Ref="D?"  Part="1" 
AR Path="/5D21925A/5D25DCEF" Ref="D4"  Part="1" 
F 0 "D4" H 3941 1046 50  0000 L CNN
F 1 "WS2812B" H 3941 955 50  0000 L CNN
F 2 "LED_SMD:LED_WS2812B_PLCC4_5.0x5.0mm_P3.2mm" H 3650 700 50  0001 L TNN
F 3 "https://cdn-shop.adafruit.com/datasheets/WS2812B.pdf" H 3700 625 50  0001 L TNN
	1    3600 1000
	1    0    0    -1  
$EndComp
$Comp
L LED:WS2812B D?
U 1 1 5D25DCF6
P 4300 1000
AR Path="/5D25DCF6" Ref="D?"  Part="1" 
AR Path="/5D21925A/5D25DCF6" Ref="D5"  Part="1" 
F 0 "D5" H 4641 1046 50  0000 L CNN
F 1 "WS2812B" H 4641 955 50  0000 L CNN
F 2 "LED_SMD:LED_WS2812B_PLCC4_5.0x5.0mm_P3.2mm" H 4350 700 50  0001 L TNN
F 3 "https://cdn-shop.adafruit.com/datasheets/WS2812B.pdf" H 4400 625 50  0001 L TNN
	1    4300 1000
	1    0    0    -1  
$EndComp
$Comp
L LED:WS2812B D?
U 1 1 5D25DCFD
P 5000 1000
AR Path="/5D25DCFD" Ref="D?"  Part="1" 
AR Path="/5D21925A/5D25DCFD" Ref="D6"  Part="1" 
F 0 "D6" H 5341 1046 50  0000 L CNN
F 1 "WS2812B" H 5341 955 50  0000 L CNN
F 2 "LED_SMD:LED_WS2812B_PLCC4_5.0x5.0mm_P3.2mm" H 5050 700 50  0001 L TNN
F 3 "https://cdn-shop.adafruit.com/datasheets/WS2812B.pdf" H 5100 625 50  0001 L TNN
	1    5000 1000
	1    0    0    -1  
$EndComp
$Comp
L LED:WS2812B D?
U 1 1 5D25DD04
P 5700 1000
AR Path="/5D25DD04" Ref="D?"  Part="1" 
AR Path="/5D21925A/5D25DD04" Ref="D7"  Part="1" 
F 0 "D7" H 6041 1046 50  0000 L CNN
F 1 "WS2812B" H 6041 955 50  0000 L CNN
F 2 "LED_SMD:LED_WS2812B_PLCC4_5.0x5.0mm_P3.2mm" H 5750 700 50  0001 L TNN
F 3 "https://cdn-shop.adafruit.com/datasheets/WS2812B.pdf" H 5800 625 50  0001 L TNN
	1    5700 1000
	1    0    0    -1  
$EndComp
$Comp
L LED:WS2812B D?
U 1 1 5D25DD0B
P 6400 1000
AR Path="/5D25DD0B" Ref="D?"  Part="1" 
AR Path="/5D21925A/5D25DD0B" Ref="D8"  Part="1" 
F 0 "D8" H 6741 1046 50  0000 L CNN
F 1 "WS2812B" H 6741 955 50  0000 L CNN
F 2 "LED_SMD:LED_WS2812B_PLCC4_5.0x5.0mm_P3.2mm" H 6450 700 50  0001 L TNN
F 3 "https://cdn-shop.adafruit.com/datasheets/WS2812B.pdf" H 6500 625 50  0001 L TNN
	1    6400 1000
	1    0    0    -1  
$EndComp
$Comp
L LED:WS2812B D?
U 1 1 5D25DD12
P 7100 1000
AR Path="/5D25DD12" Ref="D?"  Part="1" 
AR Path="/5D21925A/5D25DD12" Ref="D9"  Part="1" 
F 0 "D9" H 7441 1046 50  0000 L CNN
F 1 "WS2812B" H 7441 955 50  0000 L CNN
F 2 "LED_SMD:LED_WS2812B_PLCC4_5.0x5.0mm_P3.2mm" H 7150 700 50  0001 L TNN
F 3 "https://cdn-shop.adafruit.com/datasheets/WS2812B.pdf" H 7200 625 50  0001 L TNN
	1    7100 1000
	1    0    0    -1  
$EndComp
$Comp
L LED:WS2812B D?
U 1 1 5D25DD19
P 7800 1000
AR Path="/5D25DD19" Ref="D?"  Part="1" 
AR Path="/5D21925A/5D25DD19" Ref="D10"  Part="1" 
F 0 "D10" H 8141 1046 50  0000 L CNN
F 1 "WS2812B" H 8141 955 50  0000 L CNN
F 2 "LED_SMD:LED_WS2812B_PLCC4_5.0x5.0mm_P3.2mm" H 7850 700 50  0001 L TNN
F 3 "https://cdn-shop.adafruit.com/datasheets/WS2812B.pdf" H 7900 625 50  0001 L TNN
	1    7800 1000
	1    0    0    -1  
$EndComp
$Comp
L LED:WS2812B D?
U 1 1 5D25DD20
P 8500 1000
AR Path="/5D25DD20" Ref="D?"  Part="1" 
AR Path="/5D21925A/5D25DD20" Ref="D11"  Part="1" 
F 0 "D11" H 8841 1046 50  0000 L CNN
F 1 "WS2812B" H 8841 955 50  0000 L CNN
F 2 "LED_SMD:LED_WS2812B_PLCC4_5.0x5.0mm_P3.2mm" H 8550 700 50  0001 L TNN
F 3 "https://cdn-shop.adafruit.com/datasheets/WS2812B.pdf" H 8600 625 50  0001 L TNN
	1    8500 1000
	1    0    0    -1  
$EndComp
Wire Wire Line
	1500 1300 2200 1300
Wire Wire Line
	2200 1300 2900 1300
Connection ~ 2200 1300
Wire Wire Line
	2900 1300 3600 1300
Connection ~ 2900 1300
Wire Wire Line
	3600 1300 4300 1300
Connection ~ 3600 1300
Wire Wire Line
	4300 1300 5000 1300
Connection ~ 4300 1300
Wire Wire Line
	5000 1300 5700 1300
Connection ~ 5000 1300
Wire Wire Line
	5700 1300 6400 1300
Connection ~ 5700 1300
Wire Wire Line
	6400 1300 7100 1300
Connection ~ 6400 1300
Wire Wire Line
	7100 1300 7800 1300
Connection ~ 7100 1300
Wire Wire Line
	7800 1300 8500 1300
Connection ~ 7800 1300
$Comp
L power:GND #PWR?
U 1 1 5D25DD3A
P 9200 1300
AR Path="/5D25DD3A" Ref="#PWR?"  Part="1" 
AR Path="/5D21925A/5D25DD3A" Ref="#PWR015"  Part="1" 
F 0 "#PWR015" H 9200 1050 50  0001 C CNN
F 1 "GND" H 9205 1127 50  0000 C CNN
F 2 "" H 9200 1300 50  0001 C CNN
F 3 "" H 9200 1300 50  0001 C CNN
	1    9200 1300
	1    0    0    -1  
$EndComp
$Comp
L power:+5V #PWR?
U 1 1 5D25DD40
P 1100 700
AR Path="/5D25DD40" Ref="#PWR?"  Part="1" 
AR Path="/5D21925A/5D25DD40" Ref="#PWR014"  Part="1" 
F 0 "#PWR014" H 1100 550 50  0001 C CNN
F 1 "+5V" H 1115 873 50  0000 C CNN
F 2 "" H 1100 700 50  0001 C CNN
F 3 "" H 1100 700 50  0001 C CNN
	1    1100 700 
	1    0    0    -1  
$EndComp
Wire Wire Line
	8500 700  7800 700 
Wire Wire Line
	7800 700  7100 700 
Connection ~ 7800 700 
Wire Wire Line
	7100 700  6400 700 
Connection ~ 7100 700 
Wire Wire Line
	6400 700  5700 700 
Connection ~ 6400 700 
Wire Wire Line
	5700 700  5000 700 
Connection ~ 5700 700 
Wire Wire Line
	5000 700  4300 700 
Connection ~ 5000 700 
Wire Wire Line
	4300 700  3600 700 
Connection ~ 4300 700 
Wire Wire Line
	3600 700  2900 700 
Connection ~ 3600 700 
Wire Wire Line
	2900 700  2200 700 
Connection ~ 2900 700 
Wire Wire Line
	2200 700  1500 700 
Connection ~ 2200 700 
Wire Wire Line
	1500 700  1100 700 
Connection ~ 1500 700 
Wire Wire Line
	1800 1000 1900 1000
Wire Wire Line
	2500 1000 2600 1000
Wire Wire Line
	3200 1000 3300 1000
Wire Wire Line
	3900 1000 4000 1000
Wire Wire Line
	4600 1000 4700 1000
Wire Wire Line
	5300 1000 5400 1000
Wire Wire Line
	6000 1000 6100 1000
Wire Wire Line
	6700 1000 6800 1000
Wire Wire Line
	7400 1000 7500 1000
Wire Wire Line
	8100 1000 8200 1000
Wire Wire Line
	8500 1300 9000 1300
Connection ~ 8500 1300
$Comp
L LED:WS2812B D?
U 1 1 5D25DD67
P 1500 1700
AR Path="/5D25DD67" Ref="D?"  Part="1" 
AR Path="/5D21925A/5D25DD67" Ref="D12"  Part="1" 
F 0 "D12" H 1841 1746 50  0000 L CNN
F 1 "WS2812B" H 1841 1655 50  0000 L CNN
F 2 "LED_SMD:LED_WS2812B_PLCC4_5.0x5.0mm_P3.2mm" H 1550 1400 50  0001 L TNN
F 3 "https://cdn-shop.adafruit.com/datasheets/WS2812B.pdf" H 1600 1325 50  0001 L TNN
	1    1500 1700
	1    0    0    -1  
$EndComp
$Comp
L LED:WS2812B D?
U 1 1 5D25DD6E
P 2200 1700
AR Path="/5D25DD6E" Ref="D?"  Part="1" 
AR Path="/5D21925A/5D25DD6E" Ref="D13"  Part="1" 
F 0 "D13" H 2541 1746 50  0000 L CNN
F 1 "WS2812B" H 2541 1655 50  0000 L CNN
F 2 "LED_SMD:LED_WS2812B_PLCC4_5.0x5.0mm_P3.2mm" H 2250 1400 50  0001 L TNN
F 3 "https://cdn-shop.adafruit.com/datasheets/WS2812B.pdf" H 2300 1325 50  0001 L TNN
	1    2200 1700
	1    0    0    -1  
$EndComp
$Comp
L LED:WS2812B D?
U 1 1 5D25DD75
P 2900 1700
AR Path="/5D25DD75" Ref="D?"  Part="1" 
AR Path="/5D21925A/5D25DD75" Ref="D14"  Part="1" 
F 0 "D14" H 3241 1746 50  0000 L CNN
F 1 "WS2812B" H 3241 1655 50  0000 L CNN
F 2 "LED_SMD:LED_WS2812B_PLCC4_5.0x5.0mm_P3.2mm" H 2950 1400 50  0001 L TNN
F 3 "https://cdn-shop.adafruit.com/datasheets/WS2812B.pdf" H 3000 1325 50  0001 L TNN
	1    2900 1700
	1    0    0    -1  
$EndComp
$Comp
L LED:WS2812B D?
U 1 1 5D25DD7C
P 3600 1700
AR Path="/5D25DD7C" Ref="D?"  Part="1" 
AR Path="/5D21925A/5D25DD7C" Ref="D15"  Part="1" 
F 0 "D15" H 3941 1746 50  0000 L CNN
F 1 "WS2812B" H 3941 1655 50  0000 L CNN
F 2 "LED_SMD:LED_WS2812B_PLCC4_5.0x5.0mm_P3.2mm" H 3650 1400 50  0001 L TNN
F 3 "https://cdn-shop.adafruit.com/datasheets/WS2812B.pdf" H 3700 1325 50  0001 L TNN
	1    3600 1700
	1    0    0    -1  
$EndComp
$Comp
L LED:WS2812B D?
U 1 1 5D25DD83
P 4300 1700
AR Path="/5D25DD83" Ref="D?"  Part="1" 
AR Path="/5D21925A/5D25DD83" Ref="D16"  Part="1" 
F 0 "D16" H 4641 1746 50  0000 L CNN
F 1 "WS2812B" H 4641 1655 50  0000 L CNN
F 2 "LED_SMD:LED_WS2812B_PLCC4_5.0x5.0mm_P3.2mm" H 4350 1400 50  0001 L TNN
F 3 "https://cdn-shop.adafruit.com/datasheets/WS2812B.pdf" H 4400 1325 50  0001 L TNN
	1    4300 1700
	1    0    0    -1  
$EndComp
$Comp
L LED:WS2812B D?
U 1 1 5D25DD8A
P 5000 1700
AR Path="/5D25DD8A" Ref="D?"  Part="1" 
AR Path="/5D21925A/5D25DD8A" Ref="D17"  Part="1" 
F 0 "D17" H 5341 1746 50  0000 L CNN
F 1 "WS2812B" H 5341 1655 50  0000 L CNN
F 2 "LED_SMD:LED_WS2812B_PLCC4_5.0x5.0mm_P3.2mm" H 5050 1400 50  0001 L TNN
F 3 "https://cdn-shop.adafruit.com/datasheets/WS2812B.pdf" H 5100 1325 50  0001 L TNN
	1    5000 1700
	1    0    0    -1  
$EndComp
$Comp
L LED:WS2812B D?
U 1 1 5D25DD91
P 5700 1700
AR Path="/5D25DD91" Ref="D?"  Part="1" 
AR Path="/5D21925A/5D25DD91" Ref="D18"  Part="1" 
F 0 "D18" H 6041 1746 50  0000 L CNN
F 1 "WS2812B" H 6041 1655 50  0000 L CNN
F 2 "LED_SMD:LED_WS2812B_PLCC4_5.0x5.0mm_P3.2mm" H 5750 1400 50  0001 L TNN
F 3 "https://cdn-shop.adafruit.com/datasheets/WS2812B.pdf" H 5800 1325 50  0001 L TNN
	1    5700 1700
	1    0    0    -1  
$EndComp
$Comp
L LED:WS2812B D?
U 1 1 5D25DD98
P 6400 1700
AR Path="/5D25DD98" Ref="D?"  Part="1" 
AR Path="/5D21925A/5D25DD98" Ref="D19"  Part="1" 
F 0 "D19" H 6741 1746 50  0000 L CNN
F 1 "WS2812B" H 6741 1655 50  0000 L CNN
F 2 "LED_SMD:LED_WS2812B_PLCC4_5.0x5.0mm_P3.2mm" H 6450 1400 50  0001 L TNN
F 3 "https://cdn-shop.adafruit.com/datasheets/WS2812B.pdf" H 6500 1325 50  0001 L TNN
	1    6400 1700
	1    0    0    -1  
$EndComp
$Comp
L LED:WS2812B D?
U 1 1 5D25DD9F
P 7100 1700
AR Path="/5D25DD9F" Ref="D?"  Part="1" 
AR Path="/5D21925A/5D25DD9F" Ref="D20"  Part="1" 
F 0 "D20" H 7441 1746 50  0000 L CNN
F 1 "WS2812B" H 7441 1655 50  0000 L CNN
F 2 "LED_SMD:LED_WS2812B_PLCC4_5.0x5.0mm_P3.2mm" H 7150 1400 50  0001 L TNN
F 3 "https://cdn-shop.adafruit.com/datasheets/WS2812B.pdf" H 7200 1325 50  0001 L TNN
	1    7100 1700
	1    0    0    -1  
$EndComp
$Comp
L LED:WS2812B D?
U 1 1 5D25DDA6
P 7800 1700
AR Path="/5D25DDA6" Ref="D?"  Part="1" 
AR Path="/5D21925A/5D25DDA6" Ref="D21"  Part="1" 
F 0 "D21" H 8141 1746 50  0000 L CNN
F 1 "WS2812B" H 8141 1655 50  0000 L CNN
F 2 "LED_SMD:LED_WS2812B_PLCC4_5.0x5.0mm_P3.2mm" H 7850 1400 50  0001 L TNN
F 3 "https://cdn-shop.adafruit.com/datasheets/WS2812B.pdf" H 7900 1325 50  0001 L TNN
	1    7800 1700
	1    0    0    -1  
$EndComp
$Comp
L LED:WS2812B D?
U 1 1 5D25DDAD
P 8500 1700
AR Path="/5D25DDAD" Ref="D?"  Part="1" 
AR Path="/5D21925A/5D25DDAD" Ref="D22"  Part="1" 
F 0 "D22" H 8841 1746 50  0000 L CNN
F 1 "WS2812B" H 8841 1655 50  0000 L CNN
F 2 "LED_SMD:LED_WS2812B_PLCC4_5.0x5.0mm_P3.2mm" H 8550 1400 50  0001 L TNN
F 3 "https://cdn-shop.adafruit.com/datasheets/WS2812B.pdf" H 8600 1325 50  0001 L TNN
	1    8500 1700
	1    0    0    -1  
$EndComp
Wire Wire Line
	1500 2000 2200 2000
Wire Wire Line
	2200 2000 2900 2000
Connection ~ 2200 2000
Wire Wire Line
	2900 2000 3600 2000
Connection ~ 2900 2000
Wire Wire Line
	3600 2000 4300 2000
Connection ~ 3600 2000
Wire Wire Line
	4300 2000 5000 2000
Connection ~ 4300 2000
Wire Wire Line
	5000 2000 5700 2000
Connection ~ 5000 2000
Wire Wire Line
	5700 2000 6400 2000
Connection ~ 5700 2000
Wire Wire Line
	6400 2000 7100 2000
Connection ~ 6400 2000
Wire Wire Line
	7100 2000 7800 2000
Connection ~ 7100 2000
Wire Wire Line
	7800 2000 8500 2000
Connection ~ 7800 2000
$Comp
L power:GND #PWR?
U 1 1 5D25DDC7
P 9200 2000
AR Path="/5D25DDC7" Ref="#PWR?"  Part="1" 
AR Path="/5D21925A/5D25DDC7" Ref="#PWR017"  Part="1" 
F 0 "#PWR017" H 9200 1750 50  0001 C CNN
F 1 "GND" H 9205 1827 50  0000 C CNN
F 2 "" H 9200 2000 50  0001 C CNN
F 3 "" H 9200 2000 50  0001 C CNN
	1    9200 2000
	1    0    0    -1  
$EndComp
$Comp
L power:+5V #PWR?
U 1 1 5D25DDCD
P 1100 1400
AR Path="/5D25DDCD" Ref="#PWR?"  Part="1" 
AR Path="/5D21925A/5D25DDCD" Ref="#PWR016"  Part="1" 
F 0 "#PWR016" H 1100 1250 50  0001 C CNN
F 1 "+5V" H 1115 1573 50  0000 C CNN
F 2 "" H 1100 1400 50  0001 C CNN
F 3 "" H 1100 1400 50  0001 C CNN
	1    1100 1400
	1    0    0    -1  
$EndComp
Wire Wire Line
	8500 1400 7800 1400
Wire Wire Line
	7800 1400 7100 1400
Connection ~ 7800 1400
Wire Wire Line
	7100 1400 6400 1400
Connection ~ 7100 1400
Wire Wire Line
	6400 1400 5700 1400
Connection ~ 6400 1400
Wire Wire Line
	5700 1400 5000 1400
Connection ~ 5700 1400
Wire Wire Line
	5000 1400 4300 1400
Connection ~ 5000 1400
Wire Wire Line
	4300 1400 3600 1400
Connection ~ 4300 1400
Wire Wire Line
	3600 1400 2900 1400
Connection ~ 3600 1400
Wire Wire Line
	2900 1400 2200 1400
Connection ~ 2900 1400
Wire Wire Line
	2200 1400 1500 1400
Connection ~ 2200 1400
Wire Wire Line
	1500 1400 1100 1400
Connection ~ 1500 1400
Wire Wire Line
	1800 1700 1900 1700
Wire Wire Line
	2500 1700 2600 1700
Wire Wire Line
	3200 1700 3300 1700
Wire Wire Line
	3900 1700 4000 1700
Wire Wire Line
	4600 1700 4700 1700
Wire Wire Line
	5300 1700 5400 1700
Wire Wire Line
	6000 1700 6100 1700
Wire Wire Line
	6700 1700 6800 1700
Wire Wire Line
	7400 1700 7500 1700
Wire Wire Line
	8100 1700 8200 1700
Wire Wire Line
	8500 2000 9000 2000
Connection ~ 8500 2000
$Comp
L LED:WS2812B D?
U 1 1 5D25DDF4
P 1500 2400
AR Path="/5D25DDF4" Ref="D?"  Part="1" 
AR Path="/5D21925A/5D25DDF4" Ref="D23"  Part="1" 
F 0 "D23" H 1841 2446 50  0000 L CNN
F 1 "WS2812B" H 1841 2355 50  0000 L CNN
F 2 "LED_SMD:LED_WS2812B_PLCC4_5.0x5.0mm_P3.2mm" H 1550 2100 50  0001 L TNN
F 3 "https://cdn-shop.adafruit.com/datasheets/WS2812B.pdf" H 1600 2025 50  0001 L TNN
	1    1500 2400
	1    0    0    -1  
$EndComp
$Comp
L LED:WS2812B D?
U 1 1 5D25DDFB
P 2200 2400
AR Path="/5D25DDFB" Ref="D?"  Part="1" 
AR Path="/5D21925A/5D25DDFB" Ref="D24"  Part="1" 
F 0 "D24" H 2541 2446 50  0000 L CNN
F 1 "WS2812B" H 2541 2355 50  0000 L CNN
F 2 "LED_SMD:LED_WS2812B_PLCC4_5.0x5.0mm_P3.2mm" H 2250 2100 50  0001 L TNN
F 3 "https://cdn-shop.adafruit.com/datasheets/WS2812B.pdf" H 2300 2025 50  0001 L TNN
	1    2200 2400
	1    0    0    -1  
$EndComp
$Comp
L LED:WS2812B D?
U 1 1 5D25DE02
P 2900 2400
AR Path="/5D25DE02" Ref="D?"  Part="1" 
AR Path="/5D21925A/5D25DE02" Ref="D25"  Part="1" 
F 0 "D25" H 3241 2446 50  0000 L CNN
F 1 "WS2812B" H 3241 2355 50  0000 L CNN
F 2 "LED_SMD:LED_WS2812B_PLCC4_5.0x5.0mm_P3.2mm" H 2950 2100 50  0001 L TNN
F 3 "https://cdn-shop.adafruit.com/datasheets/WS2812B.pdf" H 3000 2025 50  0001 L TNN
	1    2900 2400
	1    0    0    -1  
$EndComp
$Comp
L LED:WS2812B D?
U 1 1 5D25DE09
P 3600 2400
AR Path="/5D25DE09" Ref="D?"  Part="1" 
AR Path="/5D21925A/5D25DE09" Ref="D26"  Part="1" 
F 0 "D26" H 3941 2446 50  0000 L CNN
F 1 "WS2812B" H 3941 2355 50  0000 L CNN
F 2 "LED_SMD:LED_WS2812B_PLCC4_5.0x5.0mm_P3.2mm" H 3650 2100 50  0001 L TNN
F 3 "https://cdn-shop.adafruit.com/datasheets/WS2812B.pdf" H 3700 2025 50  0001 L TNN
	1    3600 2400
	1    0    0    -1  
$EndComp
$Comp
L LED:WS2812B D?
U 1 1 5D25DE10
P 4300 2400
AR Path="/5D25DE10" Ref="D?"  Part="1" 
AR Path="/5D21925A/5D25DE10" Ref="D27"  Part="1" 
F 0 "D27" H 4641 2446 50  0000 L CNN
F 1 "WS2812B" H 4641 2355 50  0000 L CNN
F 2 "LED_SMD:LED_WS2812B_PLCC4_5.0x5.0mm_P3.2mm" H 4350 2100 50  0001 L TNN
F 3 "https://cdn-shop.adafruit.com/datasheets/WS2812B.pdf" H 4400 2025 50  0001 L TNN
	1    4300 2400
	1    0    0    -1  
$EndComp
$Comp
L LED:WS2812B D?
U 1 1 5D25DE17
P 5000 2400
AR Path="/5D25DE17" Ref="D?"  Part="1" 
AR Path="/5D21925A/5D25DE17" Ref="D28"  Part="1" 
F 0 "D28" H 5341 2446 50  0000 L CNN
F 1 "WS2812B" H 5341 2355 50  0000 L CNN
F 2 "LED_SMD:LED_WS2812B_PLCC4_5.0x5.0mm_P3.2mm" H 5050 2100 50  0001 L TNN
F 3 "https://cdn-shop.adafruit.com/datasheets/WS2812B.pdf" H 5100 2025 50  0001 L TNN
	1    5000 2400
	1    0    0    -1  
$EndComp
$Comp
L LED:WS2812B D?
U 1 1 5D25DE1E
P 5700 2400
AR Path="/5D25DE1E" Ref="D?"  Part="1" 
AR Path="/5D21925A/5D25DE1E" Ref="D29"  Part="1" 
F 0 "D29" H 6041 2446 50  0000 L CNN
F 1 "WS2812B" H 6041 2355 50  0000 L CNN
F 2 "LED_SMD:LED_WS2812B_PLCC4_5.0x5.0mm_P3.2mm" H 5750 2100 50  0001 L TNN
F 3 "https://cdn-shop.adafruit.com/datasheets/WS2812B.pdf" H 5800 2025 50  0001 L TNN
	1    5700 2400
	1    0    0    -1  
$EndComp
$Comp
L LED:WS2812B D?
U 1 1 5D25DE25
P 6400 2400
AR Path="/5D25DE25" Ref="D?"  Part="1" 
AR Path="/5D21925A/5D25DE25" Ref="D30"  Part="1" 
F 0 "D30" H 6741 2446 50  0000 L CNN
F 1 "WS2812B" H 6741 2355 50  0000 L CNN
F 2 "LED_SMD:LED_WS2812B_PLCC4_5.0x5.0mm_P3.2mm" H 6450 2100 50  0001 L TNN
F 3 "https://cdn-shop.adafruit.com/datasheets/WS2812B.pdf" H 6500 2025 50  0001 L TNN
	1    6400 2400
	1    0    0    -1  
$EndComp
$Comp
L LED:WS2812B D?
U 1 1 5D25DE2C
P 7100 2400
AR Path="/5D25DE2C" Ref="D?"  Part="1" 
AR Path="/5D21925A/5D25DE2C" Ref="D31"  Part="1" 
F 0 "D31" H 7441 2446 50  0000 L CNN
F 1 "WS2812B" H 7441 2355 50  0000 L CNN
F 2 "LED_SMD:LED_WS2812B_PLCC4_5.0x5.0mm_P3.2mm" H 7150 2100 50  0001 L TNN
F 3 "https://cdn-shop.adafruit.com/datasheets/WS2812B.pdf" H 7200 2025 50  0001 L TNN
	1    7100 2400
	1    0    0    -1  
$EndComp
$Comp
L LED:WS2812B D?
U 1 1 5D25DE33
P 7800 2400
AR Path="/5D25DE33" Ref="D?"  Part="1" 
AR Path="/5D21925A/5D25DE33" Ref="D32"  Part="1" 
F 0 "D32" H 8141 2446 50  0000 L CNN
F 1 "WS2812B" H 8141 2355 50  0000 L CNN
F 2 "LED_SMD:LED_WS2812B_PLCC4_5.0x5.0mm_P3.2mm" H 7850 2100 50  0001 L TNN
F 3 "https://cdn-shop.adafruit.com/datasheets/WS2812B.pdf" H 7900 2025 50  0001 L TNN
	1    7800 2400
	1    0    0    -1  
$EndComp
$Comp
L LED:WS2812B D?
U 1 1 5D25DE3A
P 8500 2400
AR Path="/5D25DE3A" Ref="D?"  Part="1" 
AR Path="/5D21925A/5D25DE3A" Ref="D33"  Part="1" 
F 0 "D33" H 8841 2446 50  0000 L CNN
F 1 "WS2812B" H 8841 2355 50  0000 L CNN
F 2 "LED_SMD:LED_WS2812B_PLCC4_5.0x5.0mm_P3.2mm" H 8550 2100 50  0001 L TNN
F 3 "https://cdn-shop.adafruit.com/datasheets/WS2812B.pdf" H 8600 2025 50  0001 L TNN
	1    8500 2400
	1    0    0    -1  
$EndComp
Wire Wire Line
	1500 2700 2200 2700
Wire Wire Line
	2200 2700 2900 2700
Connection ~ 2200 2700
Wire Wire Line
	2900 2700 3600 2700
Connection ~ 2900 2700
Wire Wire Line
	3600 2700 4300 2700
Connection ~ 3600 2700
Wire Wire Line
	4300 2700 5000 2700
Connection ~ 4300 2700
Wire Wire Line
	5000 2700 5700 2700
Connection ~ 5000 2700
Wire Wire Line
	5700 2700 6400 2700
Connection ~ 5700 2700
Wire Wire Line
	6400 2700 7100 2700
Connection ~ 6400 2700
Wire Wire Line
	7100 2700 7800 2700
Connection ~ 7100 2700
Wire Wire Line
	7800 2700 8500 2700
Connection ~ 7800 2700
$Comp
L power:GND #PWR?
U 1 1 5D25DE54
P 9200 2700
AR Path="/5D25DE54" Ref="#PWR?"  Part="1" 
AR Path="/5D21925A/5D25DE54" Ref="#PWR019"  Part="1" 
F 0 "#PWR019" H 9200 2450 50  0001 C CNN
F 1 "GND" H 9205 2527 50  0000 C CNN
F 2 "" H 9200 2700 50  0001 C CNN
F 3 "" H 9200 2700 50  0001 C CNN
	1    9200 2700
	1    0    0    -1  
$EndComp
$Comp
L power:+5V #PWR?
U 1 1 5D25DE5A
P 1100 2100
AR Path="/5D25DE5A" Ref="#PWR?"  Part="1" 
AR Path="/5D21925A/5D25DE5A" Ref="#PWR018"  Part="1" 
F 0 "#PWR018" H 1100 1950 50  0001 C CNN
F 1 "+5V" H 1115 2273 50  0000 C CNN
F 2 "" H 1100 2100 50  0001 C CNN
F 3 "" H 1100 2100 50  0001 C CNN
	1    1100 2100
	1    0    0    -1  
$EndComp
Wire Wire Line
	8500 2100 7800 2100
Wire Wire Line
	7800 2100 7100 2100
Connection ~ 7800 2100
Wire Wire Line
	7100 2100 6400 2100
Connection ~ 7100 2100
Wire Wire Line
	6400 2100 5700 2100
Connection ~ 6400 2100
Wire Wire Line
	5700 2100 5000 2100
Connection ~ 5700 2100
Wire Wire Line
	5000 2100 4300 2100
Connection ~ 5000 2100
Wire Wire Line
	4300 2100 3600 2100
Connection ~ 4300 2100
Wire Wire Line
	3600 2100 2900 2100
Connection ~ 3600 2100
Wire Wire Line
	2900 2100 2200 2100
Connection ~ 2900 2100
Wire Wire Line
	2200 2100 1500 2100
Connection ~ 2200 2100
Wire Wire Line
	1500 2100 1100 2100
Connection ~ 1500 2100
Wire Wire Line
	1800 2400 1900 2400
Wire Wire Line
	2500 2400 2600 2400
Wire Wire Line
	3200 2400 3300 2400
Wire Wire Line
	3900 2400 4000 2400
Wire Wire Line
	4600 2400 4700 2400
Wire Wire Line
	5300 2400 5400 2400
Wire Wire Line
	6000 2400 6100 2400
Wire Wire Line
	6700 2400 6800 2400
Wire Wire Line
	7400 2400 7500 2400
Wire Wire Line
	8100 2400 8200 2400
Wire Wire Line
	8500 2700 9000 2700
Connection ~ 8500 2700
$Comp
L LED:WS2812B D?
U 1 1 5D25DE81
P 1500 3100
AR Path="/5D25DE81" Ref="D?"  Part="1" 
AR Path="/5D21925A/5D25DE81" Ref="D34"  Part="1" 
F 0 "D34" H 1841 3146 50  0000 L CNN
F 1 "WS2812B" H 1841 3055 50  0000 L CNN
F 2 "LED_SMD:LED_WS2812B_PLCC4_5.0x5.0mm_P3.2mm" H 1550 2800 50  0001 L TNN
F 3 "https://cdn-shop.adafruit.com/datasheets/WS2812B.pdf" H 1600 2725 50  0001 L TNN
	1    1500 3100
	1    0    0    -1  
$EndComp
$Comp
L LED:WS2812B D?
U 1 1 5D25DE88
P 2200 3100
AR Path="/5D25DE88" Ref="D?"  Part="1" 
AR Path="/5D21925A/5D25DE88" Ref="D35"  Part="1" 
F 0 "D35" H 2541 3146 50  0000 L CNN
F 1 "WS2812B" H 2541 3055 50  0000 L CNN
F 2 "LED_SMD:LED_WS2812B_PLCC4_5.0x5.0mm_P3.2mm" H 2250 2800 50  0001 L TNN
F 3 "https://cdn-shop.adafruit.com/datasheets/WS2812B.pdf" H 2300 2725 50  0001 L TNN
	1    2200 3100
	1    0    0    -1  
$EndComp
$Comp
L LED:WS2812B D?
U 1 1 5D25DE8F
P 2900 3100
AR Path="/5D25DE8F" Ref="D?"  Part="1" 
AR Path="/5D21925A/5D25DE8F" Ref="D36"  Part="1" 
F 0 "D36" H 3241 3146 50  0000 L CNN
F 1 "WS2812B" H 3241 3055 50  0000 L CNN
F 2 "LED_SMD:LED_WS2812B_PLCC4_5.0x5.0mm_P3.2mm" H 2950 2800 50  0001 L TNN
F 3 "https://cdn-shop.adafruit.com/datasheets/WS2812B.pdf" H 3000 2725 50  0001 L TNN
	1    2900 3100
	1    0    0    -1  
$EndComp
$Comp
L LED:WS2812B D?
U 1 1 5D25DE96
P 3600 3100
AR Path="/5D25DE96" Ref="D?"  Part="1" 
AR Path="/5D21925A/5D25DE96" Ref="D37"  Part="1" 
F 0 "D37" H 3941 3146 50  0000 L CNN
F 1 "WS2812B" H 3941 3055 50  0000 L CNN
F 2 "LED_SMD:LED_WS2812B_PLCC4_5.0x5.0mm_P3.2mm" H 3650 2800 50  0001 L TNN
F 3 "https://cdn-shop.adafruit.com/datasheets/WS2812B.pdf" H 3700 2725 50  0001 L TNN
	1    3600 3100
	1    0    0    -1  
$EndComp
$Comp
L LED:WS2812B D?
U 1 1 5D25DE9D
P 4300 3100
AR Path="/5D25DE9D" Ref="D?"  Part="1" 
AR Path="/5D21925A/5D25DE9D" Ref="D38"  Part="1" 
F 0 "D38" H 4641 3146 50  0000 L CNN
F 1 "WS2812B" H 4641 3055 50  0000 L CNN
F 2 "LED_SMD:LED_WS2812B_PLCC4_5.0x5.0mm_P3.2mm" H 4350 2800 50  0001 L TNN
F 3 "https://cdn-shop.adafruit.com/datasheets/WS2812B.pdf" H 4400 2725 50  0001 L TNN
	1    4300 3100
	1    0    0    -1  
$EndComp
$Comp
L LED:WS2812B D?
U 1 1 5D25DEA4
P 5000 3100
AR Path="/5D25DEA4" Ref="D?"  Part="1" 
AR Path="/5D21925A/5D25DEA4" Ref="D39"  Part="1" 
F 0 "D39" H 5341 3146 50  0000 L CNN
F 1 "WS2812B" H 5341 3055 50  0000 L CNN
F 2 "LED_SMD:LED_WS2812B_PLCC4_5.0x5.0mm_P3.2mm" H 5050 2800 50  0001 L TNN
F 3 "https://cdn-shop.adafruit.com/datasheets/WS2812B.pdf" H 5100 2725 50  0001 L TNN
	1    5000 3100
	1    0    0    -1  
$EndComp
$Comp
L LED:WS2812B D?
U 1 1 5D25DEAB
P 5700 3100
AR Path="/5D25DEAB" Ref="D?"  Part="1" 
AR Path="/5D21925A/5D25DEAB" Ref="D40"  Part="1" 
F 0 "D40" H 6041 3146 50  0000 L CNN
F 1 "WS2812B" H 6041 3055 50  0000 L CNN
F 2 "LED_SMD:LED_WS2812B_PLCC4_5.0x5.0mm_P3.2mm" H 5750 2800 50  0001 L TNN
F 3 "https://cdn-shop.adafruit.com/datasheets/WS2812B.pdf" H 5800 2725 50  0001 L TNN
	1    5700 3100
	1    0    0    -1  
$EndComp
$Comp
L LED:WS2812B D?
U 1 1 5D25DEB2
P 6400 3100
AR Path="/5D25DEB2" Ref="D?"  Part="1" 
AR Path="/5D21925A/5D25DEB2" Ref="D41"  Part="1" 
F 0 "D41" H 6741 3146 50  0000 L CNN
F 1 "WS2812B" H 6741 3055 50  0000 L CNN
F 2 "LED_SMD:LED_WS2812B_PLCC4_5.0x5.0mm_P3.2mm" H 6450 2800 50  0001 L TNN
F 3 "https://cdn-shop.adafruit.com/datasheets/WS2812B.pdf" H 6500 2725 50  0001 L TNN
	1    6400 3100
	1    0    0    -1  
$EndComp
$Comp
L LED:WS2812B D?
U 1 1 5D25DEB9
P 7100 3100
AR Path="/5D25DEB9" Ref="D?"  Part="1" 
AR Path="/5D21925A/5D25DEB9" Ref="D42"  Part="1" 
F 0 "D42" H 7441 3146 50  0000 L CNN
F 1 "WS2812B" H 7441 3055 50  0000 L CNN
F 2 "LED_SMD:LED_WS2812B_PLCC4_5.0x5.0mm_P3.2mm" H 7150 2800 50  0001 L TNN
F 3 "https://cdn-shop.adafruit.com/datasheets/WS2812B.pdf" H 7200 2725 50  0001 L TNN
	1    7100 3100
	1    0    0    -1  
$EndComp
$Comp
L LED:WS2812B D?
U 1 1 5D25DEC0
P 7800 3100
AR Path="/5D25DEC0" Ref="D?"  Part="1" 
AR Path="/5D21925A/5D25DEC0" Ref="D43"  Part="1" 
F 0 "D43" H 8141 3146 50  0000 L CNN
F 1 "WS2812B" H 8141 3055 50  0000 L CNN
F 2 "LED_SMD:LED_WS2812B_PLCC4_5.0x5.0mm_P3.2mm" H 7850 2800 50  0001 L TNN
F 3 "https://cdn-shop.adafruit.com/datasheets/WS2812B.pdf" H 7900 2725 50  0001 L TNN
	1    7800 3100
	1    0    0    -1  
$EndComp
$Comp
L LED:WS2812B D?
U 1 1 5D25DEC7
P 8500 3100
AR Path="/5D25DEC7" Ref="D?"  Part="1" 
AR Path="/5D21925A/5D25DEC7" Ref="D44"  Part="1" 
F 0 "D44" H 8841 3146 50  0000 L CNN
F 1 "WS2812B" H 8841 3055 50  0000 L CNN
F 2 "LED_SMD:LED_WS2812B_PLCC4_5.0x5.0mm_P3.2mm" H 8550 2800 50  0001 L TNN
F 3 "https://cdn-shop.adafruit.com/datasheets/WS2812B.pdf" H 8600 2725 50  0001 L TNN
	1    8500 3100
	1    0    0    -1  
$EndComp
Wire Wire Line
	1500 3400 2200 3400
Wire Wire Line
	2200 3400 2900 3400
Connection ~ 2200 3400
Wire Wire Line
	2900 3400 3600 3400
Connection ~ 2900 3400
Wire Wire Line
	3600 3400 4300 3400
Connection ~ 3600 3400
Wire Wire Line
	4300 3400 5000 3400
Connection ~ 4300 3400
Wire Wire Line
	5000 3400 5700 3400
Connection ~ 5000 3400
Wire Wire Line
	5700 3400 6400 3400
Connection ~ 5700 3400
Wire Wire Line
	6400 3400 7100 3400
Connection ~ 6400 3400
Wire Wire Line
	7100 3400 7800 3400
Connection ~ 7100 3400
Wire Wire Line
	7800 3400 8500 3400
Connection ~ 7800 3400
$Comp
L power:GND #PWR?
U 1 1 5D25DEE1
P 9200 3400
AR Path="/5D25DEE1" Ref="#PWR?"  Part="1" 
AR Path="/5D21925A/5D25DEE1" Ref="#PWR021"  Part="1" 
F 0 "#PWR021" H 9200 3150 50  0001 C CNN
F 1 "GND" H 9205 3227 50  0000 C CNN
F 2 "" H 9200 3400 50  0001 C CNN
F 3 "" H 9200 3400 50  0001 C CNN
	1    9200 3400
	1    0    0    -1  
$EndComp
$Comp
L power:+5V #PWR?
U 1 1 5D25DEE7
P 1100 2800
AR Path="/5D25DEE7" Ref="#PWR?"  Part="1" 
AR Path="/5D21925A/5D25DEE7" Ref="#PWR020"  Part="1" 
F 0 "#PWR020" H 1100 2650 50  0001 C CNN
F 1 "+5V" H 1115 2973 50  0000 C CNN
F 2 "" H 1100 2800 50  0001 C CNN
F 3 "" H 1100 2800 50  0001 C CNN
	1    1100 2800
	1    0    0    -1  
$EndComp
Wire Wire Line
	8500 2800 7800 2800
Wire Wire Line
	7800 2800 7100 2800
Connection ~ 7800 2800
Wire Wire Line
	7100 2800 6400 2800
Connection ~ 7100 2800
Wire Wire Line
	6400 2800 5700 2800
Connection ~ 6400 2800
Wire Wire Line
	5700 2800 5000 2800
Connection ~ 5700 2800
Wire Wire Line
	5000 2800 4300 2800
Connection ~ 5000 2800
Wire Wire Line
	4300 2800 3600 2800
Connection ~ 4300 2800
Wire Wire Line
	3600 2800 2900 2800
Connection ~ 3600 2800
Wire Wire Line
	2900 2800 2200 2800
Connection ~ 2900 2800
Wire Wire Line
	2200 2800 1500 2800
Connection ~ 2200 2800
Wire Wire Line
	1500 2800 1100 2800
Connection ~ 1500 2800
Wire Wire Line
	1800 3100 1900 3100
Wire Wire Line
	2500 3100 2600 3100
Wire Wire Line
	3200 3100 3300 3100
Wire Wire Line
	3900 3100 4000 3100
Wire Wire Line
	4600 3100 4700 3100
Wire Wire Line
	5300 3100 5400 3100
Wire Wire Line
	6000 3100 6100 3100
Wire Wire Line
	6700 3100 6800 3100
Wire Wire Line
	7400 3100 7500 3100
Wire Wire Line
	8100 3100 8200 3100
Wire Wire Line
	8500 3400 9000 3400
Connection ~ 8500 3400
$Comp
L LED:WS2812B D?
U 1 1 5D25DF0E
P 1500 3800
AR Path="/5D25DF0E" Ref="D?"  Part="1" 
AR Path="/5D21925A/5D25DF0E" Ref="D45"  Part="1" 
F 0 "D45" H 1841 3846 50  0000 L CNN
F 1 "WS2812B" H 1841 3755 50  0000 L CNN
F 2 "LED_SMD:LED_WS2812B_PLCC4_5.0x5.0mm_P3.2mm" H 1550 3500 50  0001 L TNN
F 3 "https://cdn-shop.adafruit.com/datasheets/WS2812B.pdf" H 1600 3425 50  0001 L TNN
	1    1500 3800
	1    0    0    -1  
$EndComp
$Comp
L LED:WS2812B D?
U 1 1 5D25DF15
P 2200 3800
AR Path="/5D25DF15" Ref="D?"  Part="1" 
AR Path="/5D21925A/5D25DF15" Ref="D46"  Part="1" 
F 0 "D46" H 2541 3846 50  0000 L CNN
F 1 "WS2812B" H 2541 3755 50  0000 L CNN
F 2 "LED_SMD:LED_WS2812B_PLCC4_5.0x5.0mm_P3.2mm" H 2250 3500 50  0001 L TNN
F 3 "https://cdn-shop.adafruit.com/datasheets/WS2812B.pdf" H 2300 3425 50  0001 L TNN
	1    2200 3800
	1    0    0    -1  
$EndComp
$Comp
L LED:WS2812B D?
U 1 1 5D25DF1C
P 2900 3800
AR Path="/5D25DF1C" Ref="D?"  Part="1" 
AR Path="/5D21925A/5D25DF1C" Ref="D47"  Part="1" 
F 0 "D47" H 3241 3846 50  0000 L CNN
F 1 "WS2812B" H 3241 3755 50  0000 L CNN
F 2 "LED_SMD:LED_WS2812B_PLCC4_5.0x5.0mm_P3.2mm" H 2950 3500 50  0001 L TNN
F 3 "https://cdn-shop.adafruit.com/datasheets/WS2812B.pdf" H 3000 3425 50  0001 L TNN
	1    2900 3800
	1    0    0    -1  
$EndComp
$Comp
L LED:WS2812B D?
U 1 1 5D25DF23
P 3600 3800
AR Path="/5D25DF23" Ref="D?"  Part="1" 
AR Path="/5D21925A/5D25DF23" Ref="D48"  Part="1" 
F 0 "D48" H 3941 3846 50  0000 L CNN
F 1 "WS2812B" H 3941 3755 50  0000 L CNN
F 2 "LED_SMD:LED_WS2812B_PLCC4_5.0x5.0mm_P3.2mm" H 3650 3500 50  0001 L TNN
F 3 "https://cdn-shop.adafruit.com/datasheets/WS2812B.pdf" H 3700 3425 50  0001 L TNN
	1    3600 3800
	1    0    0    -1  
$EndComp
$Comp
L LED:WS2812B D?
U 1 1 5D25DF2A
P 4300 3800
AR Path="/5D25DF2A" Ref="D?"  Part="1" 
AR Path="/5D21925A/5D25DF2A" Ref="D49"  Part="1" 
F 0 "D49" H 4641 3846 50  0000 L CNN
F 1 "WS2812B" H 4641 3755 50  0000 L CNN
F 2 "LED_SMD:LED_WS2812B_PLCC4_5.0x5.0mm_P3.2mm" H 4350 3500 50  0001 L TNN
F 3 "https://cdn-shop.adafruit.com/datasheets/WS2812B.pdf" H 4400 3425 50  0001 L TNN
	1    4300 3800
	1    0    0    -1  
$EndComp
$Comp
L LED:WS2812B D?
U 1 1 5D25DF31
P 5000 3800
AR Path="/5D25DF31" Ref="D?"  Part="1" 
AR Path="/5D21925A/5D25DF31" Ref="D50"  Part="1" 
F 0 "D50" H 5341 3846 50  0000 L CNN
F 1 "WS2812B" H 5341 3755 50  0000 L CNN
F 2 "LED_SMD:LED_WS2812B_PLCC4_5.0x5.0mm_P3.2mm" H 5050 3500 50  0001 L TNN
F 3 "https://cdn-shop.adafruit.com/datasheets/WS2812B.pdf" H 5100 3425 50  0001 L TNN
	1    5000 3800
	1    0    0    -1  
$EndComp
$Comp
L LED:WS2812B D?
U 1 1 5D25DF38
P 5700 3800
AR Path="/5D25DF38" Ref="D?"  Part="1" 
AR Path="/5D21925A/5D25DF38" Ref="D51"  Part="1" 
F 0 "D51" H 6041 3846 50  0000 L CNN
F 1 "WS2812B" H 6041 3755 50  0000 L CNN
F 2 "LED_SMD:LED_WS2812B_PLCC4_5.0x5.0mm_P3.2mm" H 5750 3500 50  0001 L TNN
F 3 "https://cdn-shop.adafruit.com/datasheets/WS2812B.pdf" H 5800 3425 50  0001 L TNN
	1    5700 3800
	1    0    0    -1  
$EndComp
$Comp
L LED:WS2812B D?
U 1 1 5D25DF3F
P 6400 3800
AR Path="/5D25DF3F" Ref="D?"  Part="1" 
AR Path="/5D21925A/5D25DF3F" Ref="D52"  Part="1" 
F 0 "D52" H 6741 3846 50  0000 L CNN
F 1 "WS2812B" H 6741 3755 50  0000 L CNN
F 2 "LED_SMD:LED_WS2812B_PLCC4_5.0x5.0mm_P3.2mm" H 6450 3500 50  0001 L TNN
F 3 "https://cdn-shop.adafruit.com/datasheets/WS2812B.pdf" H 6500 3425 50  0001 L TNN
	1    6400 3800
	1    0    0    -1  
$EndComp
$Comp
L LED:WS2812B D?
U 1 1 5D25DF46
P 7100 3800
AR Path="/5D25DF46" Ref="D?"  Part="1" 
AR Path="/5D21925A/5D25DF46" Ref="D53"  Part="1" 
F 0 "D53" H 7441 3846 50  0000 L CNN
F 1 "WS2812B" H 7441 3755 50  0000 L CNN
F 2 "LED_SMD:LED_WS2812B_PLCC4_5.0x5.0mm_P3.2mm" H 7150 3500 50  0001 L TNN
F 3 "https://cdn-shop.adafruit.com/datasheets/WS2812B.pdf" H 7200 3425 50  0001 L TNN
	1    7100 3800
	1    0    0    -1  
$EndComp
$Comp
L LED:WS2812B D?
U 1 1 5D25DF4D
P 7800 3800
AR Path="/5D25DF4D" Ref="D?"  Part="1" 
AR Path="/5D21925A/5D25DF4D" Ref="D54"  Part="1" 
F 0 "D54" H 8141 3846 50  0000 L CNN
F 1 "WS2812B" H 8141 3755 50  0000 L CNN
F 2 "LED_SMD:LED_WS2812B_PLCC4_5.0x5.0mm_P3.2mm" H 7850 3500 50  0001 L TNN
F 3 "https://cdn-shop.adafruit.com/datasheets/WS2812B.pdf" H 7900 3425 50  0001 L TNN
	1    7800 3800
	1    0    0    -1  
$EndComp
$Comp
L LED:WS2812B D?
U 1 1 5D25DF54
P 8500 3800
AR Path="/5D25DF54" Ref="D?"  Part="1" 
AR Path="/5D21925A/5D25DF54" Ref="D55"  Part="1" 
F 0 "D55" H 8841 3846 50  0000 L CNN
F 1 "WS2812B" H 8841 3755 50  0000 L CNN
F 2 "LED_SMD:LED_WS2812B_PLCC4_5.0x5.0mm_P3.2mm" H 8550 3500 50  0001 L TNN
F 3 "https://cdn-shop.adafruit.com/datasheets/WS2812B.pdf" H 8600 3425 50  0001 L TNN
	1    8500 3800
	1    0    0    -1  
$EndComp
Wire Wire Line
	1500 4100 2200 4100
Wire Wire Line
	2200 4100 2900 4100
Connection ~ 2200 4100
Wire Wire Line
	2900 4100 3600 4100
Connection ~ 2900 4100
Wire Wire Line
	3600 4100 4300 4100
Connection ~ 3600 4100
Wire Wire Line
	4300 4100 5000 4100
Connection ~ 4300 4100
Wire Wire Line
	5000 4100 5700 4100
Connection ~ 5000 4100
Wire Wire Line
	5700 4100 6400 4100
Connection ~ 5700 4100
Wire Wire Line
	6400 4100 7100 4100
Connection ~ 6400 4100
Wire Wire Line
	7100 4100 7800 4100
Connection ~ 7100 4100
Wire Wire Line
	7800 4100 8500 4100
Connection ~ 7800 4100
$Comp
L power:GND #PWR?
U 1 1 5D25DF6E
P 9200 4100
AR Path="/5D25DF6E" Ref="#PWR?"  Part="1" 
AR Path="/5D21925A/5D25DF6E" Ref="#PWR023"  Part="1" 
F 0 "#PWR023" H 9200 3850 50  0001 C CNN
F 1 "GND" H 9205 3927 50  0000 C CNN
F 2 "" H 9200 4100 50  0001 C CNN
F 3 "" H 9200 4100 50  0001 C CNN
	1    9200 4100
	1    0    0    -1  
$EndComp
$Comp
L power:+5V #PWR?
U 1 1 5D25DF74
P 1100 3500
AR Path="/5D25DF74" Ref="#PWR?"  Part="1" 
AR Path="/5D21925A/5D25DF74" Ref="#PWR022"  Part="1" 
F 0 "#PWR022" H 1100 3350 50  0001 C CNN
F 1 "+5V" H 1115 3673 50  0000 C CNN
F 2 "" H 1100 3500 50  0001 C CNN
F 3 "" H 1100 3500 50  0001 C CNN
	1    1100 3500
	1    0    0    -1  
$EndComp
Wire Wire Line
	8500 3500 7800 3500
Wire Wire Line
	7800 3500 7100 3500
Connection ~ 7800 3500
Wire Wire Line
	7100 3500 6400 3500
Connection ~ 7100 3500
Wire Wire Line
	6400 3500 5700 3500
Connection ~ 6400 3500
Wire Wire Line
	5700 3500 5000 3500
Connection ~ 5700 3500
Wire Wire Line
	5000 3500 4300 3500
Connection ~ 5000 3500
Wire Wire Line
	4300 3500 3600 3500
Connection ~ 4300 3500
Wire Wire Line
	3600 3500 2900 3500
Connection ~ 3600 3500
Wire Wire Line
	2900 3500 2200 3500
Connection ~ 2900 3500
Wire Wire Line
	2200 3500 1500 3500
Connection ~ 2200 3500
Wire Wire Line
	1500 3500 1100 3500
Connection ~ 1500 3500
Wire Wire Line
	1800 3800 1900 3800
Wire Wire Line
	2500 3800 2600 3800
Wire Wire Line
	3200 3800 3300 3800
Wire Wire Line
	3900 3800 4000 3800
Wire Wire Line
	4600 3800 4700 3800
Wire Wire Line
	5300 3800 5400 3800
Wire Wire Line
	6000 3800 6100 3800
Wire Wire Line
	6700 3800 6800 3800
Wire Wire Line
	7400 3800 7500 3800
Wire Wire Line
	8100 3800 8200 3800
Wire Wire Line
	8500 4100 9000 4100
Connection ~ 8500 4100
$Comp
L LED:WS2812B D?
U 1 1 5D25DF9B
P 1500 4500
AR Path="/5D25DF9B" Ref="D?"  Part="1" 
AR Path="/5D21925A/5D25DF9B" Ref="D56"  Part="1" 
F 0 "D56" H 1841 4546 50  0000 L CNN
F 1 "WS2812B" H 1841 4455 50  0000 L CNN
F 2 "LED_SMD:LED_WS2812B_PLCC4_5.0x5.0mm_P3.2mm" H 1550 4200 50  0001 L TNN
F 3 "https://cdn-shop.adafruit.com/datasheets/WS2812B.pdf" H 1600 4125 50  0001 L TNN
	1    1500 4500
	1    0    0    -1  
$EndComp
$Comp
L LED:WS2812B D?
U 1 1 5D25DFA2
P 2200 4500
AR Path="/5D25DFA2" Ref="D?"  Part="1" 
AR Path="/5D21925A/5D25DFA2" Ref="D57"  Part="1" 
F 0 "D57" H 2541 4546 50  0000 L CNN
F 1 "WS2812B" H 2541 4455 50  0000 L CNN
F 2 "LED_SMD:LED_WS2812B_PLCC4_5.0x5.0mm_P3.2mm" H 2250 4200 50  0001 L TNN
F 3 "https://cdn-shop.adafruit.com/datasheets/WS2812B.pdf" H 2300 4125 50  0001 L TNN
	1    2200 4500
	1    0    0    -1  
$EndComp
$Comp
L LED:WS2812B D?
U 1 1 5D25DFA9
P 2900 4500
AR Path="/5D25DFA9" Ref="D?"  Part="1" 
AR Path="/5D21925A/5D25DFA9" Ref="D58"  Part="1" 
F 0 "D58" H 3241 4546 50  0000 L CNN
F 1 "WS2812B" H 3241 4455 50  0000 L CNN
F 2 "LED_SMD:LED_WS2812B_PLCC4_5.0x5.0mm_P3.2mm" H 2950 4200 50  0001 L TNN
F 3 "https://cdn-shop.adafruit.com/datasheets/WS2812B.pdf" H 3000 4125 50  0001 L TNN
	1    2900 4500
	1    0    0    -1  
$EndComp
$Comp
L LED:WS2812B D?
U 1 1 5D25DFB0
P 3600 4500
AR Path="/5D25DFB0" Ref="D?"  Part="1" 
AR Path="/5D21925A/5D25DFB0" Ref="D59"  Part="1" 
F 0 "D59" H 3941 4546 50  0000 L CNN
F 1 "WS2812B" H 3941 4455 50  0000 L CNN
F 2 "LED_SMD:LED_WS2812B_PLCC4_5.0x5.0mm_P3.2mm" H 3650 4200 50  0001 L TNN
F 3 "https://cdn-shop.adafruit.com/datasheets/WS2812B.pdf" H 3700 4125 50  0001 L TNN
	1    3600 4500
	1    0    0    -1  
$EndComp
$Comp
L LED:WS2812B D?
U 1 1 5D25DFB7
P 4300 4500
AR Path="/5D25DFB7" Ref="D?"  Part="1" 
AR Path="/5D21925A/5D25DFB7" Ref="D60"  Part="1" 
F 0 "D60" H 4641 4546 50  0000 L CNN
F 1 "WS2812B" H 4641 4455 50  0000 L CNN
F 2 "LED_SMD:LED_WS2812B_PLCC4_5.0x5.0mm_P3.2mm" H 4350 4200 50  0001 L TNN
F 3 "https://cdn-shop.adafruit.com/datasheets/WS2812B.pdf" H 4400 4125 50  0001 L TNN
	1    4300 4500
	1    0    0    -1  
$EndComp
$Comp
L LED:WS2812B D?
U 1 1 5D25DFBE
P 5000 4500
AR Path="/5D25DFBE" Ref="D?"  Part="1" 
AR Path="/5D21925A/5D25DFBE" Ref="D61"  Part="1" 
F 0 "D61" H 5341 4546 50  0000 L CNN
F 1 "WS2812B" H 5341 4455 50  0000 L CNN
F 2 "LED_SMD:LED_WS2812B_PLCC4_5.0x5.0mm_P3.2mm" H 5050 4200 50  0001 L TNN
F 3 "https://cdn-shop.adafruit.com/datasheets/WS2812B.pdf" H 5100 4125 50  0001 L TNN
	1    5000 4500
	1    0    0    -1  
$EndComp
$Comp
L LED:WS2812B D?
U 1 1 5D25DFC5
P 5700 4500
AR Path="/5D25DFC5" Ref="D?"  Part="1" 
AR Path="/5D21925A/5D25DFC5" Ref="D62"  Part="1" 
F 0 "D62" H 6041 4546 50  0000 L CNN
F 1 "WS2812B" H 6041 4455 50  0000 L CNN
F 2 "LED_SMD:LED_WS2812B_PLCC4_5.0x5.0mm_P3.2mm" H 5750 4200 50  0001 L TNN
F 3 "https://cdn-shop.adafruit.com/datasheets/WS2812B.pdf" H 5800 4125 50  0001 L TNN
	1    5700 4500
	1    0    0    -1  
$EndComp
$Comp
L LED:WS2812B D?
U 1 1 5D25DFCC
P 6400 4500
AR Path="/5D25DFCC" Ref="D?"  Part="1" 
AR Path="/5D21925A/5D25DFCC" Ref="D63"  Part="1" 
F 0 "D63" H 6741 4546 50  0000 L CNN
F 1 "WS2812B" H 6741 4455 50  0000 L CNN
F 2 "LED_SMD:LED_WS2812B_PLCC4_5.0x5.0mm_P3.2mm" H 6450 4200 50  0001 L TNN
F 3 "https://cdn-shop.adafruit.com/datasheets/WS2812B.pdf" H 6500 4125 50  0001 L TNN
	1    6400 4500
	1    0    0    -1  
$EndComp
$Comp
L LED:WS2812B D?
U 1 1 5D25DFD3
P 7100 4500
AR Path="/5D25DFD3" Ref="D?"  Part="1" 
AR Path="/5D21925A/5D25DFD3" Ref="D64"  Part="1" 
F 0 "D64" H 7441 4546 50  0000 L CNN
F 1 "WS2812B" H 7441 4455 50  0000 L CNN
F 2 "LED_SMD:LED_WS2812B_PLCC4_5.0x5.0mm_P3.2mm" H 7150 4200 50  0001 L TNN
F 3 "https://cdn-shop.adafruit.com/datasheets/WS2812B.pdf" H 7200 4125 50  0001 L TNN
	1    7100 4500
	1    0    0    -1  
$EndComp
$Comp
L LED:WS2812B D?
U 1 1 5D25DFDA
P 7800 4500
AR Path="/5D25DFDA" Ref="D?"  Part="1" 
AR Path="/5D21925A/5D25DFDA" Ref="D65"  Part="1" 
F 0 "D65" H 8141 4546 50  0000 L CNN
F 1 "WS2812B" H 8141 4455 50  0000 L CNN
F 2 "LED_SMD:LED_WS2812B_PLCC4_5.0x5.0mm_P3.2mm" H 7850 4200 50  0001 L TNN
F 3 "https://cdn-shop.adafruit.com/datasheets/WS2812B.pdf" H 7900 4125 50  0001 L TNN
	1    7800 4500
	1    0    0    -1  
$EndComp
$Comp
L LED:WS2812B D?
U 1 1 5D25DFE1
P 8500 4500
AR Path="/5D25DFE1" Ref="D?"  Part="1" 
AR Path="/5D21925A/5D25DFE1" Ref="D66"  Part="1" 
F 0 "D66" H 8841 4546 50  0000 L CNN
F 1 "WS2812B" H 8841 4455 50  0000 L CNN
F 2 "LED_SMD:LED_WS2812B_PLCC4_5.0x5.0mm_P3.2mm" H 8550 4200 50  0001 L TNN
F 3 "https://cdn-shop.adafruit.com/datasheets/WS2812B.pdf" H 8600 4125 50  0001 L TNN
	1    8500 4500
	1    0    0    -1  
$EndComp
Wire Wire Line
	1500 4800 2200 4800
Wire Wire Line
	2200 4800 2900 4800
Connection ~ 2200 4800
Wire Wire Line
	2900 4800 3600 4800
Connection ~ 2900 4800
Wire Wire Line
	3600 4800 4300 4800
Connection ~ 3600 4800
Wire Wire Line
	4300 4800 5000 4800
Connection ~ 4300 4800
Wire Wire Line
	5000 4800 5700 4800
Connection ~ 5000 4800
Wire Wire Line
	5700 4800 6400 4800
Connection ~ 5700 4800
Wire Wire Line
	6400 4800 7100 4800
Connection ~ 6400 4800
Wire Wire Line
	7100 4800 7800 4800
Connection ~ 7100 4800
Wire Wire Line
	7800 4800 8500 4800
Connection ~ 7800 4800
$Comp
L power:GND #PWR?
U 1 1 5D25DFFB
P 9200 4800
AR Path="/5D25DFFB" Ref="#PWR?"  Part="1" 
AR Path="/5D21925A/5D25DFFB" Ref="#PWR025"  Part="1" 
F 0 "#PWR025" H 9200 4550 50  0001 C CNN
F 1 "GND" H 9205 4627 50  0000 C CNN
F 2 "" H 9200 4800 50  0001 C CNN
F 3 "" H 9200 4800 50  0001 C CNN
	1    9200 4800
	1    0    0    -1  
$EndComp
$Comp
L power:+5V #PWR?
U 1 1 5D25E001
P 1100 4200
AR Path="/5D25E001" Ref="#PWR?"  Part="1" 
AR Path="/5D21925A/5D25E001" Ref="#PWR024"  Part="1" 
F 0 "#PWR024" H 1100 4050 50  0001 C CNN
F 1 "+5V" H 1115 4373 50  0000 C CNN
F 2 "" H 1100 4200 50  0001 C CNN
F 3 "" H 1100 4200 50  0001 C CNN
	1    1100 4200
	1    0    0    -1  
$EndComp
Wire Wire Line
	8500 4200 7800 4200
Wire Wire Line
	7800 4200 7100 4200
Connection ~ 7800 4200
Wire Wire Line
	7100 4200 6400 4200
Connection ~ 7100 4200
Wire Wire Line
	6400 4200 5700 4200
Connection ~ 6400 4200
Wire Wire Line
	5700 4200 5000 4200
Connection ~ 5700 4200
Wire Wire Line
	5000 4200 4300 4200
Connection ~ 5000 4200
Wire Wire Line
	4300 4200 3600 4200
Connection ~ 4300 4200
Wire Wire Line
	3600 4200 2900 4200
Connection ~ 3600 4200
Wire Wire Line
	2900 4200 2200 4200
Connection ~ 2900 4200
Wire Wire Line
	2200 4200 1500 4200
Connection ~ 2200 4200
Wire Wire Line
	1500 4200 1100 4200
Connection ~ 1500 4200
Wire Wire Line
	1800 4500 1900 4500
Wire Wire Line
	2500 4500 2600 4500
Wire Wire Line
	3200 4500 3300 4500
Wire Wire Line
	3900 4500 4000 4500
Wire Wire Line
	4600 4500 4700 4500
Wire Wire Line
	5300 4500 5400 4500
Wire Wire Line
	6000 4500 6100 4500
Wire Wire Line
	6700 4500 6800 4500
Wire Wire Line
	7400 4500 7500 4500
Wire Wire Line
	8100 4500 8200 4500
Wire Wire Line
	8500 4800 9000 4800
Connection ~ 8500 4800
$Comp
L LED:WS2812B D?
U 1 1 5D25E028
P 1500 5200
AR Path="/5D25E028" Ref="D?"  Part="1" 
AR Path="/5D21925A/5D25E028" Ref="D67"  Part="1" 
F 0 "D67" H 1841 5246 50  0000 L CNN
F 1 "WS2812B" H 1841 5155 50  0000 L CNN
F 2 "LED_SMD:LED_WS2812B_PLCC4_5.0x5.0mm_P3.2mm" H 1550 4900 50  0001 L TNN
F 3 "https://cdn-shop.adafruit.com/datasheets/WS2812B.pdf" H 1600 4825 50  0001 L TNN
	1    1500 5200
	1    0    0    -1  
$EndComp
$Comp
L LED:WS2812B D?
U 1 1 5D25E02F
P 2200 5200
AR Path="/5D25E02F" Ref="D?"  Part="1" 
AR Path="/5D21925A/5D25E02F" Ref="D68"  Part="1" 
F 0 "D68" H 2541 5246 50  0000 L CNN
F 1 "WS2812B" H 2541 5155 50  0000 L CNN
F 2 "LED_SMD:LED_WS2812B_PLCC4_5.0x5.0mm_P3.2mm" H 2250 4900 50  0001 L TNN
F 3 "https://cdn-shop.adafruit.com/datasheets/WS2812B.pdf" H 2300 4825 50  0001 L TNN
	1    2200 5200
	1    0    0    -1  
$EndComp
$Comp
L LED:WS2812B D?
U 1 1 5D25E036
P 2900 5200
AR Path="/5D25E036" Ref="D?"  Part="1" 
AR Path="/5D21925A/5D25E036" Ref="D69"  Part="1" 
F 0 "D69" H 3241 5246 50  0000 L CNN
F 1 "WS2812B" H 3241 5155 50  0000 L CNN
F 2 "LED_SMD:LED_WS2812B_PLCC4_5.0x5.0mm_P3.2mm" H 2950 4900 50  0001 L TNN
F 3 "https://cdn-shop.adafruit.com/datasheets/WS2812B.pdf" H 3000 4825 50  0001 L TNN
	1    2900 5200
	1    0    0    -1  
$EndComp
$Comp
L LED:WS2812B D?
U 1 1 5D25E03D
P 3600 5200
AR Path="/5D25E03D" Ref="D?"  Part="1" 
AR Path="/5D21925A/5D25E03D" Ref="D70"  Part="1" 
F 0 "D70" H 3941 5246 50  0000 L CNN
F 1 "WS2812B" H 3941 5155 50  0000 L CNN
F 2 "LED_SMD:LED_WS2812B_PLCC4_5.0x5.0mm_P3.2mm" H 3650 4900 50  0001 L TNN
F 3 "https://cdn-shop.adafruit.com/datasheets/WS2812B.pdf" H 3700 4825 50  0001 L TNN
	1    3600 5200
	1    0    0    -1  
$EndComp
$Comp
L LED:WS2812B D?
U 1 1 5D25E044
P 4300 5200
AR Path="/5D25E044" Ref="D?"  Part="1" 
AR Path="/5D21925A/5D25E044" Ref="D71"  Part="1" 
F 0 "D71" H 4641 5246 50  0000 L CNN
F 1 "WS2812B" H 4641 5155 50  0000 L CNN
F 2 "LED_SMD:LED_WS2812B_PLCC4_5.0x5.0mm_P3.2mm" H 4350 4900 50  0001 L TNN
F 3 "https://cdn-shop.adafruit.com/datasheets/WS2812B.pdf" H 4400 4825 50  0001 L TNN
	1    4300 5200
	1    0    0    -1  
$EndComp
$Comp
L LED:WS2812B D?
U 1 1 5D25E04B
P 5000 5200
AR Path="/5D25E04B" Ref="D?"  Part="1" 
AR Path="/5D21925A/5D25E04B" Ref="D72"  Part="1" 
F 0 "D72" H 5341 5246 50  0000 L CNN
F 1 "WS2812B" H 5341 5155 50  0000 L CNN
F 2 "LED_SMD:LED_WS2812B_PLCC4_5.0x5.0mm_P3.2mm" H 5050 4900 50  0001 L TNN
F 3 "https://cdn-shop.adafruit.com/datasheets/WS2812B.pdf" H 5100 4825 50  0001 L TNN
	1    5000 5200
	1    0    0    -1  
$EndComp
$Comp
L LED:WS2812B D?
U 1 1 5D25E052
P 5700 5200
AR Path="/5D25E052" Ref="D?"  Part="1" 
AR Path="/5D21925A/5D25E052" Ref="D73"  Part="1" 
F 0 "D73" H 6041 5246 50  0000 L CNN
F 1 "WS2812B" H 6041 5155 50  0000 L CNN
F 2 "LED_SMD:LED_WS2812B_PLCC4_5.0x5.0mm_P3.2mm" H 5750 4900 50  0001 L TNN
F 3 "https://cdn-shop.adafruit.com/datasheets/WS2812B.pdf" H 5800 4825 50  0001 L TNN
	1    5700 5200
	1    0    0    -1  
$EndComp
$Comp
L LED:WS2812B D?
U 1 1 5D25E059
P 6400 5200
AR Path="/5D25E059" Ref="D?"  Part="1" 
AR Path="/5D21925A/5D25E059" Ref="D74"  Part="1" 
F 0 "D74" H 6741 5246 50  0000 L CNN
F 1 "WS2812B" H 6741 5155 50  0000 L CNN
F 2 "LED_SMD:LED_WS2812B_PLCC4_5.0x5.0mm_P3.2mm" H 6450 4900 50  0001 L TNN
F 3 "https://cdn-shop.adafruit.com/datasheets/WS2812B.pdf" H 6500 4825 50  0001 L TNN
	1    6400 5200
	1    0    0    -1  
$EndComp
$Comp
L LED:WS2812B D?
U 1 1 5D25E060
P 7100 5200
AR Path="/5D25E060" Ref="D?"  Part="1" 
AR Path="/5D21925A/5D25E060" Ref="D75"  Part="1" 
F 0 "D75" H 7441 5246 50  0000 L CNN
F 1 "WS2812B" H 7441 5155 50  0000 L CNN
F 2 "LED_SMD:LED_WS2812B_PLCC4_5.0x5.0mm_P3.2mm" H 7150 4900 50  0001 L TNN
F 3 "https://cdn-shop.adafruit.com/datasheets/WS2812B.pdf" H 7200 4825 50  0001 L TNN
	1    7100 5200
	1    0    0    -1  
$EndComp
$Comp
L LED:WS2812B D?
U 1 1 5D25E067
P 7800 5200
AR Path="/5D25E067" Ref="D?"  Part="1" 
AR Path="/5D21925A/5D25E067" Ref="D76"  Part="1" 
F 0 "D76" H 8141 5246 50  0000 L CNN
F 1 "WS2812B" H 8141 5155 50  0000 L CNN
F 2 "LED_SMD:LED_WS2812B_PLCC4_5.0x5.0mm_P3.2mm" H 7850 4900 50  0001 L TNN
F 3 "https://cdn-shop.adafruit.com/datasheets/WS2812B.pdf" H 7900 4825 50  0001 L TNN
	1    7800 5200
	1    0    0    -1  
$EndComp
$Comp
L LED:WS2812B D?
U 1 1 5D25E06E
P 8500 5200
AR Path="/5D25E06E" Ref="D?"  Part="1" 
AR Path="/5D21925A/5D25E06E" Ref="D77"  Part="1" 
F 0 "D77" H 8841 5246 50  0000 L CNN
F 1 "WS2812B" H 8841 5155 50  0000 L CNN
F 2 "LED_SMD:LED_WS2812B_PLCC4_5.0x5.0mm_P3.2mm" H 8550 4900 50  0001 L TNN
F 3 "https://cdn-shop.adafruit.com/datasheets/WS2812B.pdf" H 8600 4825 50  0001 L TNN
	1    8500 5200
	1    0    0    -1  
$EndComp
Wire Wire Line
	1500 5500 2200 5500
Wire Wire Line
	2200 5500 2900 5500
Connection ~ 2200 5500
Wire Wire Line
	2900 5500 3600 5500
Connection ~ 2900 5500
Wire Wire Line
	3600 5500 4300 5500
Connection ~ 3600 5500
Wire Wire Line
	4300 5500 5000 5500
Connection ~ 4300 5500
Wire Wire Line
	5000 5500 5700 5500
Connection ~ 5000 5500
Wire Wire Line
	5700 5500 6400 5500
Connection ~ 5700 5500
Wire Wire Line
	6400 5500 7100 5500
Connection ~ 6400 5500
Wire Wire Line
	7100 5500 7800 5500
Connection ~ 7100 5500
Wire Wire Line
	7800 5500 8500 5500
Connection ~ 7800 5500
$Comp
L power:GND #PWR?
U 1 1 5D25E088
P 9200 5500
AR Path="/5D25E088" Ref="#PWR?"  Part="1" 
AR Path="/5D21925A/5D25E088" Ref="#PWR027"  Part="1" 
F 0 "#PWR027" H 9200 5250 50  0001 C CNN
F 1 "GND" H 9205 5327 50  0000 C CNN
F 2 "" H 9200 5500 50  0001 C CNN
F 3 "" H 9200 5500 50  0001 C CNN
	1    9200 5500
	1    0    0    -1  
$EndComp
$Comp
L power:+5V #PWR?
U 1 1 5D25E08E
P 1100 4900
AR Path="/5D25E08E" Ref="#PWR?"  Part="1" 
AR Path="/5D21925A/5D25E08E" Ref="#PWR026"  Part="1" 
F 0 "#PWR026" H 1100 4750 50  0001 C CNN
F 1 "+5V" H 1115 5073 50  0000 C CNN
F 2 "" H 1100 4900 50  0001 C CNN
F 3 "" H 1100 4900 50  0001 C CNN
	1    1100 4900
	1    0    0    -1  
$EndComp
Wire Wire Line
	8500 4900 7800 4900
Wire Wire Line
	7800 4900 7100 4900
Connection ~ 7800 4900
Wire Wire Line
	7100 4900 6400 4900
Connection ~ 7100 4900
Wire Wire Line
	6400 4900 5700 4900
Connection ~ 6400 4900
Wire Wire Line
	5700 4900 5000 4900
Connection ~ 5700 4900
Wire Wire Line
	5000 4900 4300 4900
Connection ~ 5000 4900
Wire Wire Line
	4300 4900 3600 4900
Connection ~ 4300 4900
Wire Wire Line
	3600 4900 2900 4900
Connection ~ 3600 4900
Wire Wire Line
	2900 4900 2200 4900
Connection ~ 2900 4900
Wire Wire Line
	2200 4900 1500 4900
Connection ~ 2200 4900
Wire Wire Line
	1500 4900 1100 4900
Connection ~ 1500 4900
Wire Wire Line
	1800 5200 1900 5200
Wire Wire Line
	2500 5200 2600 5200
Wire Wire Line
	3200 5200 3300 5200
Wire Wire Line
	3900 5200 4000 5200
Wire Wire Line
	4600 5200 4700 5200
Wire Wire Line
	5300 5200 5400 5200
Wire Wire Line
	6000 5200 6100 5200
Wire Wire Line
	6700 5200 6800 5200
Wire Wire Line
	7400 5200 7500 5200
Wire Wire Line
	8100 5200 8200 5200
Wire Wire Line
	8500 5500 9000 5500
Connection ~ 8500 5500
$Comp
L LED:WS2812B D?
U 1 1 5D25E0B5
P 1500 5900
AR Path="/5D25E0B5" Ref="D?"  Part="1" 
AR Path="/5D21925A/5D25E0B5" Ref="D78"  Part="1" 
F 0 "D78" H 1841 5946 50  0000 L CNN
F 1 "WS2812B" H 1841 5855 50  0000 L CNN
F 2 "LED_SMD:LED_WS2812B_PLCC4_5.0x5.0mm_P3.2mm" H 1550 5600 50  0001 L TNN
F 3 "https://cdn-shop.adafruit.com/datasheets/WS2812B.pdf" H 1600 5525 50  0001 L TNN
	1    1500 5900
	1    0    0    -1  
$EndComp
$Comp
L LED:WS2812B D?
U 1 1 5D25E0BC
P 2200 5900
AR Path="/5D25E0BC" Ref="D?"  Part="1" 
AR Path="/5D21925A/5D25E0BC" Ref="D79"  Part="1" 
F 0 "D79" H 2541 5946 50  0000 L CNN
F 1 "WS2812B" H 2541 5855 50  0000 L CNN
F 2 "LED_SMD:LED_WS2812B_PLCC4_5.0x5.0mm_P3.2mm" H 2250 5600 50  0001 L TNN
F 3 "https://cdn-shop.adafruit.com/datasheets/WS2812B.pdf" H 2300 5525 50  0001 L TNN
	1    2200 5900
	1    0    0    -1  
$EndComp
$Comp
L LED:WS2812B D?
U 1 1 5D25E0C3
P 2900 5900
AR Path="/5D25E0C3" Ref="D?"  Part="1" 
AR Path="/5D21925A/5D25E0C3" Ref="D80"  Part="1" 
F 0 "D80" H 3241 5946 50  0000 L CNN
F 1 "WS2812B" H 3241 5855 50  0000 L CNN
F 2 "LED_SMD:LED_WS2812B_PLCC4_5.0x5.0mm_P3.2mm" H 2950 5600 50  0001 L TNN
F 3 "https://cdn-shop.adafruit.com/datasheets/WS2812B.pdf" H 3000 5525 50  0001 L TNN
	1    2900 5900
	1    0    0    -1  
$EndComp
$Comp
L LED:WS2812B D?
U 1 1 5D25E0CA
P 3600 5900
AR Path="/5D25E0CA" Ref="D?"  Part="1" 
AR Path="/5D21925A/5D25E0CA" Ref="D81"  Part="1" 
F 0 "D81" H 3941 5946 50  0000 L CNN
F 1 "WS2812B" H 3941 5855 50  0000 L CNN
F 2 "LED_SMD:LED_WS2812B_PLCC4_5.0x5.0mm_P3.2mm" H 3650 5600 50  0001 L TNN
F 3 "https://cdn-shop.adafruit.com/datasheets/WS2812B.pdf" H 3700 5525 50  0001 L TNN
	1    3600 5900
	1    0    0    -1  
$EndComp
$Comp
L LED:WS2812B D?
U 1 1 5D25E0D1
P 4300 5900
AR Path="/5D25E0D1" Ref="D?"  Part="1" 
AR Path="/5D21925A/5D25E0D1" Ref="D82"  Part="1" 
F 0 "D82" H 4641 5946 50  0000 L CNN
F 1 "WS2812B" H 4641 5855 50  0000 L CNN
F 2 "LED_SMD:LED_WS2812B_PLCC4_5.0x5.0mm_P3.2mm" H 4350 5600 50  0001 L TNN
F 3 "https://cdn-shop.adafruit.com/datasheets/WS2812B.pdf" H 4400 5525 50  0001 L TNN
	1    4300 5900
	1    0    0    -1  
$EndComp
$Comp
L LED:WS2812B D?
U 1 1 5D25E0D8
P 5000 5900
AR Path="/5D25E0D8" Ref="D?"  Part="1" 
AR Path="/5D21925A/5D25E0D8" Ref="D83"  Part="1" 
F 0 "D83" H 5341 5946 50  0000 L CNN
F 1 "WS2812B" H 5341 5855 50  0000 L CNN
F 2 "LED_SMD:LED_WS2812B_PLCC4_5.0x5.0mm_P3.2mm" H 5050 5600 50  0001 L TNN
F 3 "https://cdn-shop.adafruit.com/datasheets/WS2812B.pdf" H 5100 5525 50  0001 L TNN
	1    5000 5900
	1    0    0    -1  
$EndComp
$Comp
L LED:WS2812B D?
U 1 1 5D25E0DF
P 5700 5900
AR Path="/5D25E0DF" Ref="D?"  Part="1" 
AR Path="/5D21925A/5D25E0DF" Ref="D84"  Part="1" 
F 0 "D84" H 6041 5946 50  0000 L CNN
F 1 "WS2812B" H 6041 5855 50  0000 L CNN
F 2 "LED_SMD:LED_WS2812B_PLCC4_5.0x5.0mm_P3.2mm" H 5750 5600 50  0001 L TNN
F 3 "https://cdn-shop.adafruit.com/datasheets/WS2812B.pdf" H 5800 5525 50  0001 L TNN
	1    5700 5900
	1    0    0    -1  
$EndComp
$Comp
L LED:WS2812B D?
U 1 1 5D25E0E6
P 6400 5900
AR Path="/5D25E0E6" Ref="D?"  Part="1" 
AR Path="/5D21925A/5D25E0E6" Ref="D85"  Part="1" 
F 0 "D85" H 6741 5946 50  0000 L CNN
F 1 "WS2812B" H 6741 5855 50  0000 L CNN
F 2 "LED_SMD:LED_WS2812B_PLCC4_5.0x5.0mm_P3.2mm" H 6450 5600 50  0001 L TNN
F 3 "https://cdn-shop.adafruit.com/datasheets/WS2812B.pdf" H 6500 5525 50  0001 L TNN
	1    6400 5900
	1    0    0    -1  
$EndComp
$Comp
L LED:WS2812B D?
U 1 1 5D25E0ED
P 7100 5900
AR Path="/5D25E0ED" Ref="D?"  Part="1" 
AR Path="/5D21925A/5D25E0ED" Ref="D86"  Part="1" 
F 0 "D86" H 7441 5946 50  0000 L CNN
F 1 "WS2812B" H 7441 5855 50  0000 L CNN
F 2 "LED_SMD:LED_WS2812B_PLCC4_5.0x5.0mm_P3.2mm" H 7150 5600 50  0001 L TNN
F 3 "https://cdn-shop.adafruit.com/datasheets/WS2812B.pdf" H 7200 5525 50  0001 L TNN
	1    7100 5900
	1    0    0    -1  
$EndComp
$Comp
L LED:WS2812B D?
U 1 1 5D25E0F4
P 7800 5900
AR Path="/5D25E0F4" Ref="D?"  Part="1" 
AR Path="/5D21925A/5D25E0F4" Ref="D87"  Part="1" 
F 0 "D87" H 8141 5946 50  0000 L CNN
F 1 "WS2812B" H 8141 5855 50  0000 L CNN
F 2 "LED_SMD:LED_WS2812B_PLCC4_5.0x5.0mm_P3.2mm" H 7850 5600 50  0001 L TNN
F 3 "https://cdn-shop.adafruit.com/datasheets/WS2812B.pdf" H 7900 5525 50  0001 L TNN
	1    7800 5900
	1    0    0    -1  
$EndComp
$Comp
L LED:WS2812B D?
U 1 1 5D25E0FB
P 8500 5900
AR Path="/5D25E0FB" Ref="D?"  Part="1" 
AR Path="/5D21925A/5D25E0FB" Ref="D88"  Part="1" 
F 0 "D88" H 8841 5946 50  0000 L CNN
F 1 "WS2812B" H 8841 5855 50  0000 L CNN
F 2 "LED_SMD:LED_WS2812B_PLCC4_5.0x5.0mm_P3.2mm" H 8550 5600 50  0001 L TNN
F 3 "https://cdn-shop.adafruit.com/datasheets/WS2812B.pdf" H 8600 5525 50  0001 L TNN
	1    8500 5900
	1    0    0    -1  
$EndComp
Wire Wire Line
	1500 6200 2200 6200
Wire Wire Line
	2200 6200 2900 6200
Connection ~ 2200 6200
Wire Wire Line
	2900 6200 3600 6200
Connection ~ 2900 6200
Wire Wire Line
	3600 6200 4300 6200
Connection ~ 3600 6200
Wire Wire Line
	4300 6200 5000 6200
Connection ~ 4300 6200
Wire Wire Line
	5000 6200 5700 6200
Connection ~ 5000 6200
Wire Wire Line
	5700 6200 6400 6200
Connection ~ 5700 6200
Wire Wire Line
	6400 6200 7100 6200
Connection ~ 6400 6200
Wire Wire Line
	7100 6200 7800 6200
Connection ~ 7100 6200
Wire Wire Line
	7800 6200 8500 6200
Connection ~ 7800 6200
$Comp
L power:+5V #PWR?
U 1 1 5D25E115
P 1100 5600
AR Path="/5D25E115" Ref="#PWR?"  Part="1" 
AR Path="/5D21925A/5D25E115" Ref="#PWR028"  Part="1" 
F 0 "#PWR028" H 1100 5450 50  0001 C CNN
F 1 "+5V" H 1115 5773 50  0000 C CNN
F 2 "" H 1100 5600 50  0001 C CNN
F 3 "" H 1100 5600 50  0001 C CNN
	1    1100 5600
	1    0    0    -1  
$EndComp
Wire Wire Line
	8500 5600 7800 5600
Wire Wire Line
	7800 5600 7100 5600
Connection ~ 7800 5600
Wire Wire Line
	7100 5600 6400 5600
Connection ~ 7100 5600
Wire Wire Line
	6400 5600 5700 5600
Connection ~ 6400 5600
Wire Wire Line
	5700 5600 5000 5600
Connection ~ 5700 5600
Wire Wire Line
	5000 5600 4300 5600
Connection ~ 5000 5600
Wire Wire Line
	4300 5600 3600 5600
Connection ~ 4300 5600
Wire Wire Line
	3600 5600 2900 5600
Connection ~ 3600 5600
Wire Wire Line
	2900 5600 2200 5600
Connection ~ 2900 5600
Wire Wire Line
	2200 5600 1500 5600
Connection ~ 2200 5600
Wire Wire Line
	1500 5600 1100 5600
Connection ~ 1500 5600
Wire Wire Line
	1800 5900 1900 5900
Wire Wire Line
	2500 5900 2600 5900
Wire Wire Line
	3200 5900 3300 5900
Wire Wire Line
	3900 5900 4000 5900
Wire Wire Line
	4600 5900 4700 5900
Wire Wire Line
	5300 5900 5400 5900
Wire Wire Line
	6000 5900 6100 5900
Wire Wire Line
	6700 5900 6800 5900
Wire Wire Line
	7400 5900 7500 5900
Wire Wire Line
	8100 5900 8200 5900
Wire Wire Line
	8500 6200 9000 6200
Connection ~ 8500 6200
$Comp
L power:GND #PWR?
U 1 1 5D25E13C
P 9200 6200
AR Path="/5D25E13C" Ref="#PWR?"  Part="1" 
AR Path="/5D21925A/5D25E13C" Ref="#PWR029"  Part="1" 
F 0 "#PWR029" H 9200 5950 50  0001 C CNN
F 1 "GND" H 9205 6027 50  0000 C CNN
F 2 "" H 9200 6200 50  0001 C CNN
F 3 "" H 9200 6200 50  0001 C CNN
	1    9200 6200
	1    0    0    -1  
$EndComp
$Comp
L LED:WS2812B D?
U 1 1 5D25E142
P 1500 6600
AR Path="/5D25E142" Ref="D?"  Part="1" 
AR Path="/5D21925A/5D25E142" Ref="D89"  Part="1" 
F 0 "D89" H 1841 6646 50  0000 L CNN
F 1 "WS2812B" H 1841 6555 50  0000 L CNN
F 2 "LED_SMD:LED_WS2812B_PLCC4_5.0x5.0mm_P3.2mm" H 1550 6300 50  0001 L TNN
F 3 "https://cdn-shop.adafruit.com/datasheets/WS2812B.pdf" H 1600 6225 50  0001 L TNN
	1    1500 6600
	1    0    0    -1  
$EndComp
$Comp
L LED:WS2812B D?
U 1 1 5D25E149
P 2200 6600
AR Path="/5D25E149" Ref="D?"  Part="1" 
AR Path="/5D21925A/5D25E149" Ref="D90"  Part="1" 
F 0 "D90" H 2541 6646 50  0000 L CNN
F 1 "WS2812B" H 2541 6555 50  0000 L CNN
F 2 "LED_SMD:LED_WS2812B_PLCC4_5.0x5.0mm_P3.2mm" H 2250 6300 50  0001 L TNN
F 3 "https://cdn-shop.adafruit.com/datasheets/WS2812B.pdf" H 2300 6225 50  0001 L TNN
	1    2200 6600
	1    0    0    -1  
$EndComp
$Comp
L LED:WS2812B D?
U 1 1 5D25E150
P 2900 6600
AR Path="/5D25E150" Ref="D?"  Part="1" 
AR Path="/5D21925A/5D25E150" Ref="D91"  Part="1" 
F 0 "D91" H 3241 6646 50  0000 L CNN
F 1 "WS2812B" H 3241 6555 50  0000 L CNN
F 2 "LED_SMD:LED_WS2812B_PLCC4_5.0x5.0mm_P3.2mm" H 2950 6300 50  0001 L TNN
F 3 "https://cdn-shop.adafruit.com/datasheets/WS2812B.pdf" H 3000 6225 50  0001 L TNN
	1    2900 6600
	1    0    0    -1  
$EndComp
$Comp
L LED:WS2812B D?
U 1 1 5D25E157
P 3600 6600
AR Path="/5D25E157" Ref="D?"  Part="1" 
AR Path="/5D21925A/5D25E157" Ref="D92"  Part="1" 
F 0 "D92" H 3941 6646 50  0000 L CNN
F 1 "WS2812B" H 3941 6555 50  0000 L CNN
F 2 "LED_SMD:LED_WS2812B_PLCC4_5.0x5.0mm_P3.2mm" H 3650 6300 50  0001 L TNN
F 3 "https://cdn-shop.adafruit.com/datasheets/WS2812B.pdf" H 3700 6225 50  0001 L TNN
	1    3600 6600
	1    0    0    -1  
$EndComp
$Comp
L LED:WS2812B D?
U 1 1 5D25E15E
P 4300 6600
AR Path="/5D25E15E" Ref="D?"  Part="1" 
AR Path="/5D21925A/5D25E15E" Ref="D93"  Part="1" 
F 0 "D93" H 4641 6646 50  0000 L CNN
F 1 "WS2812B" H 4641 6555 50  0000 L CNN
F 2 "LED_SMD:LED_WS2812B_PLCC4_5.0x5.0mm_P3.2mm" H 4350 6300 50  0001 L TNN
F 3 "https://cdn-shop.adafruit.com/datasheets/WS2812B.pdf" H 4400 6225 50  0001 L TNN
	1    4300 6600
	1    0    0    -1  
$EndComp
$Comp
L LED:WS2812B D?
U 1 1 5D25E165
P 5000 6600
AR Path="/5D25E165" Ref="D?"  Part="1" 
AR Path="/5D21925A/5D25E165" Ref="D94"  Part="1" 
F 0 "D94" H 5341 6646 50  0000 L CNN
F 1 "WS2812B" H 5341 6555 50  0000 L CNN
F 2 "LED_SMD:LED_WS2812B_PLCC4_5.0x5.0mm_P3.2mm" H 5050 6300 50  0001 L TNN
F 3 "https://cdn-shop.adafruit.com/datasheets/WS2812B.pdf" H 5100 6225 50  0001 L TNN
	1    5000 6600
	1    0    0    -1  
$EndComp
$Comp
L LED:WS2812B D?
U 1 1 5D25E16C
P 5700 6600
AR Path="/5D25E16C" Ref="D?"  Part="1" 
AR Path="/5D21925A/5D25E16C" Ref="D95"  Part="1" 
F 0 "D95" H 6041 6646 50  0000 L CNN
F 1 "WS2812B" H 6041 6555 50  0000 L CNN
F 2 "LED_SMD:LED_WS2812B_PLCC4_5.0x5.0mm_P3.2mm" H 5750 6300 50  0001 L TNN
F 3 "https://cdn-shop.adafruit.com/datasheets/WS2812B.pdf" H 5800 6225 50  0001 L TNN
	1    5700 6600
	1    0    0    -1  
$EndComp
$Comp
L LED:WS2812B D?
U 1 1 5D25E173
P 6400 6600
AR Path="/5D25E173" Ref="D?"  Part="1" 
AR Path="/5D21925A/5D25E173" Ref="D96"  Part="1" 
F 0 "D96" H 6741 6646 50  0000 L CNN
F 1 "WS2812B" H 6741 6555 50  0000 L CNN
F 2 "LED_SMD:LED_WS2812B_PLCC4_5.0x5.0mm_P3.2mm" H 6450 6300 50  0001 L TNN
F 3 "https://cdn-shop.adafruit.com/datasheets/WS2812B.pdf" H 6500 6225 50  0001 L TNN
	1    6400 6600
	1    0    0    -1  
$EndComp
$Comp
L LED:WS2812B D?
U 1 1 5D25E17A
P 7100 6600
AR Path="/5D25E17A" Ref="D?"  Part="1" 
AR Path="/5D21925A/5D25E17A" Ref="D97"  Part="1" 
F 0 "D97" H 7441 6646 50  0000 L CNN
F 1 "WS2812B" H 7441 6555 50  0000 L CNN
F 2 "LED_SMD:LED_WS2812B_PLCC4_5.0x5.0mm_P3.2mm" H 7150 6300 50  0001 L TNN
F 3 "https://cdn-shop.adafruit.com/datasheets/WS2812B.pdf" H 7200 6225 50  0001 L TNN
	1    7100 6600
	1    0    0    -1  
$EndComp
$Comp
L LED:WS2812B D?
U 1 1 5D25E181
P 7800 6600
AR Path="/5D25E181" Ref="D?"  Part="1" 
AR Path="/5D21925A/5D25E181" Ref="D98"  Part="1" 
F 0 "D98" H 8141 6646 50  0000 L CNN
F 1 "WS2812B" H 8141 6555 50  0000 L CNN
F 2 "LED_SMD:LED_WS2812B_PLCC4_5.0x5.0mm_P3.2mm" H 7850 6300 50  0001 L TNN
F 3 "https://cdn-shop.adafruit.com/datasheets/WS2812B.pdf" H 7900 6225 50  0001 L TNN
	1    7800 6600
	1    0    0    -1  
$EndComp
$Comp
L LED:WS2812B D?
U 1 1 5D25E188
P 8500 6600
AR Path="/5D25E188" Ref="D?"  Part="1" 
AR Path="/5D21925A/5D25E188" Ref="D99"  Part="1" 
F 0 "D99" H 8841 6646 50  0000 L CNN
F 1 "WS2812B" H 8841 6555 50  0000 L CNN
F 2 "LED_SMD:LED_WS2812B_PLCC4_5.0x5.0mm_P3.2mm" H 8550 6300 50  0001 L TNN
F 3 "https://cdn-shop.adafruit.com/datasheets/WS2812B.pdf" H 8600 6225 50  0001 L TNN
	1    8500 6600
	1    0    0    -1  
$EndComp
Wire Wire Line
	1500 6900 2200 6900
Wire Wire Line
	2200 6900 2900 6900
Connection ~ 2200 6900
Wire Wire Line
	2900 6900 3600 6900
Connection ~ 2900 6900
Wire Wire Line
	3600 6900 4300 6900
Connection ~ 3600 6900
Wire Wire Line
	4300 6900 5000 6900
Connection ~ 4300 6900
Wire Wire Line
	5000 6900 5700 6900
Connection ~ 5000 6900
Wire Wire Line
	5700 6900 6400 6900
Connection ~ 5700 6900
Wire Wire Line
	6400 6900 7100 6900
Connection ~ 6400 6900
Wire Wire Line
	7100 6900 7800 6900
Connection ~ 7100 6900
Wire Wire Line
	7800 6900 8500 6900
Connection ~ 7800 6900
$Comp
L power:GND #PWR?
U 1 1 5D25E1A2
P 9200 6900
AR Path="/5D25E1A2" Ref="#PWR?"  Part="1" 
AR Path="/5D21925A/5D25E1A2" Ref="#PWR031"  Part="1" 
F 0 "#PWR031" H 9200 6650 50  0001 C CNN
F 1 "GND" H 9205 6727 50  0000 C CNN
F 2 "" H 9200 6900 50  0001 C CNN
F 3 "" H 9200 6900 50  0001 C CNN
	1    9200 6900
	1    0    0    -1  
$EndComp
$Comp
L power:+5V #PWR?
U 1 1 5D25E1A8
P 1100 6300
AR Path="/5D25E1A8" Ref="#PWR?"  Part="1" 
AR Path="/5D21925A/5D25E1A8" Ref="#PWR030"  Part="1" 
F 0 "#PWR030" H 1100 6150 50  0001 C CNN
F 1 "+5V" H 1115 6473 50  0000 C CNN
F 2 "" H 1100 6300 50  0001 C CNN
F 3 "" H 1100 6300 50  0001 C CNN
	1    1100 6300
	1    0    0    -1  
$EndComp
Wire Wire Line
	8500 6300 7800 6300
Wire Wire Line
	7800 6300 7100 6300
Connection ~ 7800 6300
Wire Wire Line
	7100 6300 6400 6300
Connection ~ 7100 6300
Wire Wire Line
	6400 6300 5700 6300
Connection ~ 6400 6300
Wire Wire Line
	5700 6300 5000 6300
Connection ~ 5700 6300
Wire Wire Line
	5000 6300 4300 6300
Connection ~ 5000 6300
Wire Wire Line
	4300 6300 3600 6300
Connection ~ 4300 6300
Wire Wire Line
	3600 6300 2900 6300
Connection ~ 3600 6300
Wire Wire Line
	2900 6300 2200 6300
Connection ~ 2900 6300
Wire Wire Line
	2200 6300 1500 6300
Connection ~ 2200 6300
Wire Wire Line
	1500 6300 1100 6300
Connection ~ 1500 6300
Wire Wire Line
	1800 6600 1900 6600
Wire Wire Line
	2500 6600 2600 6600
Wire Wire Line
	3200 6600 3300 6600
Wire Wire Line
	3900 6600 4000 6600
Wire Wire Line
	4600 6600 4700 6600
Wire Wire Line
	5300 6600 5400 6600
Wire Wire Line
	6000 6600 6100 6600
Wire Wire Line
	6700 6600 6800 6600
Wire Wire Line
	7400 6600 7500 6600
Wire Wire Line
	8100 6600 8200 6600
Wire Wire Line
	8500 6900 9000 6900
Connection ~ 8500 6900
$Comp
L LED:WS2812B D?
U 1 1 5D25E1CF
P 1500 7300
AR Path="/5D25E1CF" Ref="D?"  Part="1" 
AR Path="/5D21925A/5D25E1CF" Ref="D100"  Part="1" 
F 0 "D100" H 1841 7346 50  0000 L CNN
F 1 "WS2812B" H 1841 7255 50  0000 L CNN
F 2 "LED_SMD:LED_WS2812B_PLCC4_5.0x5.0mm_P3.2mm" H 1550 7000 50  0001 L TNN
F 3 "https://cdn-shop.adafruit.com/datasheets/WS2812B.pdf" H 1600 6925 50  0001 L TNN
	1    1500 7300
	1    0    0    -1  
$EndComp
$Comp
L LED:WS2812B D?
U 1 1 5D25E1D6
P 2200 7300
AR Path="/5D25E1D6" Ref="D?"  Part="1" 
AR Path="/5D21925A/5D25E1D6" Ref="D101"  Part="1" 
F 0 "D101" H 2541 7346 50  0000 L CNN
F 1 "WS2812B" H 2541 7255 50  0000 L CNN
F 2 "LED_SMD:LED_WS2812B_PLCC4_5.0x5.0mm_P3.2mm" H 2250 7000 50  0001 L TNN
F 3 "https://cdn-shop.adafruit.com/datasheets/WS2812B.pdf" H 2300 6925 50  0001 L TNN
	1    2200 7300
	1    0    0    -1  
$EndComp
$Comp
L LED:WS2812B D?
U 1 1 5D25E1DD
P 2900 7300
AR Path="/5D25E1DD" Ref="D?"  Part="1" 
AR Path="/5D21925A/5D25E1DD" Ref="D102"  Part="1" 
F 0 "D102" H 3241 7346 50  0000 L CNN
F 1 "WS2812B" H 3241 7255 50  0000 L CNN
F 2 "LED_SMD:LED_WS2812B_PLCC4_5.0x5.0mm_P3.2mm" H 2950 7000 50  0001 L TNN
F 3 "https://cdn-shop.adafruit.com/datasheets/WS2812B.pdf" H 3000 6925 50  0001 L TNN
	1    2900 7300
	1    0    0    -1  
$EndComp
$Comp
L LED:WS2812B D?
U 1 1 5D25E1E4
P 3600 7300
AR Path="/5D25E1E4" Ref="D?"  Part="1" 
AR Path="/5D21925A/5D25E1E4" Ref="D103"  Part="1" 
F 0 "D103" H 3941 7346 50  0000 L CNN
F 1 "WS2812B" H 3941 7255 50  0000 L CNN
F 2 "LED_SMD:LED_WS2812B_PLCC4_5.0x5.0mm_P3.2mm" H 3650 7000 50  0001 L TNN
F 3 "https://cdn-shop.adafruit.com/datasheets/WS2812B.pdf" H 3700 6925 50  0001 L TNN
	1    3600 7300
	1    0    0    -1  
$EndComp
$Comp
L LED:WS2812B D?
U 1 1 5D25E1EB
P 4300 7300
AR Path="/5D25E1EB" Ref="D?"  Part="1" 
AR Path="/5D21925A/5D25E1EB" Ref="D104"  Part="1" 
F 0 "D104" H 4641 7346 50  0000 L CNN
F 1 "WS2812B" H 4641 7255 50  0000 L CNN
F 2 "LED_SMD:LED_WS2812B_PLCC4_5.0x5.0mm_P3.2mm" H 4350 7000 50  0001 L TNN
F 3 "https://cdn-shop.adafruit.com/datasheets/WS2812B.pdf" H 4400 6925 50  0001 L TNN
	1    4300 7300
	1    0    0    -1  
$EndComp
$Comp
L LED:WS2812B D?
U 1 1 5D25E1F2
P 5000 7300
AR Path="/5D25E1F2" Ref="D?"  Part="1" 
AR Path="/5D21925A/5D25E1F2" Ref="D105"  Part="1" 
F 0 "D105" H 5341 7346 50  0000 L CNN
F 1 "WS2812B" H 5341 7255 50  0000 L CNN
F 2 "LED_SMD:LED_WS2812B_PLCC4_5.0x5.0mm_P3.2mm" H 5050 7000 50  0001 L TNN
F 3 "https://cdn-shop.adafruit.com/datasheets/WS2812B.pdf" H 5100 6925 50  0001 L TNN
	1    5000 7300
	1    0    0    -1  
$EndComp
$Comp
L LED:WS2812B D?
U 1 1 5D25E1F9
P 5700 7300
AR Path="/5D25E1F9" Ref="D?"  Part="1" 
AR Path="/5D21925A/5D25E1F9" Ref="D106"  Part="1" 
F 0 "D106" H 6041 7346 50  0000 L CNN
F 1 "WS2812B" H 6041 7255 50  0000 L CNN
F 2 "LED_SMD:LED_WS2812B_PLCC4_5.0x5.0mm_P3.2mm" H 5750 7000 50  0001 L TNN
F 3 "https://cdn-shop.adafruit.com/datasheets/WS2812B.pdf" H 5800 6925 50  0001 L TNN
	1    5700 7300
	1    0    0    -1  
$EndComp
$Comp
L LED:WS2812B D?
U 1 1 5D25E200
P 6400 7300
AR Path="/5D25E200" Ref="D?"  Part="1" 
AR Path="/5D21925A/5D25E200" Ref="D107"  Part="1" 
F 0 "D107" H 6741 7346 50  0000 L CNN
F 1 "WS2812B" H 6741 7255 50  0000 L CNN
F 2 "LED_SMD:LED_WS2812B_PLCC4_5.0x5.0mm_P3.2mm" H 6450 7000 50  0001 L TNN
F 3 "https://cdn-shop.adafruit.com/datasheets/WS2812B.pdf" H 6500 6925 50  0001 L TNN
	1    6400 7300
	1    0    0    -1  
$EndComp
$Comp
L LED:WS2812B D?
U 1 1 5D25E207
P 7100 7300
AR Path="/5D25E207" Ref="D?"  Part="1" 
AR Path="/5D21925A/5D25E207" Ref="D108"  Part="1" 
F 0 "D108" H 7441 7346 50  0000 L CNN
F 1 "WS2812B" H 7441 7255 50  0000 L CNN
F 2 "LED_SMD:LED_WS2812B_PLCC4_5.0x5.0mm_P3.2mm" H 7150 7000 50  0001 L TNN
F 3 "https://cdn-shop.adafruit.com/datasheets/WS2812B.pdf" H 7200 6925 50  0001 L TNN
	1    7100 7300
	1    0    0    -1  
$EndComp
$Comp
L LED:WS2812B D?
U 1 1 5D25E20E
P 7800 7300
AR Path="/5D25E20E" Ref="D?"  Part="1" 
AR Path="/5D21925A/5D25E20E" Ref="D109"  Part="1" 
F 0 "D109" H 8141 7346 50  0000 L CNN
F 1 "WS2812B" H 8141 7255 50  0000 L CNN
F 2 "LED_SMD:LED_WS2812B_PLCC4_5.0x5.0mm_P3.2mm" H 7850 7000 50  0001 L TNN
F 3 "https://cdn-shop.adafruit.com/datasheets/WS2812B.pdf" H 7900 6925 50  0001 L TNN
	1    7800 7300
	1    0    0    -1  
$EndComp
$Comp
L LED:WS2812B D?
U 1 1 5D25E215
P 8500 7300
AR Path="/5D25E215" Ref="D?"  Part="1" 
AR Path="/5D21925A/5D25E215" Ref="D110"  Part="1" 
F 0 "D110" H 8841 7346 50  0000 L CNN
F 1 "WS2812B" H 8841 7255 50  0000 L CNN
F 2 "LED_SMD:LED_WS2812B_PLCC4_5.0x5.0mm_P3.2mm" H 8550 7000 50  0001 L TNN
F 3 "https://cdn-shop.adafruit.com/datasheets/WS2812B.pdf" H 8600 6925 50  0001 L TNN
	1    8500 7300
	1    0    0    -1  
$EndComp
Wire Wire Line
	1500 7600 2200 7600
Wire Wire Line
	2200 7600 2900 7600
Connection ~ 2200 7600
Wire Wire Line
	2900 7600 3600 7600
Connection ~ 2900 7600
Wire Wire Line
	3600 7600 4300 7600
Connection ~ 3600 7600
Wire Wire Line
	4300 7600 5000 7600
Connection ~ 4300 7600
Wire Wire Line
	5000 7600 5700 7600
Connection ~ 5000 7600
Wire Wire Line
	5700 7600 6400 7600
Connection ~ 5700 7600
Wire Wire Line
	6400 7600 7100 7600
Connection ~ 6400 7600
Wire Wire Line
	7100 7600 7800 7600
Connection ~ 7100 7600
Wire Wire Line
	7800 7600 8500 7600
Connection ~ 7800 7600
$Comp
L power:GND #PWR?
U 1 1 5D25E22F
P 9200 7600
AR Path="/5D25E22F" Ref="#PWR?"  Part="1" 
AR Path="/5D21925A/5D25E22F" Ref="#PWR033"  Part="1" 
F 0 "#PWR033" H 9200 7350 50  0001 C CNN
F 1 "GND" H 9205 7427 50  0000 C CNN
F 2 "" H 9200 7600 50  0001 C CNN
F 3 "" H 9200 7600 50  0001 C CNN
	1    9200 7600
	1    0    0    -1  
$EndComp
$Comp
L power:+5V #PWR?
U 1 1 5D25E235
P 1100 7000
AR Path="/5D25E235" Ref="#PWR?"  Part="1" 
AR Path="/5D21925A/5D25E235" Ref="#PWR032"  Part="1" 
F 0 "#PWR032" H 1100 6850 50  0001 C CNN
F 1 "+5V" H 1115 7173 50  0000 C CNN
F 2 "" H 1100 7000 50  0001 C CNN
F 3 "" H 1100 7000 50  0001 C CNN
	1    1100 7000
	1    0    0    -1  
$EndComp
Wire Wire Line
	8500 7000 7800 7000
Wire Wire Line
	7800 7000 7100 7000
Connection ~ 7800 7000
Wire Wire Line
	7100 7000 6400 7000
Connection ~ 7100 7000
Wire Wire Line
	6400 7000 5700 7000
Connection ~ 6400 7000
Wire Wire Line
	5700 7000 5000 7000
Connection ~ 5700 7000
Wire Wire Line
	5000 7000 4300 7000
Connection ~ 5000 7000
Wire Wire Line
	4300 7000 3600 7000
Connection ~ 4300 7000
Wire Wire Line
	3600 7000 2900 7000
Connection ~ 3600 7000
Wire Wire Line
	2900 7000 2200 7000
Connection ~ 2900 7000
Wire Wire Line
	2200 7000 1500 7000
Connection ~ 2200 7000
Wire Wire Line
	1500 7000 1100 7000
Connection ~ 1500 7000
Wire Wire Line
	1800 7300 1900 7300
Wire Wire Line
	2500 7300 2600 7300
Wire Wire Line
	3200 7300 3300 7300
Wire Wire Line
	3900 7300 4000 7300
Wire Wire Line
	4600 7300 4700 7300
Wire Wire Line
	5300 7300 5400 7300
Wire Wire Line
	6000 7300 6100 7300
Wire Wire Line
	6700 7300 6800 7300
Wire Wire Line
	7400 7300 7500 7300
Wire Wire Line
	8100 7300 8200 7300
Wire Wire Line
	8500 7600 9000 7600
Connection ~ 8500 7600
Wire Wire Line
	8800 1000 8800 1350
Wire Wire Line
	8800 1350 1200 1350
Wire Wire Line
	1200 1350 1200 1700
Wire Wire Line
	8800 1700 8800 2050
Wire Wire Line
	8800 2050 1200 2050
Wire Wire Line
	1200 2050 1200 2400
Wire Wire Line
	8800 2400 8800 2750
Wire Wire Line
	8800 2750 1200 2750
Wire Wire Line
	1200 2750 1200 3100
Wire Wire Line
	8800 3100 8800 3450
Wire Wire Line
	8800 3450 1200 3450
Wire Wire Line
	1200 3450 1200 3800
Wire Wire Line
	8800 3800 8800 4150
Wire Wire Line
	8800 4150 1200 4150
Wire Wire Line
	1200 4150 1200 4500
Wire Wire Line
	8800 4500 8800 4850
Wire Wire Line
	8800 4850 1200 4850
Wire Wire Line
	1200 4850 1200 5200
Wire Wire Line
	8800 5200 8800 5550
Wire Wire Line
	8800 5550 1200 5550
Wire Wire Line
	1200 5550 1200 5900
Wire Wire Line
	8800 5900 8800 6250
Wire Wire Line
	8800 6250 1200 6250
Wire Wire Line
	1200 6250 1200 6600
Wire Wire Line
	8800 6600 8800 6950
Wire Wire Line
	8800 6950 1200 6950
Wire Wire Line
	1200 6950 1200 7300
$Comp
L Device:C C?
U 1 1 5D25E277
P 9000 1000
AR Path="/5D25E277" Ref="C?"  Part="1" 
AR Path="/5D21925A/5D25E277" Ref="C1"  Part="1" 
F 0 "C1" H 9115 1046 50  0000 L CNN
F 1 "C" H 9115 955 50  0000 L CNN
F 2 "Capacitor_SMD:C_0805_2012Metric" H 9038 850 50  0001 C CNN
F 3 "~" H 9000 1000 50  0001 C CNN
	1    9000 1000
	1    0    0    -1  
$EndComp
$Comp
L Device:C C?
U 1 1 5D25E27E
P 9000 1700
AR Path="/5D25E27E" Ref="C?"  Part="1" 
AR Path="/5D21925A/5D25E27E" Ref="C2"  Part="1" 
F 0 "C2" H 9115 1746 50  0000 L CNN
F 1 "C" H 9115 1655 50  0000 L CNN
F 2 "Capacitor_SMD:C_0805_2012Metric" H 9038 1550 50  0001 C CNN
F 3 "~" H 9000 1700 50  0001 C CNN
	1    9000 1700
	1    0    0    -1  
$EndComp
$Comp
L Device:C C?
U 1 1 5D25E285
P 9000 2400
AR Path="/5D25E285" Ref="C?"  Part="1" 
AR Path="/5D21925A/5D25E285" Ref="C3"  Part="1" 
F 0 "C3" H 9115 2446 50  0000 L CNN
F 1 "C" H 9115 2355 50  0000 L CNN
F 2 "Capacitor_SMD:C_0805_2012Metric" H 9038 2250 50  0001 C CNN
F 3 "~" H 9000 2400 50  0001 C CNN
	1    9000 2400
	1    0    0    -1  
$EndComp
$Comp
L Device:C C?
U 1 1 5D25E28C
P 9000 3100
AR Path="/5D25E28C" Ref="C?"  Part="1" 
AR Path="/5D21925A/5D25E28C" Ref="C4"  Part="1" 
F 0 "C4" H 9115 3146 50  0000 L CNN
F 1 "C" H 9115 3055 50  0000 L CNN
F 2 "Capacitor_SMD:C_0805_2012Metric" H 9038 2950 50  0001 C CNN
F 3 "~" H 9000 3100 50  0001 C CNN
	1    9000 3100
	1    0    0    -1  
$EndComp
$Comp
L Device:C C?
U 1 1 5D25E293
P 9000 3800
AR Path="/5D25E293" Ref="C?"  Part="1" 
AR Path="/5D21925A/5D25E293" Ref="C5"  Part="1" 
F 0 "C5" H 9115 3846 50  0000 L CNN
F 1 "C" H 9115 3755 50  0000 L CNN
F 2 "Capacitor_SMD:C_0805_2012Metric" H 9038 3650 50  0001 C CNN
F 3 "~" H 9000 3800 50  0001 C CNN
	1    9000 3800
	1    0    0    -1  
$EndComp
$Comp
L Device:C C?
U 1 1 5D25E29A
P 9000 4500
AR Path="/5D25E29A" Ref="C?"  Part="1" 
AR Path="/5D21925A/5D25E29A" Ref="C6"  Part="1" 
F 0 "C6" H 9115 4546 50  0000 L CNN
F 1 "C" H 9115 4455 50  0000 L CNN
F 2 "Capacitor_SMD:C_0805_2012Metric" H 9038 4350 50  0001 C CNN
F 3 "~" H 9000 4500 50  0001 C CNN
	1    9000 4500
	1    0    0    -1  
$EndComp
$Comp
L Device:C C?
U 1 1 5D25E2A1
P 9000 5200
AR Path="/5D25E2A1" Ref="C?"  Part="1" 
AR Path="/5D21925A/5D25E2A1" Ref="C7"  Part="1" 
F 0 "C7" H 9115 5246 50  0000 L CNN
F 1 "C" H 9115 5155 50  0000 L CNN
F 2 "Capacitor_SMD:C_0805_2012Metric" H 9038 5050 50  0001 C CNN
F 3 "~" H 9000 5200 50  0001 C CNN
	1    9000 5200
	1    0    0    -1  
$EndComp
$Comp
L Device:C C?
U 1 1 5D25E2A8
P 9000 5900
AR Path="/5D25E2A8" Ref="C?"  Part="1" 
AR Path="/5D21925A/5D25E2A8" Ref="C8"  Part="1" 
F 0 "C8" H 9115 5946 50  0000 L CNN
F 1 "C" H 9115 5855 50  0000 L CNN
F 2 "Capacitor_SMD:C_0805_2012Metric" H 9038 5750 50  0001 C CNN
F 3 "~" H 9000 5900 50  0001 C CNN
	1    9000 5900
	1    0    0    -1  
$EndComp
$Comp
L Device:C C?
U 1 1 5D25E2AF
P 9000 6600
AR Path="/5D25E2AF" Ref="C?"  Part="1" 
AR Path="/5D21925A/5D25E2AF" Ref="C9"  Part="1" 
F 0 "C9" H 9115 6646 50  0000 L CNN
F 1 "C" H 9115 6555 50  0000 L CNN
F 2 "Capacitor_SMD:C_0805_2012Metric" H 9038 6450 50  0001 C CNN
F 3 "~" H 9000 6600 50  0001 C CNN
	1    9000 6600
	1    0    0    -1  
$EndComp
$Comp
L Device:C C?
U 1 1 5D25E2B6
P 9000 7300
AR Path="/5D25E2B6" Ref="C?"  Part="1" 
AR Path="/5D21925A/5D25E2B6" Ref="C10"  Part="1" 
F 0 "C10" H 9115 7346 50  0000 L CNN
F 1 "C" H 9115 7255 50  0000 L CNN
F 2 "Capacitor_SMD:C_0805_2012Metric" H 9038 7150 50  0001 C CNN
F 3 "~" H 9000 7300 50  0001 C CNN
	1    9000 7300
	1    0    0    -1  
$EndComp
Wire Wire Line
	8500 700  9000 700 
Wire Wire Line
	9000 700  9000 850 
Connection ~ 8500 700 
Wire Wire Line
	9000 1150 9000 1300
Connection ~ 9000 1300
Wire Wire Line
	9000 1300 9200 1300
Wire Wire Line
	8500 1400 9000 1400
Wire Wire Line
	9000 1400 9000 1550
Connection ~ 8500 1400
Wire Wire Line
	9000 1850 9000 2000
Connection ~ 9000 2000
Wire Wire Line
	9000 2000 9200 2000
Wire Wire Line
	8500 2100 9000 2100
Wire Wire Line
	9000 2100 9000 2250
Connection ~ 8500 2100
Wire Wire Line
	9000 2550 9000 2700
Connection ~ 9000 2700
Wire Wire Line
	9000 2700 9200 2700
Wire Wire Line
	8500 2800 9000 2800
Wire Wire Line
	9000 2800 9000 2950
Connection ~ 8500 2800
Wire Wire Line
	9000 3250 9000 3400
Connection ~ 9000 3400
Wire Wire Line
	9000 3400 9200 3400
Wire Wire Line
	8500 3500 9000 3500
Wire Wire Line
	9000 3500 9000 3650
Connection ~ 8500 3500
Wire Wire Line
	9000 3950 9000 4100
Connection ~ 9000 4100
Wire Wire Line
	9000 4100 9200 4100
Wire Wire Line
	8500 4200 9000 4200
Wire Wire Line
	9000 4200 9000 4350
Connection ~ 8500 4200
Wire Wire Line
	9000 4650 9000 4800
Connection ~ 9000 4800
Wire Wire Line
	9000 4800 9200 4800
Wire Wire Line
	8500 4900 9000 4900
Wire Wire Line
	9000 4900 9000 5050
Connection ~ 8500 4900
Wire Wire Line
	9000 5350 9000 5500
Connection ~ 9000 5500
Wire Wire Line
	9000 5500 9200 5500
Wire Wire Line
	8500 5600 9000 5600
Wire Wire Line
	9000 5600 9000 5750
Connection ~ 8500 5600
Wire Wire Line
	9000 6050 9000 6200
Connection ~ 9000 6200
Wire Wire Line
	9000 6200 9200 6200
Wire Wire Line
	8500 6300 9000 6300
Wire Wire Line
	9000 6300 9000 6450
Connection ~ 8500 6300
Wire Wire Line
	9000 6750 9000 6900
Connection ~ 9000 6900
Wire Wire Line
	9000 6900 9200 6900
Wire Wire Line
	8500 7000 9000 7000
Wire Wire Line
	9000 7000 9000 7150
Connection ~ 8500 7000
Wire Wire Line
	9000 7450 9000 7600
Connection ~ 9000 7600
Wire Wire Line
	9000 7600 9200 7600
Text HLabel 1100 1000 0    50   Input ~ 0
LED_DI
Wire Wire Line
	1100 1000 1200 1000
NoConn ~ 8800 7300
Text HLabel 10250 950  2    50   Input ~ 0
VDD
Text HLabel 10250 1050 2    50   Input ~ 0
GND
$Comp
L power:+5V #PWR0103
U 1 1 5D374B54
P 10150 850
F 0 "#PWR0103" H 10150 700 50  0001 C CNN
F 1 "+5V" H 10165 1023 50  0000 C CNN
F 2 "" H 10150 850 50  0001 C CNN
F 3 "" H 10150 850 50  0001 C CNN
	1    10150 850 
	1    0    0    -1  
$EndComp
$Comp
L power:GND #PWR0104
U 1 1 5D374CE5
P 10150 1150
F 0 "#PWR0104" H 10150 900 50  0001 C CNN
F 1 "GND" H 10155 977 50  0000 C CNN
F 2 "" H 10150 1150 50  0001 C CNN
F 3 "" H 10150 1150 50  0001 C CNN
	1    10150 1150
	1    0    0    -1  
$EndComp
Wire Wire Line
	10150 850  10150 950 
Wire Wire Line
	10150 950  10250 950 
Wire Wire Line
	10250 1050 10150 1050
Wire Wire Line
	10150 1050 10150 1150
$Comp
L Device:C C13
U 1 1 5CACB646
P 9750 3300
F 0 "C13" H 9865 3346 50  0000 L CNN
F 1 "C" H 9865 3255 50  0000 L CNN
F 2 "Capacitor_SMD:C_0805_2012Metric" H 9788 3150 50  0001 C CNN
F 3 "~" H 9750 3300 50  0001 C CNN
	1    9750 3300
	1    0    0    -1  
$EndComp
$Comp
L Device:C C14
U 1 1 5CACB7E9
P 10100 3300
F 0 "C14" H 10215 3346 50  0000 L CNN
F 1 "C" H 10215 3255 50  0000 L CNN
F 2 "Capacitor_SMD:C_0805_2012Metric" H 10138 3150 50  0001 C CNN
F 3 "~" H 10100 3300 50  0001 C CNN
	1    10100 3300
	1    0    0    -1  
$EndComp
$Comp
L power:+5V #PWR038
U 1 1 5CACB99D
P 9750 3050
F 0 "#PWR038" H 9750 2900 50  0001 C CNN
F 1 "+5V" H 9765 3223 50  0000 C CNN
F 2 "" H 9750 3050 50  0001 C CNN
F 3 "" H 9750 3050 50  0001 C CNN
	1    9750 3050
	1    0    0    -1  
$EndComp
$Comp
L power:GND #PWR039
U 1 1 5CACBB6C
P 10100 3550
F 0 "#PWR039" H 10100 3300 50  0001 C CNN
F 1 "GND" H 10105 3377 50  0000 C CNN
F 2 "" H 10100 3550 50  0001 C CNN
F 3 "" H 10100 3550 50  0001 C CNN
	1    10100 3550
	1    0    0    -1  
$EndComp
Wire Wire Line
	9750 3050 9750 3150
Wire Wire Line
	9750 3150 10100 3150
Connection ~ 9750 3150
Wire Wire Line
	9750 3450 10100 3450
Wire Wire Line
	10100 3450 10100 3550
Connection ~ 10100 3450
$EndSCHEMATC
