EESchema Schematic File Version 4
LIBS:wordclock-pcb-cache
EELAYER 30 0
EELAYER END
$Descr A4 11693 8268
encoding utf-8
Sheet 1 2
Title "Wordclock Tiny PCB"
Date ""
Rev ""
Comp "FABLAB Allgäu"
Comment1 ""
Comment2 ""
Comment3 ""
Comment4 ""
$EndDescr
$Sheet
S 700  700  1850 1050
U 5D21925A
F0 "LED Matrix" 50
F1 "led-matrix.sch" 50
F2 "LED_DI" I R 2550 1200 50 
F3 "VCC" I R 2550 1100 50 
F4 "GND" I R 2550 1300 50 
$EndSheet
$Comp
L wordclock-pcb-rescue:ATmega328P-AU-MCU_Microchip_ATmega-wordclock-pcb-rescue-wordclock-pcb-rescue U2
U 1 1 5D2E460A
P 5550 3350
F 0 "U2" H 5550 1764 50  0000 C CNN
F 1 "ATmega328P-AU" H 5550 1673 50  0000 C CNN
F 2 "Package_QFP:TQFP-32_7x7mm_P0.8mm" H 5550 3350 50  0001 C CIN
F 3 "http://ww1.microchip.com/downloads/en/DeviceDoc/ATmega328_P%20AVR%20MCU%20with%20picoPower%20Technology%20Data%20Sheet%2040001984A.pdf" H 5550 3350 50  0001 C CNN
	1    5550 3350
	1    0    0    -1  
$EndComp
$Comp
L Connector:AVR-ISP-6 J1
U 1 1 5D2E4CEF
P 8850 5700
F 0 "J1" H 8570 5796 50  0000 R CNN
F 1 "ISP" H 8570 5705 50  0000 R CNN
F 2 "Connector_IDC:IDC-Header_2x03_P2.54mm_Vertical" V 8600 5750 50  0001 C CNN
F 3 " ~" H 7575 5150 50  0001 C CNN
	1    8850 5700
	1    0    0    -1  
$EndComp
$Comp
L Device:R_PHOTO R6
U 1 1 5D2E4DC3
P 9900 5450
F 0 "R6" H 9970 5496 50  0000 L CNN
F 1 "R_PHOTO" H 9970 5405 50  0000 L CNN
F 2 "OptoDevice:R_LDR_4.9x4.2mm_P2.54mm_Vertical" V 9950 5200 50  0001 L CNN
F 3 "~" H 9900 5400 50  0001 C CNN
	1    9900 5450
	1    0    0    -1  
$EndComp
$Comp
L Device:R R7
U 1 1 5D2E57EE
P 9900 5850
F 0 "R7" H 9970 5896 50  0000 L CNN
F 1 "150" H 9970 5805 50  0000 L CNN
F 2 "Resistor_SMD:R_0805_2012Metric" V 9830 5850 50  0001 C CNN
F 3 "~" H 9900 5850 50  0001 C CNN
	1    9900 5850
	1    0    0    -1  
$EndComp
$Comp
L power:+5V #PWR010
U 1 1 5D2E584D
P 9900 5100
F 0 "#PWR010" H 9900 4950 50  0001 C CNN
F 1 "+5V" H 9915 5273 50  0000 C CNN
F 2 "" H 9900 5100 50  0001 C CNN
F 3 "" H 9900 5100 50  0001 C CNN
	1    9900 5100
	1    0    0    -1  
$EndComp
$Comp
L power:GND #PWR011
U 1 1 5D2E5885
P 9900 6300
F 0 "#PWR011" H 9900 6050 50  0001 C CNN
F 1 "GND" H 9905 6127 50  0000 C CNN
F 2 "" H 9900 6300 50  0001 C CNN
F 3 "" H 9900 6300 50  0001 C CNN
	1    9900 6300
	1    0    0    -1  
$EndComp
Text GLabel 10000 5650 2    50   Input ~ 0
R_BRIGHTNESS
Wire Wire Line
	9900 5100 9900 5300
Wire Wire Line
	9900 5600 9900 5650
Wire Wire Line
	9900 6000 9900 6300
Wire Wire Line
	10000 5650 9900 5650
Connection ~ 9900 5650
Wire Wire Line
	9900 5650 9900 5700
$Comp
L power:GND #PWR012
U 1 1 5D2E5A77
P 8750 6300
F 0 "#PWR012" H 8750 6050 50  0001 C CNN
F 1 "GND" H 8755 6127 50  0000 C CNN
F 2 "" H 8750 6300 50  0001 C CNN
F 3 "" H 8750 6300 50  0001 C CNN
	1    8750 6300
	1    0    0    -1  
$EndComp
$Comp
L power:+5V #PWR09
U 1 1 5D2E5AAF
P 8750 5100
F 0 "#PWR09" H 8750 4950 50  0001 C CNN
F 1 "+5V" H 8765 5273 50  0000 C CNN
F 2 "" H 8750 5100 50  0001 C CNN
F 3 "" H 8750 5100 50  0001 C CNN
	1    8750 5100
	1    0    0    -1  
$EndComp
Wire Wire Line
	8750 5100 8750 5200
Wire Wire Line
	8750 6100 8750 6300
$Comp
L power:GND #PWR06
U 1 1 5D2E5B9A
P 8800 2900
F 0 "#PWR06" H 8800 2650 50  0001 C CNN
F 1 "GND" H 8805 2727 50  0000 C CNN
F 2 "" H 8800 2900 50  0001 C CNN
F 3 "" H 8800 2900 50  0001 C CNN
	1    8800 2900
	1    0    0    -1  
$EndComp
$Comp
L Device:Battery_Cell BT1
U 1 1 5D2E5E63
P 9950 2000
F 0 "BT1" H 10068 2096 50  0000 L CNN
F 1 "Battery" H 10068 2005 50  0000 L CNN
F 2 "Battery:BatteryHolder_Keystone_3000_1x12mm" V 9950 2060 50  0001 C CNN
F 3 "~" V 9950 2060 50  0001 C CNN
	1    9950 2000
	1    0    0    -1  
$EndComp
Text GLabel 7700 2150 0    50   Input ~ 0
T_SDA
Text GLabel 7700 2050 0    50   Input ~ 0
T_SCL
Text GLabel 10400 2350 2    50   Input ~ 0
T_INT
Text GLabel 9350 5600 2    50   Input ~ 0
MOSI
Text GLabel 9350 5500 2    50   Input ~ 0
MISO
Text GLabel 9350 5700 2    50   Input ~ 0
SCK
Text GLabel 9350 5800 2    50   Input ~ 0
RESET
Wire Wire Line
	9250 5500 9350 5500
Wire Wire Line
	9350 5600 9250 5600
Wire Wire Line
	9250 5700 9350 5700
Wire Wire Line
	9350 5800 9250 5800
Text GLabel 6250 2450 2    50   Input ~ 0
MOSI
Text GLabel 6250 2550 2    50   Input ~ 0
MISO
Text GLabel 6250 2650 2    50   Input ~ 0
SCK
Text GLabel 7150 3650 2    50   Input ~ 0
RESET
Wire Wire Line
	6150 2450 6250 2450
Wire Wire Line
	6250 2550 6150 2550
Wire Wire Line
	6150 2650 6250 2650
Wire Wire Line
	7150 3650 7000 3650
Text GLabel 6250 4450 2    50   Input ~ 0
LED_DATA
Text GLabel 2650 1200 2    50   Input ~ 0
LED_DATA
Wire Wire Line
	2550 1200 2650 1200
Wire Wire Line
	6150 4450 6250 4450
Wire Wire Line
	6150 3450 6250 3450
Wire Wire Line
	6250 3550 6150 3550
$Comp
L power:+5V #PWR03
U 1 1 5D2F18A7
P 5550 1550
F 0 "#PWR03" H 5550 1400 50  0001 C CNN
F 1 "+5V" H 5565 1723 50  0000 C CNN
F 2 "" H 5550 1550 50  0001 C CNN
F 3 "" H 5550 1550 50  0001 C CNN
	1    5550 1550
	1    0    0    -1  
$EndComp
Wire Wire Line
	5550 1550 5550 1650
$Comp
L power:GND #PWR07
U 1 1 5D2F2B6C
P 5550 4950
F 0 "#PWR07" H 5550 4700 50  0001 C CNN
F 1 "GND" H 5555 4777 50  0000 C CNN
F 2 "" H 5550 4950 50  0001 C CNN
F 3 "" H 5550 4950 50  0001 C CNN
	1    5550 4950
	1    0    0    -1  
$EndComp
Wire Wire Line
	5550 4850 5550 4950
Text GLabel 6250 4050 2    50   Input ~ 0
T_INT
Wire Wire Line
	6150 4050 6250 4050
Text GLabel 6250 3050 2    50   Input ~ 0
R_BRIGHTNESS
Wire Wire Line
	6250 3050 6150 3050
$Comp
L Switch:SW_Push SW1
U 1 1 5D2F6562
P 7200 6000
F 0 "SW1" V 7154 6148 50  0000 L CNN
F 1 "Menu" V 7245 6148 50  0000 L CNN
F 2 "Button_Switch_THT:SW_PUSH_6mm" H 7200 6200 50  0001 C CNN
F 3 "" H 7200 6200 50  0001 C CNN
	1    7200 6000
	0    1    1    0   
$EndComp
$Comp
L Switch:SW_Push SW2
U 1 1 5D2F65BA
P 7550 6000
F 0 "SW2" V 7504 6148 50  0000 L CNN
F 1 "Plus" V 7595 6148 50  0000 L CNN
F 2 "Button_Switch_THT:SW_PUSH_6mm" H 7550 6200 50  0001 C CNN
F 3 "" H 7550 6200 50  0001 C CNN
	1    7550 6000
	0    1    1    0   
$EndComp
$Comp
L power:GND #PWR013
U 1 1 5D2F662D
P 7550 6300
F 0 "#PWR013" H 7550 6050 50  0001 C CNN
F 1 "GND" H 7555 6127 50  0000 C CNN
F 2 "" H 7550 6300 50  0001 C CNN
F 3 "" H 7550 6300 50  0001 C CNN
	1    7550 6300
	1    0    0    -1  
$EndComp
Wire Wire Line
	7550 6300 7550 6200
Wire Wire Line
	7550 6200 7200 6200
Connection ~ 7550 6200
$Comp
L Device:R R4
U 1 1 5D2F7F5D
P 7200 5350
F 0 "R4" H 7270 5396 50  0000 L CNN
F 1 "4K7" H 7270 5305 50  0000 L CNN
F 2 "Resistor_SMD:R_0805_2012Metric" V 7130 5350 50  0001 C CNN
F 3 "~" H 7200 5350 50  0001 C CNN
	1    7200 5350
	1    0    0    -1  
$EndComp
$Comp
L Device:R R5
U 1 1 5D2F7FCB
P 7550 5350
F 0 "R5" H 7620 5396 50  0000 L CNN
F 1 "4K7" H 7620 5305 50  0000 L CNN
F 2 "Resistor_SMD:R_0805_2012Metric" V 7480 5350 50  0001 C CNN
F 3 "~" H 7550 5350 50  0001 C CNN
	1    7550 5350
	1    0    0    -1  
$EndComp
$Comp
L power:+5V #PWR08
U 1 1 5D2F8039
P 7200 5100
F 0 "#PWR08" H 7200 4950 50  0001 C CNN
F 1 "+5V" H 7215 5273 50  0000 C CNN
F 2 "" H 7200 5100 50  0001 C CNN
F 3 "" H 7200 5100 50  0001 C CNN
	1    7200 5100
	1    0    0    -1  
$EndComp
Wire Wire Line
	7200 5100 7200 5200
Wire Wire Line
	7200 5200 7550 5200
Connection ~ 7200 5200
Wire Wire Line
	7200 5500 7200 5600
Wire Wire Line
	7550 5500 7550 5700
Text GLabel 7650 5600 2    50   Input ~ 0
SW_MENU
Text GLabel 7650 5700 2    50   Input ~ 0
SW_UP
Wire Wire Line
	7650 5600 7200 5600
Connection ~ 7200 5600
Wire Wire Line
	7200 5600 7200 5800
Wire Wire Line
	7650 5700 7550 5700
Connection ~ 7550 5700
Wire Wire Line
	7550 5700 7550 5800
Text GLabel 6250 4150 2    50   Input ~ 0
SW_MENU
Text GLabel 6250 4250 2    50   Input ~ 0
SW_UP
Wire Wire Line
	6150 4150 6250 4150
Wire Wire Line
	6150 4250 6250 4250
Text GLabel 6250 3450 2    50   Input ~ 0
T_SDA
Text GLabel 6250 3550 2    50   Input ~ 0
T_SCL
Wire Wire Line
	8200 2050 7700 2050
Wire Wire Line
	8200 2000 8200 2050
Wire Wire Line
	7950 2150 7700 2150
Wire Wire Line
	7950 2000 7950 2150
Connection ~ 7950 2150
Wire Wire Line
	8300 2150 7950 2150
Connection ~ 8200 2050
Wire Wire Line
	8300 2050 8200 2050
Wire Wire Line
	9400 2350 10400 2350
Connection ~ 9400 2350
Wire Wire Line
	9300 2350 9400 2350
$Comp
L Device:R R1
U 1 1 5D2E6DC6
P 7950 1850
F 0 "R1" H 8020 1896 50  0000 L CNN
F 1 "4K7" H 8020 1805 50  0000 L CNN
F 2 "Resistor_SMD:R_0805_2012Metric" V 7880 1850 50  0001 C CNN
F 3 "~" H 7950 1850 50  0001 C CNN
	1    7950 1850
	1    0    0    -1  
$EndComp
$Comp
L Device:R R2
U 1 1 5D2E6D71
P 8200 1850
F 0 "R2" H 8270 1896 50  0000 L CNN
F 1 "4K7" H 8270 1805 50  0000 L CNN
F 2 "Resistor_SMD:R_0805_2012Metric" V 8130 1850 50  0001 C CNN
F 3 "~" H 8200 1850 50  0001 C CNN
	1    8200 1850
	1    0    0    -1  
$EndComp
Wire Wire Line
	8800 2900 8800 2700
$Comp
L power:+5V #PWR01
U 1 1 5D2E5B62
P 8700 1500
F 0 "#PWR01" H 8700 1350 50  0001 C CNN
F 1 "+5V" H 8715 1673 50  0000 C CNN
F 2 "" H 8700 1500 50  0001 C CNN
F 3 "" H 8700 1500 50  0001 C CNN
	1    8700 1500
	1    0    0    -1  
$EndComp
Wire Notes Line
	10350 1550 10350 2850
Wire Notes Line
	7750 2850 7750 1550
Text Notes 7750 1550 0    50   ~ 0
RTC
Wire Notes Line
	10350 2850 7750 2850
Wire Notes Line
	7750 1550 10350 1550
$Comp
L Device:C C11
U 1 1 5D31B810
P 5300 1650
F 0 "C11" H 5415 1696 50  0000 L CNN
F 1 "C" H 5415 1605 50  0000 L CNN
F 2 "Capacitor_SMD:C_0805_2012Metric" H 5338 1500 50  0001 C CNN
F 3 "~" H 5300 1650 50  0001 C CNN
	1    5300 1650
	0    1    1    0   
$EndComp
$Comp
L Device:CP C12
U 1 1 5D31B88F
P 7900 3750
F 0 "C12" H 8018 3796 50  0000 L CNN
F 1 "CP" H 8018 3705 50  0000 L CNN
F 2 "Capacitor_THT:CP_Radial_D6.3mm_P2.50mm" H 7938 3600 50  0001 C CNN
F 3 "~" H 7900 3750 50  0001 C CNN
	1    7900 3750
	1    0    0    -1  
$EndComp
$Comp
L power:+5V #PWR034
U 1 1 5D31B917
P 7900 3500
F 0 "#PWR034" H 7900 3350 50  0001 C CNN
F 1 "+5V" H 7915 3673 50  0000 C CNN
F 2 "" H 7900 3500 50  0001 C CNN
F 3 "" H 7900 3500 50  0001 C CNN
	1    7900 3500
	1    0    0    -1  
$EndComp
$Comp
L power:GND #PWR035
U 1 1 5D31B977
P 7900 4000
F 0 "#PWR035" H 7900 3750 50  0001 C CNN
F 1 "GND" H 7905 3827 50  0000 C CNN
F 2 "" H 7900 4000 50  0001 C CNN
F 3 "" H 7900 4000 50  0001 C CNN
	1    7900 4000
	1    0    0    -1  
$EndComp
Wire Wire Line
	7900 4000 7900 3900
NoConn ~ 6150 2150
NoConn ~ 6150 2250
NoConn ~ 6150 2350
NoConn ~ 4950 2350
NoConn ~ 4950 2450
NoConn ~ 4950 2150
NoConn ~ 6150 2750
NoConn ~ 6150 2850
NoConn ~ 6150 3150
NoConn ~ 6150 3250
NoConn ~ 6150 3350
NoConn ~ 6150 4350
NoConn ~ 6150 4550
$Comp
L power:GND #PWR0101
U 1 1 5D3FA9D4
P 2650 1400
F 0 "#PWR0101" H 2650 1150 50  0001 C CNN
F 1 "GND" H 2655 1227 50  0000 C CNN
F 2 "" H 2650 1400 50  0001 C CNN
F 3 "" H 2650 1400 50  0001 C CNN
	1    2650 1400
	1    0    0    -1  
$EndComp
$Comp
L power:+5V #PWR0102
U 1 1 5D3FAA2D
P 2650 1000
F 0 "#PWR0102" H 2650 850 50  0001 C CNN
F 1 "+5V" H 2665 1173 50  0000 C CNN
F 2 "" H 2650 1000 50  0001 C CNN
F 3 "" H 2650 1000 50  0001 C CNN
	1    2650 1000
	1    0    0    -1  
$EndComp
Wire Wire Line
	2550 1100 2650 1100
Wire Wire Line
	2650 1100 2650 1000
Wire Wire Line
	2550 1300 2650 1300
Wire Wire Line
	2650 1300 2650 1400
$Comp
L power:+5V #PWR0105
U 1 1 5D3FD93F
P 4300 6100
F 0 "#PWR0105" H 4300 5950 50  0001 C CNN
F 1 "+5V" H 4315 6273 50  0000 C CNN
F 2 "" H 4300 6100 50  0001 C CNN
F 3 "" H 4300 6100 50  0001 C CNN
	1    4300 6100
	1    0    0    -1  
$EndComp
$Comp
L power:GND #PWR0106
U 1 1 5D3FD99B
P 4300 6500
F 0 "#PWR0106" H 4300 6250 50  0001 C CNN
F 1 "GND" H 4305 6327 50  0000 C CNN
F 2 "" H 4300 6500 50  0001 C CNN
F 3 "" H 4300 6500 50  0001 C CNN
	1    4300 6500
	1    0    0    -1  
$EndComp
Wire Wire Line
	4300 6100 4300 6200
Wire Wire Line
	4300 6200 4200 6200
Wire Wire Line
	4200 6400 4300 6400
Wire Wire Line
	4300 6400 4300 6500
$Comp
L Connector_Generic:Conn_01x03 J3
U 1 1 5D402DE9
P 6000 6200
F 0 "J3" H 5919 5875 50  0000 C CNN
F 1 "UART" H 5919 5966 50  0000 C CNN
F 2 "Connector_PinHeader_2.54mm:PinHeader_1x03_P2.54mm_Vertical" H 6000 6200 50  0001 C CNN
F 3 "~" H 6000 6200 50  0001 C CNN
	1    6000 6200
	1    0    0    1   
$EndComp
$Comp
L power:GND #PWR0107
U 1 1 5D4044D1
P 5700 6400
F 0 "#PWR0107" H 5700 6150 50  0001 C CNN
F 1 "GND" H 5705 6227 50  0000 C CNN
F 2 "" H 5700 6400 50  0001 C CNN
F 3 "" H 5700 6400 50  0001 C CNN
	1    5700 6400
	1    0    0    -1  
$EndComp
Wire Wire Line
	5800 6300 5700 6300
Wire Wire Line
	5700 6300 5700 6400
Text GLabel 5700 6100 0    50   Input ~ 0
TXD
Text GLabel 5700 6200 0    50   Input ~ 0
RXD
Wire Wire Line
	5800 6100 5700 6100
Wire Wire Line
	5700 6200 5800 6200
Text GLabel 6250 3950 2    50   Input ~ 0
TXD
Text GLabel 6250 3850 2    50   Input ~ 0
RXD
Wire Wire Line
	6150 3850 6250 3850
Wire Wire Line
	6250 3950 6150 3950
$Comp
L Connector:Barrel_Jack J2
U 1 1 5D40DFA1
P 3900 6300
F 0 "J2" H 3955 6625 50  0000 C CNN
F 1 "DC_IN" H 3955 6534 50  0000 C CNN
F 2 "Connector_BarrelJack:BarrelJack_Horizontal" H 3950 6260 50  0001 C CNN
F 3 "~" H 3950 6260 50  0001 C CNN
	1    3900 6300
	1    0    0    -1  
$EndComp
$Comp
L Connector_Generic:Conn_01x01 J4
U 1 1 5CA22710
P 9200 3550
F 0 "J4" H 9279 3592 50  0000 L CNN
F 1 "5V" H 9279 3501 50  0000 L CNN
F 2 "Connector_Wire:SolderWirePad_1x01_Drill1.5mm" H 9200 3550 50  0001 C CNN
F 3 "~" H 9200 3550 50  0001 C CNN
	1    9200 3550
	1    0    0    -1  
$EndComp
$Comp
L Connector_Generic:Conn_01x01 J5
U 1 1 5CA227B9
P 9200 3700
F 0 "J5" H 9279 3742 50  0000 L CNN
F 1 "GND" H 9279 3651 50  0000 L CNN
F 2 "Connector_Wire:SolderWirePad_1x01_Drill1.5mm" H 9200 3700 50  0001 C CNN
F 3 "~" H 9200 3700 50  0001 C CNN
	1    9200 3700
	1    0    0    -1  
$EndComp
$Comp
L power:+5V #PWR036
U 1 1 5CA22852
P 8900 3450
F 0 "#PWR036" H 8900 3300 50  0001 C CNN
F 1 "+5V" H 8915 3623 50  0000 C CNN
F 2 "" H 8900 3450 50  0001 C CNN
F 3 "" H 8900 3450 50  0001 C CNN
	1    8900 3450
	1    0    0    -1  
$EndComp
$Comp
L power:GND #PWR037
U 1 1 5CA228EF
P 8900 3800
F 0 "#PWR037" H 8900 3550 50  0001 C CNN
F 1 "GND" H 8905 3627 50  0000 C CNN
F 2 "" H 8900 3800 50  0001 C CNN
F 3 "" H 8900 3800 50  0001 C CNN
	1    8900 3800
	1    0    0    -1  
$EndComp
Wire Wire Line
	8900 3450 8900 3550
Wire Wire Line
	8900 3550 9000 3550
Wire Wire Line
	9000 3700 8900 3700
Wire Wire Line
	8900 3700 8900 3800
$Comp
L Mechanical:MountingHole MH1
U 1 1 5CA268D3
P 4150 1100
F 0 "MH1" H 4250 1146 50  0000 L CNN
F 1 "BarrelJack" H 4250 1055 50  0000 L CNN
F 2 "MountingHole:MountingHole_8.4mm_M8" H 4150 1100 50  0001 C CNN
F 3 "~" H 4150 1100 50  0001 C CNN
	1    4150 1100
	1    0    0    -1  
$EndComp
$Comp
L Graphic:Logo_Open_Hardware_Large #LOGO1
U 1 1 5CA26B80
P 3550 1050
F 0 "#LOGO1" H 3550 1550 50  0001 C CNN
F 1 "Logo_Open_Hardware_Large" H 3550 650 50  0001 C CNN
F 2 "" H 3550 1050 50  0001 C CNN
F 3 "~" H 3550 1050 50  0001 C CNN
	1    3550 1050
	1    0    0    -1  
$EndComp
$Comp
L Device:R R8
U 1 1 5DFFFD87
P 7000 3400
F 0 "R8" H 7070 3446 50  0000 L CNN
F 1 "10k" H 7070 3355 50  0000 L CNN
F 2 "Resistor_SMD:R_0805_2012Metric" V 6930 3400 50  0001 C CNN
F 3 "~" H 7000 3400 50  0001 C CNN
	1    7000 3400
	1    0    0    -1  
$EndComp
Wire Wire Line
	7000 3550 7000 3650
Connection ~ 7000 3650
Wire Wire Line
	7000 3650 6150 3650
$Comp
L power:+5V #PWR0108
U 1 1 5E006336
P 7000 3150
F 0 "#PWR0108" H 7000 3000 50  0001 C CNN
F 1 "+5V" H 7015 3323 50  0000 C CNN
F 2 "" H 7000 3150 50  0001 C CNN
F 3 "" H 7000 3150 50  0001 C CNN
	1    7000 3150
	1    0    0    -1  
$EndComp
Wire Wire Line
	7000 3150 7000 3250
$Comp
L Timer_RTC:DS3231M U1
U 1 1 5E018048
P 8800 2250
F 0 "U1" H 8800 1761 50  0000 C CNN
F 1 "DS3231M" H 8800 1670 50  0000 C CNN
F 2 "Package_SO:SOIC-16W_7.5x10.3mm_P1.27mm" H 8800 1650 50  0001 C CNN
F 3 "http://datasheets.maximintegrated.com/en/ds/DS3231.pdf" H 9070 2300 50  0001 C CNN
	1    8800 2250
	1    0    0    -1  
$EndComp
NoConn ~ 9300 2050
NoConn ~ 8300 2450
Wire Wire Line
	7900 3600 7900 3500
Wire Wire Line
	5450 1650 5550 1650
Connection ~ 5550 1650
Wire Wire Line
	5550 1650 5550 1850
Wire Wire Line
	5650 1650 5550 1650
Wire Wire Line
	5650 1650 5650 1850
$Comp
L power:GND #PWR02
U 1 1 5E07A83E
P 5050 1750
F 0 "#PWR02" H 5050 1500 50  0001 C CNN
F 1 "GND" H 5055 1577 50  0000 C CNN
F 2 "" H 5050 1750 50  0001 C CNN
F 3 "" H 5050 1750 50  0001 C CNN
	1    5050 1750
	1    0    0    -1  
$EndComp
Wire Wire Line
	5150 1650 5050 1650
Wire Wire Line
	5050 1650 5050 1750
$Comp
L Device:C C15
U 1 1 5E0880EF
P 9650 2100
F 0 "C15" H 9765 2146 50  0000 L CNN
F 1 "C" H 9765 2055 50  0000 L CNN
F 2 "Capacitor_SMD:C_0805_2012Metric" H 9688 1950 50  0001 C CNN
F 3 "~" H 9650 2100 50  0001 C CNN
	1    9650 2100
	1    0    0    -1  
$EndComp
Wire Wire Line
	9650 2250 9650 2700
Wire Wire Line
	9650 2700 8800 2700
Connection ~ 8800 2700
Wire Wire Line
	8800 2700 8800 2650
Wire Wire Line
	9650 2700 9950 2700
Wire Wire Line
	9950 2700 9950 2100
Connection ~ 9650 2700
Wire Wire Line
	8700 1500 8700 1600
Wire Wire Line
	7950 1700 7950 1600
Wire Wire Line
	7950 1600 8200 1600
Connection ~ 8700 1600
Wire Wire Line
	8700 1600 8700 1850
Wire Wire Line
	8200 1700 8200 1600
Connection ~ 8200 1600
Wire Wire Line
	8200 1600 8700 1600
Wire Wire Line
	8700 1600 9400 1600
Wire Wire Line
	9400 1600 9650 1600
Wire Wire Line
	9650 1600 9650 1950
Connection ~ 9400 1600
Wire Wire Line
	8800 1850 8800 1700
Wire Wire Line
	9950 1700 9950 1800
Wire Wire Line
	8800 1700 9950 1700
Wire Wire Line
	9400 2350 9400 2100
Wire Wire Line
	9400 1600 9400 1800
$Comp
L Device:R R3
U 1 1 5D2E6D2B
P 9400 1950
F 0 "R3" H 9470 1996 50  0000 L CNN
F 1 "4K7" H 9470 1905 50  0000 L CNN
F 2 "Resistor_SMD:R_0805_2012Metric" V 9330 1950 50  0001 C CNN
F 3 "~" H 9400 1950 50  0001 C CNN
	1    9400 1950
	1    0    0    -1  
$EndComp
$EndSCHEMATC
